id,timeAtServer,aircraft,latitude,longitude,baroAltitude,geoAltitude,numMeasurements,measurements
411,0.758000135,1983,48.44270325,5.887052096,11841.48,11986.26,4,"[[477,1725446377,7],[463,1725257930,5],[473,1725430373,24],[412,1725198147,14]]"
3692,6.843000174,1983,48.43732414,5.905874152,11864.34,12016.74,4,"[[436,7825921046,77],[463,7825304353,18],[412,7825244345,7],[477,7825490077,21]]"
6873,12.59000015,1983,48.43240356,5.923602764,11871.96,12024.36,4,"[[477,13565537877,34],[412,13565294375,28],[473,13565523200,55],[440,13565639245,43]]"
7427,13.57599998,1983,48.43157959,5.926771898,11879.58,12031.98,4,"[[477,14545550652,19],[412,14545307575,21],[115,14545900281,38],[473,14545536100,27]]"
8155,14.95800018,1983,48.43093872,5.929025503,11879.58,12031.98,4,"[[10,15930692562,31],[412,15930317025,24],[477,15930559527,31],[473,15930545125,24]]"
9977,18.38900018,1983,48.42810059,5.938955454,11887.2,12039.6,4,"[[473,19355836377,60],[477,19355850377,14],[412,19355609375,41],[10,19355983421,30]]"
14968,27.53800011,1983,48.42027283,5.966843825,11887.2,12039.6,4,"[[477,28520666650,8],[473,28520653775,46],[10,28520799703,45],[412,28520429325,48]]"
15598,28.61800003,1983,48.41940308,5.970083383,11887.2,12039.6,4,"[[436,29601131390,49],[477,29600676425,17],[412,29600439550,0],[473,29600663625,22]]"
16161,29.63700008,1983,48.41842393,5.973382247,11887.2,12039.6,4,"[[473,30620672823,51],[477,30620685450,16],[463,30620510277,29],[412,30620449025,20]]"
17768,32.60500002,1983,48.41596985,5.98226694,11887.2,12039.6,4,"[[412,33575475423,32],[473,33575698323,55],[477,33575710600,25],[10,33575843625,59]]"
21128,38.74600005,1983,48.41098022,5.999873235,11879.58,12031.98,4,"[[477,39730763622,28],[10,39730896625,39],[473,39730752425,36],[463,39730592748,18]]"
24855,45.63800001,1983,48.4053893,6.019568192,11879.58,12031.98,4,"[[10,46620956343,44],[473,46620812650,40],[412,46620593775,37],[477,46620823320,8]]"
25380,46.62700009,1983,48.40455136,6.022820724,11879.58,12031.98,4,"[[463,47615665578,52],[473,47615822125,57],[412,47615603550,38],[477,47615832670,0]]"
29387,53.89700007,1983,48.39826681,6.044865658,11879.58,12031.98,4,"[[436,54876472906,47],[477,54875989822,18],[412,54875764048,42],[473,54875980172,31]]"
34419,63.0250001,1983,48.39097595,6.070932242,11879.58,12031.98,4,"[[477,64006199675,27],[10,64006332625,39],[440,64006326373,9],[473,64006191200,23]]"
35342,64.68799996,1983,48.38998051,6.074499833,11887.2,12039.6,4,"[[473,65680978975,60],[10,65681120203,61],[477,65680987200,25],[412,65680766127,15]]"
39138,71.60500002,1983,48.38378906,6.096496582,11887.2,12039.6,4,"[[477,72571053898,0],[412,72570835977,42],[473,72571046575,30],[10,72571186890,56]]"
42953,78.4460001,1983,48.37773727,6.117433247,11887.2,12039.6,4,"[[440,79431238677,8],[125,79431837437,27],[477,79431103925,30],[473,79431097523,32]]"
44603,81.36899996,1983,48.37527466,6.126638559,11887.2,12039.6,4,"[[473,82351122950,49],[477,82351128975,23],[10,82351261890,56],[412,82350915675,37]]"
45439,82.85600019,1983,48.37391999,6.1310216,11887.2,12039.6,4,"[[477,83841141777,10],[473,83841135950,28],[10,83841274656,26],[440,83841278977,30]]"
48700,88.58599997,1983,48.37010193,6.145019531,11887.2,12039.6,4,"[[473,89581192975,8],[477,89581197775,34],[440,89581337925,27],[412,89580987875,25]]"
50922,92.61899996,1983,48.36639404,6.157766489,11887.2,12039.6,4,"[[10,93596426312,29],[473,93596288950,38],[412,93596085675,35],[477,93596293425,20]]"
51154,93.05000019,1983,48.36595956,6.159210205,11887.2,12039.6,4,"[[473,94031279950,13],[402,94031140927,29],[477,94031284400,0],[412,94031076625,95]]"
55725,101.233,1983,48.35879517,6.184598483,11887.2,12039.6,4,"[[412,102206323325,17],[440,102206674025,54],[473,102206523747,31],[402,102206387922,21]]"
56754,103.072,1983,48.35711463,6.190289949,11887.2,12039.6,4,"[[440,104041466325,60],[412,104041115575,35],[402,104041180270,17],[473,104041315523,18]]"
62428,113.2550001,1983,48.34906109,6.21912906,11879.58,12031.98,4,"[[477,114216402300,0],[412,114216204652,43],[402,114216269769,20],[10,114216535171,56]]"
64363,116.8970001,1983,48.34589554,6.229898553,11879.58,12031.98,4,"[[440,117871588622,19],[10,117871565828,34],[473,117871431898,44],[477,117871432948,20]]"
64634,117.3940001,1983,48.34538269,6.231712928,11879.58,12031.98,4,"[[10,118376627250,61],[402,118376364145,29],[473,118376493373,21],[477,118376494348,20]]"
69224,126.0930002,1983,48.33770235,6.258665386,11879.58,12031.98,4,"[[463,127066387025,15],[477,127066512300,13],[473,127066512623,34],[402,128066387023,25]]"
72370,132.1960001,1983,48.33233643,6.277630146,11887.2,12039.6,4,"[[477,133171564400,18],[473,133171565650,48],[412,133171376672,33],[402,134171442622,28]]"
72848,133.1200001,1983,48.33155745,6.280493485,11887.2,12039.6,4,"[[477,134101582075,24],[473,134101583450,56],[412,134101394822,18],[402,134101460922,31]]"
73115,133.6060002,1983,48.33114624,6.282137357,11887.2,12039.6,4,"[[477,134591648325,5],[473,134591649775,37],[412,134591461347,31],[10,134591781140,44]]"
76202,139.332,1983,48.32675171,6.297208346,11879.58,12031.98,4,"[[473,140316628047,35],[477,140316625748,32],[412,140316441875,44],[402,141316508072,16]]"
77517,141.9160001,1983,48.32462117,6.304851331,11887.2,12039.6,4,"[[473,142901650847,33],[10,142901780750,32],[412,142901465525,40],[477,142901647973,17]]"
78326,143.3870001,1983,48.32327271,6.309673603,11887.2,12039.6,4,"[[473,144366663097,29],[440,144366830850,53],[477,144366660173,5],[402,145366544972,25]]"
79374,145.4250002,1983,48.32148743,6.315659743,11887.2,12039.6,4,"[[320,146407081812,54],[477,146406935948,2],[473,146406939247,52],[402,146406821823,20]]"
85512,156.4980001,1983,48.31167965,6.350242213,11887.2,12039.6,4,"[[473,157491776727,29],[402,157491664422,40],[477,157491771727,0],[320,157491917593,38]]"
86029,157.4890001,1983,48.31088826,6.353350188,11887.2,12039.6,4,"[[473,158476793552,23],[10,158476921140,51],[320,158476934281,35],[477,158476788402,14]]"
87115,159.428,1983,48.31022644,6.35544997,11887.2,12039.6,4,"[[477,160407057377,23],[436,160407661734,44],[402,160406951697,16],[473,160407062852,54]]"
89745,164.253,1983,48.30567441,6.371202971,11887.2,12039.6,4,"[[10,165236971250,58],[473,165236844802,32],[477,165236838575,37],[129,165236993890,27]]"
93205,170.5140002,1983,48.30008814,6.39064588,11887.2,12039.6,4,"[[10,171487026046,57],[477,171486893375,17],[473,171486900652,26],[129,171487048906,30]]"
94111,172.148,1983,48.29864502,6.396085299,11887.2,12039.6,4,"[[10,173132038031,37],[440,173132093030,28],[473,173131912902,33],[477,173131905350,31]]"
99710,182.5670002,1983,48.2897644,6.426790678,11887.2,12039.6,4,"[[477,183547052902,10],[10,183547185578,44],[320,183547198796,46],[440,183547246803,47]]"
101214,185.5810001,1983,48.28752136,6.434819148,11887.2,12039.6,4,"[[477,186572020525,15],[10,186572153187,45],[125,186572761515,28],[129,186572176687,38]]"
102262,187.6690001,1983,48.28565695,6.441096256,11887.2,12039.6,4,"[[10,188647171171,38],[440,188647235552,38],[477,188647038573,11],[129,188647194828,30]]"
105372,193.7720001,1983,48.28019714,6.459749662,11887.2,12039.6,4,"[[125,194752832703,69],[473,194752102350,55],[477,194752091123,7],[440,194752291977,45]]"
114242,210.105,1983,48.26647742,6.507953845,11879.58,12031.98,4,"[[102,211092331656,30],[473,211092308802,47],[129,211092452000,37],[402,211092221427,23]]"
118301,217.5280001,1983,48.25987244,6.530597393,11887.2,12039.6,4,"[[473,218522368675,23],[477,218522353323,0],[320,218522499093,23],[10,218522485828,45]]"
120596,221.6460001,1983,48.25623593,6.543442576,11887.2,12039.6,4,"[[436,222623071250,40],[477,222622392825,13],[129,222622550546,31],[10,222622525328,40]]"
122028,224.1930001,1983,48.25405884,6.551161546,11887.2,12039.6,4,"[[473,225167372873,47],[477,225167356325,23],[320,225167502093,53],[129,225167514109,47]]"
123584,227.0600002,1983,48.2513945,6.560066625,11887.2,12039.6,4,"[[320,228037521578,64],[10,228037508281,66],[473,228037393025,50],[129,228037533750,36]]"
127297,234.006,1983,48.24604797,6.578909067,11887.2,12039.6,4,"[[473,234992533127,31],[320,234992660437,46],[477,234992514627,42],[129,234992672890,42]]"
137058,252.0270002,1983,48.23002625,6.634122408,11887.2,12039.6,4,"[[477,253012589548,7],[10,253012721984,48],[320,253012735359,62],[129,253012748656,51]]"
137869,253.5140002,1983,48.22877011,6.638777883,11887.2,12039.6,4,"[[10,254492734125,47],[477,254492601798,56],[320,254492747453,52],[129,254492760906,32]]"
142308,261.7130001,1983,48.2222528,6.661039654,11887.2,12039.6,4,"[[320,262697868437,58],[477,262697722697,33],[10,262697855062,32],[129,262697882328,20]]"
143133,263.2940001,1983,48.22080968,6.666171425,11887.2,12039.6,4,"[[320,264277833093,81],[10,264277819687,51],[129,264277846968,51],[412,264277580500,22]]"
143598,264.2280002,1983,48.21992519,6.669207121,11887.2,12039.6,4,"[[436,265218422578,37],[473,265217716925,55],[129,265217852343,40],[477,265217692597,54]]"
144505,265.9290001,1983,48.21848207,6.673905222,11887.2,12039.6,4,"[[10,266912839109,28],[320,266912852437,42],[473,266912731375,44],[477,266912706797,5]]"
145352,267.513,1983,48.2170855,6.679036994,11887.2,12039.6,4,"[[473,268487745575,36],[477,268487720397,20],[129,268487880296,44],[10,268487852796,56]]"
146288,269.2160001,1983,48.21556091,6.684335562,11887.2,12039.6,4,"[[477,270197735047,23],[320,270197880781,56],[440,270197984150,43],[473,270197760398,53]]"
146776,270.1100001,1983,48.21471133,6.686915347,11887.2,12039.6,4,"[[320,271092888250,50],[473,271092768023,43],[10,271092874843,44],[477,271092742472,11]]"
148210,272.7510002,1983,48.21235657,6.695392315,11887.2,12039.6,4,"[[320,273732921406,80],[473,273732801672,42],[10,273732907953,63],[477,273732775572,2]]"
151679,279.1590002,1983,48.20663452,6.715111366,11887.2,12039.6,4,"[[10,280137955390,43],[320,280137968890,55],[473,280137850522,28],[129,280137983578,28]]"
152955,281.5180001,1983,48.20572675,6.71806737,11887.2,12039.6,4,"[[477,282502842475,10],[320,282502988218,67],[10,282502974796,54],[129,282503003140,48]]"
154550,284.4250002,1983,48.20283508,6.728069599,11887.2,12039.6,4,"[[320,285408238875,60],[477,285408093100,16],[10,285408225390,63],[473,285408121648,36]]"
158734,292.5510001,1983,48.19555664,6.753493089,11887.2,12039.6,4,"[[473,293527970375,50],[125,293528689531,68],[477,293527940177,4],[129,293528101390,43]]"
161080,297.132,1983,48.19148254,6.767578125,11879.58,12031.98,4,"[[477,298122973152,22],[473,298123004402,34],[320,298123118875,64],[10,298123105375,43]]"
161326,297.618,1983,48.19111633,6.768845778,11879.58,12031.98,4,"[[473,298613073277,49],[320,298613187640,73],[477,298613041877,18],[129,298613203406,50]]"
162305,299.447,1983,48.18934037,6.774372302,11879.58,12031.98,4,"[[477,300432993352,0],[473,300433025125,26],[10,300433125625,72],[125,300433743328,70]]"
162584,299.9590001,1983,48.18891907,6.776029147,11879.58,12031.98,4,"[[320,300938143218,73],[10,300938129718,38],[477,300937997527,0],[129,300938159140,27]]"
163765,302.1690001,1983,48.18699646,6.782930814,11879.58,12031.98,4,"[[320,303148161828,62],[477,303148016050,0],[129,303148177828,57],[402,303148008650,6]]"
165779,305.9120002,1983,48.18477825,6.790345844,11879.58,12031.98,4,"[[477,306898049225,36],[320,306898194953,55],[10,306898181437,56],[473,306898082398,35]]"
167889,309.928,1983,48.18100751,6.803211413,11879.58,12031.98,4,"[[477,310903083150,9],[320,310903228796,57],[473,310903117148,29],[129,310903245171,23]]"
173120,319.484,1983,48.1723488,6.832990144,11887.2,12039.6,4,"[[320,320453320453,68],[477,320453174725,10],[473,320453211152,17],[129,320453337437,26]]"
175033,322.9780002,1983,48.16923523,6.843707745,11879.58,12031.98,4,"[[477,323963198800,11],[320,323963344531,88],[440,323963484875,40],[129,323963361734,33]]"
176146,324.934,1983,48.16755392,6.849614194,11887.2,12039.6,4,"[[320,325908645890,141],[473,325908537727,34],[477,325908500175,0],[10,325908632343,64]]"
177513,327.454,1983,48.16564528,6.857564826,11887.2,12039.6,4,"[[10,328438409203,44],[320,328438422765,73],[473,328438315200,47],[477,328438277075,0]]"
177767,327.904,1983,48.16550562,6.856914319,11887.2,12039.6,4,"[[10,328883368328,58],[320,328883381859,91],[473,328883274600,36],[125,328883988500,65]]"
178894,329.928,1983,48.1641556,6.861034193,11887.2,12039.6,4,"[[10,330903397781,70],[320,330903411359,100],[412,330903208322,0],[125,330904018187,66]]"
179120,330.3380001,1983,48.16359698,6.86305799,11887.2,12039.6,4,"[[320,331313403046,65],[473,331313296150,40],[477,331313257350,0],[129,331313420718,25]]"
179389,330.789,1983,48.16300964,6.865328275,11887.2,12039.6,4,"[[473,331773351650,26],[477,331773312825,0],[129,331773476187,56],[412,331773256097,40]]"
180289,332.4490001,1983,48.16159523,6.869924445,11887.2,12039.6,4,"[[10,333428406796,59],[320,333428420390,76],[473,333428313998,72],[477,333428274700,24]]"
184070,339.365,1983,48.15545654,6.891105652,11887.2,12039.6,4,"[[10,340333477171,44],[473,340333386075,61],[320,340333490859,68],[129,340333509078,35]]"
184964,340.9560001,1983,48.1539917,6.896118164,11887.2,12039.6,4,"[[473,341953413500,33],[320,341953517859,78],[402,341953395155,25],[129,341953536156,75]]"
186768,344.266,1983,48.15107443,6.906104455,11887.2,12039.6,4,"[[473,345263419300,51],[477,345263377200,0],[440,345263678197,37],[402,345263402805,11]]"
187289,345.256,1983,48.15018993,6.909273588,11879.58,12031.98,4,"[[320,346243529937,75],[473,346243426625,56],[129,346243548515,64],[402,346243410730,12]]"
188762,347.9650002,1983,48.14772034,6.91733551,11887.2,12039.6,4,"[[320,348948553609,67],[477,348948407925,19],[129,348948572281,40],[10,349948539968,36]]"
189389,349.0880001,1983,48.14679162,6.920823317,11887.2,12039.6,4,"[[320,350068562500,65],[10,350068548875,47],[473,350068460125,12],[477,350068416825,34]]"
194698,358.8740001,1983,48.13887774,6.947866587,11887.2,12039.6,4,"[[320,359858961765,87],[473,359858861852,33],[477,359858816100,17],[129,359858981234,47]]"
198076,365.0740001,1983,48.13324492,6.966881385,11887.2,12039.6,4,"[[10,366053688671,56],[477,366053556777,0],[320,366053702437,75],[129,366053722250,42]]"
200474,369.5010002,1983,48.12914832,6.980191744,11887.2,12039.6,4,"[[320,370483737343,114],[125,370484347671,98],[412,370483566725,35],[129,370483757484,66]]"
201301,371.0340002,1983,48.12767029,6.984489441,11887.2,12039.6,4,"[[10,372003736875,57],[402,372003652950,48],[320,372003750640,76],[412,372003581475,0]]"
202482,373.1670001,1983,48.12556458,6.991149902,11887.2,12039.6,4,"[[477,374143633575,21],[10,374143765453,50],[320,374143779250,89],[129,374143799578,42]]"
202718,373.5810001,1983,48.12515259,6.992385864,11887.2,12047.22,4,"[[320,374559024468,98],[473,374558928277,10],[129,374559044859,35],[402,375558929000,51]]"
203018,374.1140001,1983,48.12463275,6.993924654,11887.2,12047.22,4,"[[10,375093763171,52],[477,375093631300,11],[129,375093797390,45],[402,375093682000,22]]"
203019,374.1140001,1983,48.12463275,6.993924654,11887.2,12039.6,4,"[[10,375093763171,52],[477,375093631300,11],[129,375093797390,45],[402,375093682000,22]]"
204505,376.8530002,1983,48.12318964,6.99793889,11887.2,12039.6,4,"[[440,377828979698,4],[320,377828800078,121],[477,377828654398,4],[402,378828707500,73]]"
204995,377.802,1983,48.12217712,7.000968933,11887.2,12039.6,4,"[[402,378773716025,63],[320,378773807687,100],[440,378773988273,57],[477,378773662048,12]]"
205287,378.348,1983,48.12121582,7.003852844,11887.2,12039.6,4,"[[473,379338791027,35],[320,379338886156,86],[402,379338795025,33],[10,379338872359,51]]"
205908,379.454,1983,48.11993098,7.00772799,11887.2,12039.6,4,"[[102,380433742031,21],[320,380433822781,81],[473,380433727877,31],[402,380433732625,23]]"
207782,382.9950001,1983,48.11650085,7.017242432,11887.2,12039.6,4,"[[102,383978773703,30],[473,383978759627,29],[115,383979407687,61],[129,383978874609,47]]"
209407,385.937,1983,48.11320496,7.025688171,11887.2,12039.6,4,"[[473,386923784177,42],[102,386923798078,41],[402,386923793498,33],[412,386923721848,0]]"
210746,388.428,1983,48.11052743,7.03329233,11887.2,12039.6,4,"[[402,389418818147,43],[320,389418899875,49],[477,389418754350,36],[10,389418886078,48]]"
211249,389.3310001,1983,48.10964293,7.035616361,11887.2,12039.6,4,"[[320,390298906718,75],[477,390298761050,23],[129,390298927875,39],[473,390298814000,56]]"
212035,390.7540002,1983,48.10806016,7.039348896,11887.2,12039.6,4,"[[477,391713829825,10],[412,391713824302,22],[473,391713883075,54],[129,391713996765,64]]"
212332,391.3070002,1983,48.10740843,7.04117995,11887.2,12047.22,4,"[[477,392283778700,36],[320,392283924390,81],[412,392283773727,36],[402,393283845372,43]]"
213407,393.3370001,1983,48.10510254,7.047386169,11887.2,12039.6,4,"[[477,394323796850,8],[473,394323850827,49],[320,394323942546,65],[402,394323865497,29]]"
216238,398.5600002,1983,48.09910583,7.062149048,11887.2,12039.6,4,"[[320,399538987515,92],[473,399538896803,50],[129,399539009140,42],[402,399538915619,52]]"
216720,399.467,1983,48.09861005,7.064631535,11887.2,12039.6,4,"[[473,400463904002,47],[320,400463994531,88],[402,400463923544,52],[129,400464016187,43]]"
217539,400.954,1983,48.09796143,7.064826965,11887.2,12039.6,4,"[[320,401939007031,110],[10,401938993218,50],[412,401938865850,22],[129,401939028687,69]]"
218420,402.6290002,1983,48.09539795,7.071075439,11887.2,12039.6,4,"[[320,403604127921,86],[473,403604038052,0],[129,403604149703,42],[402,403604060094,26]]"
219229,404.1260002,1983,48.09356689,7.075401306,11887.2,12047.22,4,"[[473,405119009077,63],[320,405119098640,107],[10,405119084828,65],[402,405119032270,11]]"
220831,407.099,1983,48.09023065,7.083294208,11879.58,12039.6,4,"[[320,408079086468,108],[125,408079702453,49],[402,408079023172,41],[412,408078951648,14]]"
223392,411.618,1983,48.08486938,7.095794678,11887.2,12039.6,4,"[[473,412604010000,28],[320,412604097953,88],[10,412604084171,39],[477,412603952475,0]]"
224716,413.931,1983,48.08208401,7.102238582,11887.2,12047.22,4,"[[402,414909316072,31],[320,414909372484,116],[473,414909285000,19],[115,414909962093,43]]"
225508,415.349,1983,48.08029175,7.106369019,11887.2,12039.6,4,"[[473,416344042200,20],[477,416343983802,28],[320,416344129390,77],[412,416344003075,27]]"
228421,420.6370001,1983,48.07411194,7.120994568,11887.2,12047.22,4,"[[477,421609256102,0],[10,421609387984,81],[320,421609401703,109],[402,421609352147,50]]"
229787,423.0810001,1983,48.07119079,7.128014198,11887.2,12039.6,4,"[[320,424049195640,78],[477,424049050000,12],[10,424049181859,52],[129,424049218265,51]]"
231045,425.3330002,1983,48.07035285,7.129774827,11887.2,12047.22,4,"[[320,426309498953,89],[477,426309353373,34],[10,426309485187,53],[129,426309521671,43]]"
234055,430.763,1983,48.06326294,7.146812439,11887.2,12039.6,4,"[[473,431739180925,37],[10,431739251000,69],[402,431739225795,6],[412,431739154122,0]]"
234664,431.8080001,1983,48.0619812,7.149833679,11887.2,12039.6,4,"[[473,432794187173,35],[320,432794270765,124],[412,432794161197,19],[129,432794293812,69]]"
235503,433.309,1983,48.06025101,7.153719389,11887.2,12039.6,4,"[[473,434299198923,24],[477,434299136600,0],[129,434299305234,50],[412,434299174172,24]]"
236828,435.677,1983,48.05745788,7.160550631,11887.2,12047.22,4,"[[477,436644160750,0],[320,436644306140,85],[412,436644200597,42],[473,436644223498,40]]"
237749,437.306,1983,48.05554923,7.165128268,11887.2,12047.22,4,"[[477,438284172377,16],[10,438284303906,50],[320,438284317687,97],[129,438284340968,44]]"
238967,439.507,1983,48.05289576,7.171184833,11887.2,12039.6,4,"[[473,440499257123,75],[320,440499338984,111],[477,440499193602,9],[129,440499362359,61]]"
239255,440.0810001,1983,48.05224402,7.172875038,11879.58,12039.6,4,"[[473,441059512375,53],[477,441059448577,50],[320,441059594125,95],[129,441059617500,42]]"
239821,441.112,1983,48.05108022,7.17576247,11879.58,12039.6,4,"[[477,442104300627,24],[320,442104446250,68],[473,442104364750,36],[129,442104469687,37]]"
242619,446.2260001,1983,48.04488877,7.190340482,11887.2,12039.6,4,"[[473,447219314075,53],[320,447219394343,78],[10,447219380515,51],[129,447219418031,37]]"
245734,451.75,1983,48.0393219,7.203529358,11887.2,12039.6,4,"[[402,452734436725,15],[440,452734700022,13],[412,452734365397,37],[129,452734477968,59]]"
249790,459.0350001,1983,48.0309906,7.223098755,11887.2,12039.6,4,"[[320,460009795875,72],[440,460010048575,32],[473,460009718573,38],[412,460009714950,24]]"
250337,459.9680002,1983,48.02984619,7.225982666,11887.2,12047.22,4,"[[473,460944435023,33],[320,460944512046,95],[440,460944765675,42],[402,461944503425,25]]"
250847,460.8740001,1983,48.02873514,7.228581355,11887.2,12047.22,4,"[[10,461849506125,37],[320,461849519968,118],[412,461849441050,38],[402,461849512300,45]]"
252047,463.0450001,1983,48.02608167,7.23449707,11887.2,12047.22,4,"[[320,464029538140,114],[477,464029392825,4],[412,464029461602,34],[129,464029562609,65]]"
252535,463.9460001,1983,48.02508545,7.237106323,11887.2,12047.22,4,"[[477,464929400650,22],[320,464929546265,111],[10,464929532437,84],[129,464929570828,68]]"
253068,464.9160001,1983,48.02403337,7.239708534,11887.2,12047.22,4,"[[477,465894408952,5],[320,465894554515,116],[412,465894480100,41],[129,465894579125,76]]"
253370,465.457,1983,48.02328853,7.241398738,11887.2,12047.22,4,"[[477,466444414477,0],[320,466444560031,90],[412,466444486250,24],[129,466444584656,53]]"
253620,465.8890002,1983,48.02282301,7.242455116,11887.2,12039.6,4,"[[10,466864551843,72],[320,466864565625,109],[412,466864492150,26],[129,466864590281,87]]"
253923,466.398,1983,48.02220154,7.243835449,11887.2,12047.22,4,"[[320,467379567156,86],[477,467379421702,20],[412,467379494550,21],[129,467379591843,46]]"
254275,466.9780002,1983,48.02146912,7.245346069,11887.2,12047.22,4,"[[10,467944625234,80],[477,467944493502,0],[412,467944566775,19],[129,467944663781,72]]"
254822,467.944,1983,48.02027893,7.248161316,11887.2,12039.6,4,"[[477,468934435152,0],[402,468934580500,40],[463,468934580650,14],[412,468934509375,8]]"
255070,468.3940001,1983,48.01982117,7.249328613,11887.2,12047.22,4,"[[320,469364584093,86],[477,469364438527,4],[129,469364608812,46],[402,469364584475,20]]"
256547,471.0280001,1983,48.01675415,7.25667572,11887.2,12039.6,4,"[[320,471999612312,110],[477,471999466727,5],[402,471999615575,34],[10,471999598484,73]]"
258060,473.8340001,1983,48.0149231,7.260864258,11887.2,12039.6,4,"[[129,474814656671,67],[320,474814631625,51],[473,474814558050,55],[412,474814566800,35]]"
258869,475.2780001,1983,48.01234876,7.267174354,11879.58,12039.6,4,"[[473,476269569825,28],[412,476269579675,18],[320,476269642937,84],[402,476269650725,0]]"
258870,475.2780001,1983,48.01234876,7.267174354,11879.58,12031.98,4,"[[473,476269569825,28],[412,476269579675,18],[320,476269642937,84],[402,476269650725,0]]"
259639,476.6700001,1983,48.0111384,7.269780086,11887.2,12039.6,4,"[[125,477650283250,65],[320,477649654546,121],[412,477649592800,42],[129,477649679718,71]]"
262639,482.0670002,1983,48.00466764,7.284780649,11879.58,12039.6,4,"[[473,483064774227,32],[320,483064845734,78],[129,483064871218,42],[402,483064860900,62]]"
265523,487.109,1983,47.99870895,7.29879526,11887.2,12047.22,4,"[[320,488084744921,85],[402,488084765575,31],[412,488084694675,25],[129,488084770609,51]]"
268056,491.579,1983,47.99331665,7.311195374,11887.2,12047.22,4,"[[320,492564783203,113],[473,492564714148,38],[412,492564737850,7],[129,492564809156,57]]"
268590,492.5680001,1983,47.99221802,7.314216614,11887.2,12047.22,4,"[[473,493559975073,24],[320,493560043843,116],[412,493559999675,0],[129,493560069875,57]]"
270159,495.3610001,1983,47.98887634,7.321975708,11887.2,12039.6,4,"[[473,496344748148,48],[10,496344802375,37],[320,496344816156,89],[129,496344842312,58]]"
271332,497.4880002,1983,47.98790883,7.324148325,11887.2,12039.6,4,"[[320,498460091656,81],[412,498460052877,22],[473,498460024325,51],[129,498460117937,62]]"
271560,497.908,1983,47.98739676,7.325486403,11887.2,12039.6,4,"[[440,498875126727,31],[402,498874869625,22],[125,498875470078,68],[412,498874798877,23]]"
272485,499.4980001,1983,47.98492949,7.331402118,11887.2,12039.6,4,"[[477,500479705222,26],[320,500479850531,93],[473,500479783600,48],[129,500479876875,51]]"
274111,502.4810002,1983,47.98167083,7.338937613,11887.2,12047.22,4,"[[477,503474733873,2],[320,503474879203,73],[402,503474916675,18],[129,503474905843,47]]"
276016,505.948,1983,47.97743225,7.348548889,11887.2,12047.22,4,"[[477,506934761400,3],[402,506934948123,24],[320,506934906890,125],[129,506934933687,72]]"
279261,511.608,1983,47.97079468,7.364341736,11887.2,12047.22,4,"[[473,512584891650,31],[320,512584955218,125],[412,512584932225,34],[129,512584982312,82]]"
280994,514.8080001,1983,47.96694946,7.373199463,11887.2,12039.6,4,"[[473,515789921750,32],[477,515789838825,19],[320,515789984203,70],[129,515790011437,50]]"
281330,515.4060001,1983,47.96621704,7.374710083,11887.2,12039.6,4,"[[320,516374999140,94],[477,516374853625,9],[412,516374980600,3],[129,516375026421,68]]"
281875,516.3660002,1983,47.96507263,7.377662659,11887.2,12047.22,4,"[[320,517345055328,133],[473,517344993000,34],[125,517345691828,71],[412,517345037623,36]]"
282451,517.4260001,1983,47.963974,7.380409241,11887.2,12047.22,4,"[[473,518410170552,47],[320,518410232562,120],[10,518410218734,62],[129,518410259968,50]]"
282452,517.4260001,1983,47.963974,7.380409241,11887.2,12039.6,4,"[[473,518410170552,47],[320,518410232562,120],[10,518410218734,62],[129,518410259968,50]]"
282947,518.279,1983,47.96286373,7.383023776,11887.2,12047.22,4,"[[473,519260202602,46],[320,519260264375,82],[477,519260118850,0],[129,519260291812,61]]"
285750,523.289,1983,47.95764988,7.395348182,11879.58,12039.6,4,"[[473,524265006850,58],[10,524265053140,74],[320,524265066984,130],[129,524265094750,78]]"
288192,527.6470001,1983,47.952855,7.406545786,11887.2,12047.22,4,"[[473,528630034050,45],[477,528629947822,14],[10,528630079296,56],[129,528630121156,51]]"
289282,529.5910001,1983,47.9506073,7.411445618,11887.2,12047.22,4,"[[320,530570109796,92],[10,530570095968,39],[125,530570748984,65],[473,530570051323,26]]"
290848,532.4360001,1983,47.94722218,7.419715294,11887.2,12047.22,4,"[[473,533425077272,35],[320,533425134921,87],[477,533424989575,0],[129,533425163234,58]]"
292997,536.4000001,1983,47.94264221,7.430397034,11887.2,12039.6,4,"[[473,537380111697,46],[412,537380173100,28],[125,537380808515,61],[129,537380196578,52]]"
293247,536.826,1983,47.94213867,7.431564331,11887.2,12047.22,4,"[[477,537805092550,2],[320,537805237906,138],[10,537805224093,62],[129,537805266546,70]]"
296636,542.9590001,1983,47.93476868,7.448661804,11887.2,12047.22,4,"[[320,543935226015,119],[125,543935868000,78],[412,543935238647,47],[477,543935080725,0]]"
297233,544.036,1983,47.93451342,7.449364295,11887.2,12039.6,4,"[[477,545020154025,17],[320,545020299375,133],[473,545020245197,71],[10,545020285515,73]]"
297722,544.95,1983,47.93403625,7.450172424,11887.2,12047.22,4,"[[473,545935190172,30],[320,545935244062,129],[477,545935098725,12],[129,545935273218,79]]"
298734,546.803,1983,47.9312439,7.456970215,11887.2,12047.22,4,"[[10,547790243421,59],[477,547790111873,13],[320,547790257265,100],[473,547790203922,31]]"
299642,548.487,1983,47.92939267,7.4611253,11887.2,12047.22,4,"[[477,549470192147,31],[320,549470337468,91],[10,549470323625,30],[129,549470366828,63]]"
299891,548.9460001,1983,47.9289093,7.462188721,11887.2,12047.22,4,"[[125,549920920109,88],[320,549920276953,127],[473,549920224272,23],[129,549920306359,72]]"
300639,550.3300002,1983,47.92734437,7.465984638,11887.2,12047.22,4,"[[320,551310517203,55],[125,551311160625,65],[412,551310538300,27],[129,551310546640,56]]"
301770,552.3540001,1983,47.92474365,7.472076416,11887.2,12039.6,4,"[[10,553335293031,40],[320,553335306921,82],[473,553335255322,32],[129,553335336531,42]]"
303492,555.4780002,1983,47.92115292,7.4804218,11887.2,12047.22,4,"[[477,556450195600,20],[10,556450327031,38],[125,556450985421,66],[129,556450370703,59]]"
307591,562.8570001,1983,47.912308,7.500774677,11887.2,12039.6,4,"[[473,563845354625,22],[320,563845402734,66],[477,563845257575,24],[129,563845432984,77]]"
307883,563.4130001,1983,47.91174316,7.50201416,11887.2,12047.22,4,"[[320,564390426468,81],[477,564390281150,16],[129,564390456796,83],[402,564390532175,75]]"
308146,563.9390001,1983,47.91101074,7.503799438,11879.58,12039.6,4,"[[320,564920406390,83],[402,564920512725,23],[473,564920358600,28],[129,564920436750,73]]"
312455,571.9170001,1983,47.90271824,7.523451585,11887.2,12039.6,4,"[[473,572911514498,42],[320,572911559921,78],[477,572911414497,6],[129,572911590890,50]]"
312774,572.5190001,1983,47.90215961,7.524578388,11887.2,12039.6,4,"[[320,573500479656,124],[477,573500334272,0],[129,573500510671,67],[402,573500595847,25]]"
314749,576.0150001,1983,47.89796448,7.534492493,11887.2,12047.22,4,"[[320,576995510781,92],[477,576995365473,0],[412,576995561900,37],[129,576995542046,46]]"
318334,582.556,1983,47.8901825,7.552207947,11887.2,12039.6,4,"[[320,583535576328,99],[477,583535430975,6],[402,583535704220,34],[129,583535608093,77]]"
319129,584.026,1983,47.8886261,7.556190491,11887.2,12047.22,4,"[[320,585000579421,130],[412,585000639975,30],[129,585000611343,88],[402,586000708870,17]]"
321206,587.8370001,1983,47.88395769,7.566833496,11887.2,12047.22,4,"[[473,588820573647,20],[412,588820678650,22],[129,588820645859,93],[402,588820747545,10]]"
324017,592.9690001,1983,47.87960815,7.57699585,11887.2,12047.22,4,"[[473,593955621273,27],[477,593955514050,36],[320,593955659421,108],[129,593955691937,81]]"
324627,594.0800002,1983,47.877999,7.580777682,11887.2,12039.6,4,"[[320,595060918468,130],[447,595060951078,112],[412,595060990848,30],[129,595060951125,85]]"
324933,594.622,1983,47.87704468,7.583106995,11887.2,12039.6,4,"[[473,595595633325,12],[320,595595671031,93],[129,595595703703,73],[412,595595744173,33]]"
326861,598.0800002,1983,47.87315757,7.592045711,11879.58,12039.6,4,"[[473,599060915900,35],[320,599060952421,150],[477,599060807197,0],[412,599061029525,25]]"
327456,599.142,1983,47.8717804,7.595466614,11879.58,12039.6,4,"[[320,600120711031,124],[412,600120789775,39],[402,600120858348,21],[129,600120744125,75]]"
328988,601.848,1983,47.86854889,7.602468637,11887.2,12039.6,4,"[[320,602830733156,87],[10,602830719218,23],[473,602830698000,21],[129,602830766390,58]]"
330912,605.289,1983,47.8645454,7.612116887,11879.58,12039.6,4,"[[473,606275733225,50],[477,606275621798,0],[320,606275767187,115],[402,606275921397,32]]"
332872,608.78,1983,47.86042786,7.621696472,11887.2,12047.22,4,"[[473,609750762100,55],[320,609750794765,101],[412,609750884775,11],[10,609750780828,16]]"
333576,610.1070001,1983,47.85886603,7.625286396,11887.2,12047.22,4,"[[473,611100794800,48],[254,611101050750,30],[320,611100826984,81],[129,611100860890,77]]"
335303,613.1630001,1983,47.85525513,7.633712769,11887.2,12047.22,4,"[[320,614145832078,128],[254,614146057609,18],[473,614145801023,49],[129,614145866250,65]]"
335555,613.6130002,1983,47.85475159,7.634880066,11887.2,12047.22,4,"[[473,614590815098,47],[320,614590846000,57],[125,614591503187,64],[129,614590880187,57]]"
337141,616.609,1983,47.85273743,7.639343262,11887.2,12047.22,4,"[[320,617580869968,66],[402,617581037572,25],[473,617580840173,32],[129,617580904390,61]]"
337944,618.0880001,1983,47.85071939,7.644019494,11879.58,12039.6,4,"[[473,619070844572,26],[320,619070873812,83],[254,619071102453,29],[129,619070908343,71]]"
338235,618.6440001,1983,47.84964869,7.646625225,11879.58,12039.6,4,"[[320,619625880171,94],[402,619626050197,26],[473,619625851197,27],[129,619625914812,70]]"
340688,623.1000001,1983,47.8446676,7.65838623,11887.2,12047.22,4,"[[320,624076062656,136],[473,624076035372,56],[412,624076169900,17],[402,625076237922,32]]"
341969,625.506,1983,47.84178136,7.664724497,11887.2,12039.6,4,"[[473,626500913147,6],[320,626500939421,100],[10,626500925500,32],[129,626500974656,70]]"
342245,626.0120001,1983,47.84115601,7.665985107,11887.2,12039.6,4,"[[320,626986014937,127],[10,626986001015,65],[412,626986125675,28],[477,626985869577,1]]"
343967,629.0600002,1983,47.83749855,7.674865723,11887.2,12047.22,4,"[[320,630040969656,126],[412,630041084077,39],[463,630041152148,56],[129,630041005171,79]]"
345584,631.957,1983,47.83410645,7.682739258,11887.2,12047.22,4,"[[320,632936000796,138],[10,632935986875,76],[463,632936186697,29],[129,632936036609,84]]"
345815,632.3830001,1983,47.83369446,7.683769226,11887.2,12047.22,4,"[[320,633366054406,48],[125,633366715859,55],[473,633366030723,34],[129,633366090281,61]]"
346123,632.9680002,1983,47.83296204,7.685554504,11887.2,12047.22,4,"[[473,633950980373,18],[320,633951003875,136],[412,633951123100,14],[129,633951039796,72]]"
346423,633.5370002,1983,47.83218384,7.687202454,11887.2,12047.22,4,"[[473,634530986000,52],[320,634531009218,98],[10,634530995265,58],[129,634531045203,76]]"
349982,640.049,1983,47.82558118,7.702683669,11887.2,12047.22,4,"[[320,641031065062,125],[473,641031044325,27],[10,641031051125,86],[129,641031101640,66]]"
351133,642.187,1983,47.82325745,7.707733154,11887.2,12047.22,4,"[[473,643181140475,38],[254,643181404296,41],[477,643181015075,15],[412,643181290850,17]]"
351416,642.6670001,1983,47.82241563,7.709867037,11887.2,12047.22,4,"[[473,643661323650,76],[320,643661343359,89],[254,643661587562,26],[129,643661380171,69]]"
351650,643.1030002,1983,47.8217639,7.711345966,11887.2,12047.22,4,"[[320,644076092078,136],[402,644076291195,16],[412,644076223673,28],[129,644076128921,91]]"
351869,643.5320001,1983,47.82134493,7.712331919,11887.2,12047.22,4,"[[254,644511573140,26],[320,644511328328,111],[473,644511308975,67],[129,644511365203,71]]"
352399,644.467,1983,47.82041388,7.714303824,11887.2,12039.6,4,"[[473,645461336925,36],[10,645461342062,35],[320,645461355875,98],[129,645461392890,66]]"
352680,645.0020001,1983,47.81991577,7.715423584,11887.2,12047.22,4,"[[320,645976107656,136],[463,645976309252,22],[10,645976093718,82],[129,645976144687,77]]"
355748,650.5,1983,47.81329139,7.730712891,11887.2,12047.22,4,"[[320,651476155687,101],[125,651476821343,58],[412,651476296498,4],[473,651476139175,37]]"
358062,654.697,1983,47.80821719,7.74212177,11887.2,12047.22,4,"[[473,655691178073,41],[320,655691192828,115],[477,655691047573,28],[10,655691178890,68]]"
358634,655.757,1983,47.80696106,7.745361328,11887.2,12039.6,4,"[[473,656736195298,85],[320,656736209656,98],[463,656736424000,23],[129,656736247687,77]]"
361028,660.056,1983,47.80183954,7.757051908,11879.58,12039.6,4,"[[254,661041565671,41],[320,661041310000,119],[473,661041297448,42],[129,661041348500,96]]"
363326,664.312,1983,47.79825502,7.765573355,11879.58,12039.6,4,"[[320,665291276468,103],[10,665291262500,42],[473,665291265775,50],[129,665291315500,69]]"
364166,665.819,1983,47.79656982,7.769187927,11887.2,12039.6,4,"[[473,666806278602,25],[254,666806548281,40],[463,666806515227,34],[402,667806515225,37]]"
365165,667.638,1983,47.79382324,7.77571106,11887.2,12047.22,4,"[[254,668616567281,31],[320,668616306390,147],[129,668616345796,73],[402,668616535173,15]]"
366053,669.194,1983,47.79231262,7.778938293,11887.2,12047.22,4,"[[320,670171318062,98],[463,670171548780,22],[402,670171548748,34],[473,670171309477,33]]"
367778,672.3960001,1983,47.78833008,7.788414001,11887.2,12039.6,4,"[[473,673391396027,25],[320,673391403203,146],[477,673391258023,0],[402,673391637798,52]]"
369263,675.115,1983,47.78517384,7.795644907,11887.2,12039.6,4,"[[320,676101369765,79],[463,676101607677,6],[125,676102041343,62],[129,676101409875,78]]"
371399,679.0080001,1983,47.78045654,7.806266785,11887.2,12047.22,4,"[[473,679991401252,22],[320,679991405546,98],[463,679991648302,45],[402,679991648222,30]]"
371400,679.0080001,1983,47.78045654,7.806266785,11887.2,12039.6,4,"[[473,679991401252,22],[320,679991405546,98],[463,679991648302,45],[402,679991648222,30]]"
371633,679.4320002,1983,47.77999878,7.807365417,11887.2,12039.6,4,"[[254,680411904609,35],[402,680411878897,32],[412,680411812602,12],[129,680411676265,87]]"
373889,683.6340001,1983,47.7749176,7.818763733,11887.2,12039.6,4,"[[473,684596446002,25],[320,684596448203,108],[402,684596696497,74],[129,684596489390,91]]"
375757,687.056,1983,47.77083575,7.828603891,11887.2,12047.22,4,"[[473,688051474227,43],[447,688051516328,97],[129,688051516375,73],[402,688051727425,26]]"
376900,689.0940001,1983,47.77013746,7.830012395,11887.2,12047.22,4,"[[10,690076559953,41],[473,690076574202,34],[320,690076573921,105],[129,690076615703,57]]"
379184,693.276,1983,47.7646443,7.842688927,11887.2,12047.22,4,"[[473,694266531325,34],[254,694266807734,24],[412,694266723348,30],[129,694266571343,92]]"
379520,693.862,1983,47.76394602,7.844308706,11887.2,12039.6,4,"[[473,694836537775,16],[320,694836535171,83],[477,694836390172,8],[129,694836577531,59]]"
380363,695.4760001,1983,47.76194427,7.849168044,11887.2,12039.6,4,"[[473,696471551523,45],[254,696471828453,57],[402,696471811250,25],[412,696471745222,31]]"
386182,705.9350002,1983,47.74951482,7.877690242,11887.2,12047.22,4,"[[320,706916640140,77],[125,706917319406,65],[473,706916648372,32],[129,706916684000,66]]"
386405,706.3370001,1983,47.74891663,7.878982544,11887.2,12039.6,4,"[[473,707331651672,36],[320,707331643109,123],[463,707331919577,29],[402,707331919575,27]]"
390225,713.0840001,1983,47.74262509,7.893324632,11879.58,12039.6,4,"[[10,714066695546,71],[320,714066709578,97],[129,714066754343,60],[402,714066994400,19]]"
392757,717.698,1983,47.7366664,7.907057542,11879.58,12039.6,4,"[[473,718681758125,32],[320,718681744109,88],[402,718682034700,23],[412,718681969550,48]]"
394566,720.9000001,1983,47.73270946,7.916212816,11879.58,12039.6,4,"[[320,721876771000,108],[402,721877065625,18],[129,721876816875,67],[10,721876757000,72]]"
395303,722.2290001,1983,47.7311554,7.919631958,11879.58,12039.6,4,"[[320,723206872437,131],[254,723207172015,25],[402,723207168698,36],[125,723207555937,73]]"
395578,722.691,1983,47.73056806,7.921001728,11887.2,12047.22,4,"[[320,723666785734,87],[477,723666640725,10],[129,723666831812,70],[10,723666771750,57]]"
395868,723.224,1983,47.72996521,7.922447205,11879.58,12039.6,4,"[[10,724201777156,91],[320,724201791187,126],[125,724202474875,78],[402,724202088673,18]]"
396187,723.7870002,1983,47.72932434,7.924163818,11879.58,12039.6,4,"[[477,724761926675,10],[320,724762071687,89],[402,724762369923,34],[129,724762117953,62]]"
396795,724.881,1983,47.72791458,7.927339994,11879.58,12039.6,4,"[[320,725866805656,100],[477,725866660650,27],[129,725866852046,76],[402,726867105273,29]]"
399595,729.8430002,1983,47.7220459,7.940711975,11887.2,12039.6,4,"[[320,730821849968,118],[473,730821870150,35],[402,730822155800,58],[129,730821897093,61]]"
400728,731.8990002,1983,47.71958173,7.946284367,11887.2,12047.22,4,"[[473,732891887750,39],[463,732892175077,22],[129,732891913921,69],[402,732892174975,22]]"
400729,731.8990002,1983,47.71958173,7.946284367,11887.2,12039.6,4,"[[473,732891887750,39],[463,732892175077,22],[129,732891913921,69],[402,732892174975,22]]"
401314,732.944,1983,47.71824646,7.949432373,11887.2,12047.22,4,"[[320,733926875781,93],[473,733926897523,33],[129,733926923265,75],[125,733927561984,70]]"
401542,733.3660002,1983,47.71774292,7.950531006,11887.2,12047.22,4,"[[473,734346925073,44],[254,734347210953,37],[320,734346903046,145],[125,734347589468,93]]"
402106,734.3280001,1983,47.71660239,7.95311561,11887.2,12047.22,4,"[[477,735296768798,0],[320,735296913734,146],[254,735297222312,33],[129,735296961500,99]]"
402332,734.7180002,1983,47.71613687,7.954171988,11887.2,12047.22,4,"[[477,735701746898,6],[473,735701914573,21],[320,735701891875,74],[129,735701939671,76]]"
408214,745.368,1983,47.70446777,7.980812073,11887.2,12047.22,4,"[[254,746332302203,26],[412,746332246052,23],[129,746332034609,120],[402,747332310548,54]]"
410240,749.0540001,1983,47.70002979,7.991145207,11887.2,12047.22,4,"[[320,750032082703,115],[402,750032412847,40],[463,750032412850,38],[129,750032132781,48]]"
410854,750.138,1983,47.69881944,7.993750939,11887.2,12047.22,4,"[[477,751116959825,0],[402,751117436222,35],[463,751117436225,22],[129,751117154921,60]]"
411103,750.575,1983,47.69819641,7.995025635,11887.2,12047.22,4,"[[320,751552030859,148],[10,751552016890,132],[477,751551886025,0],[473,751552062148,17]]"
412477,753.1130002,1983,47.69528147,8.002131535,11879.58,12039.6,4,"[[463,754077383250,24],[10,754077033750,82],[402,754077383044,7],[320,754077047781,85]]"
412662,753.4960001,1983,47.69476939,8.003258338,11887.2,12047.22,4,"[[473,754492089150,45],[477,754491911475,12],[320,754492056281,124],[125,754492748046,70]]"
415612,759.1620002,1983,47.68789673,8.018852234,11887.2,12047.22,4,"[[320,760147105375,112],[10,760147091343,59],[473,760147141352,37],[129,760147157078,63]]"
416129,760.198,1983,47.6879425,8.018920898,11887.2,12047.22,4,"[[473,761177151777,37],[320,761177115187,115],[463,761177459723,6],[402,761177459495,11]]"
417787,763.22,1983,47.68386841,8.028190613,11887.2,12047.22,4,"[[320,764207142765,111],[477,764206997973,23],[10,764207128718,67],[129,764207195140,72]]"
419206,765.7080002,1983,47.68131579,8.033752441,11887.2,12047.22,4,"[[473,766697204202,27],[320,766697164500,111],[477,766697019675,0],[129,766697217250,87]]"
420631,768.29,1983,47.67805714,8.041147085,11887.2,12047.22,4,"[[412,769257482300,21],[320,769257191421,93],[473,769257232552,25],[129,769257244640,60]]"
420953,768.8340001,1983,47.67750549,8.042472839,11887.2,12047.22,4,"[[320,769817191703,41],[477,769817046925,0],[10,769817177671,109],[129,769817245046,84]]"
421668,770.1750002,1983,47.67581177,8.046455383,11879.58,12039.6,4,"[[473,771167246177,27],[320,771167203890,113],[463,771167560925,32],[125,771167901812,63]]"
423656,773.7250001,1983,47.67158638,8.056077224,11887.2,12047.22,4,"[[320,774697258203,99],[125,774697957156,39],[477,774697113527,0],[129,774697312390,108]]"
424799,775.6750002,1983,47.66916566,8.061570388,11887.2,12047.22,4,"[[320,776652251343,106],[477,776652106550,0],[463,776652615330,32],[129,776652305859,71]]"
425362,776.638,1983,47.66809496,8.06431697,11887.2,12047.22,4,"[[320,777622260250,122],[477,777622115725,16],[125,777622958265,66],[129,777622314953,74]]"
426230,778.217,1983,47.66619873,8.068496704,11887.2,12047.22,4,"[[477,779202155200,8],[320,779202299843,100],[463,779202667330,25],[129,779202354859,72]]"
426867,779.3630002,1983,47.66468811,8.071586609,11887.2,12047.22,4,"[[320,780337284390,103],[10,780337270343,68],[125,780337983171,46],[129,780337339625,59]]"
427155,779.868,1983,47.66409147,8.073049692,11879.58,12039.6,4,"[[477,780852208148,15],[320,780852352750,164],[463,780852722205,33],[129,780852408109,93]]"
427982,781.3150001,1983,47.66250869,8.076923077,11887.2,12047.22,4,"[[10,782297342890,61],[320,782297356937,101],[477,782297212298,29],[129,782297412578,99]]"
428257,781.786,1983,47.66189575,8.078453064,11887.2,12047.22,4,"[[477,782772169198,1],[320,782772313687,104],[463,782772685755,69],[14,782772320765,40]]"
428768,782.7180002,1983,47.6607397,8.080937312,11887.2,12047.22,4,"[[10,783697299734,105],[320,783697313718,151],[129,783697369656,80],[477,783697169123,10]]"
429355,783.684,1983,47.66018108,8.08213454,11887.2,12047.22,4,"[[320,784662582734,141],[412,784662893853,25],[10,784662568734,99],[129,784662638859,79]]"
430465,785.619,1983,47.65892029,8.085113525,11879.58,12039.6,4,"[[320,786592338187,139],[412,786592651903,36],[14,786592345406,52],[463,786592714982,37]]"
430787,786.2190001,1983,47.65786743,8.087516785,11879.58,12039.6,4,"[[10,787187389250,81],[463,787187780930,38],[320,787187403312,113],[129,787187459906,82]]"
431331,787.1990001,1983,47.65608215,8.091567993,11879.58,12039.6,4,"[[14,788187552250,29],[320,788187544968,118],[463,788187923830,43],[477,788187400400,14]]"
431610,787.6820002,1983,47.65566551,8.092557467,11887.2,12047.22,4,"[[320,788667357171,143],[463,788667736655,40],[10,788667343171,145],[129,788667414000,91]]"
432763,789.7080002,1983,47.65366376,8.097135104,11887.2,12047.22,4,"[[320,790687375359,125],[477,790687230775,0],[129,790687432593,78],[10,790687361296,123]]"
436309,796.1270001,1983,47.64574988,8.11516395,11879.58,12039.6,4,"[[14,797107438968,56],[320,797107431265,117],[10,797107417218,104],[129,797107489765,88]]"
436866,797.098,1983,47.64453953,8.117910532,11879.58,12039.6,4,"[[477,798077295475,0],[320,798077439937,129],[10,798077425859,117],[129,798077498734,76]]"
437995,799.0550001,1983,47.64207226,8.12319242,11879.58,12039.6,4,"[[477,800022313050,12],[320,800022457453,152],[129,800022516625,80],[10,800022443453,116]]"
438317,799.6360002,1983,47.64152527,8.124664307,11879.58,12039.6,4,"[[477,800617318250,32],[463,800617857625,15],[129,800617521906,88],[320,800617462640,75]]"
438912,800.7080002,1983,47.64030327,8.127699632,11879.58,12039.6,4,"[[10,801687458015,62],[320,801687472000,113],[477,801687327600,11],[129,801687531515,77]]"
439740,802.1690001,1983,47.6383667,8.131874084,11879.58,12039.6,4,"[[10,803152470640,132],[320,803152484671,134],[477,803152340225,3],[129,803152544421,83]]"
441206,804.7220001,1983,47.63536874,8.13868596,11887.2,12047.22,4,"[[14,805713334921,31],[477,805713182577,49],[320,805713326750,107],[129,805713387093,75]]"
441753,805.7380002,1983,47.63420493,8.141362117,11887.2,12047.22,4,"[[477,806717374002,7],[320,806717518296,98],[10,806717504203,83],[129,806717578843,76]]"
443451,808.7130001,1983,47.63215663,8.146010179,11887.2,12047.22,4,"[[320,809697543453,113],[10,809697529375,90],[463,809697950097,36],[129,809697604671,86]]"
445356,812.131,1983,47.62742615,8.156799316,11887.2,12047.22,4,"[[14,813122580328,77],[320,813122571812,144],[477,813122427702,0],[129,813122633796,74]]"
449744,819.7520001,1983,47.61836243,8.177467346,11879.58,12039.6,4,"[[14,820742649890,74],[320,820742640921,117],[10,820742626781,102],[129,820742704656,92]]"
452427,824.5270002,1983,47.6126978,8.190378042,11887.2,12047.22,4,"[[14,825507785187,62],[320,825507775984,155],[10,825507761875,127],[129,825507840812,89]]"
452737,825.076,1983,47.61190641,8.192068247,11887.2,12047.22,4,"[[320,826047687593,95],[10,826047673500,79],[463,826048115477,60],[129,826047752593,75]]"
452986,825.5050001,1983,47.61139433,8.19319505,11887.2,12047.22,4,"[[14,826487700984,45],[10,826487677625,125],[320,826487691734,145],[477,826487547647,4]]"
453224,825.9160001,1983,47.61092881,8.194321852,11887.2,12047.22,4,"[[320,826902695640,94],[10,826902681515,90],[477,826902551572,10],[129,826902760796,84]]"
456551,831.7130001,1983,47.60459771,8.208688589,11887.2,12047.22,4,"[[14,832692762015,57],[477,832692608497,5],[129,832692818890,102],[10,832692738250,147]]"
457131,832.7180002,1983,47.60445805,8.209181566,11887.2,12047.22,4,"[[10,833697742718,137],[320,833697756843,141],[477,833697612872,0],[129,833697823656,106]]"
458231,834.723,1983,47.60133905,8.216083233,11887.2,12047.22,4,"[[320,835697773781,142],[10,835697759671,148],[14,835697783593,76],[477,835697629847,19]]"
458523,835.2650001,1983,47.6003149,8.218407264,11887.2,12047.22,4,"[[14,836257794046,48],[320,836257784156,106],[477,836257640247,9],[129,836257851609,65]]"
465943,848.382,1983,47.58503723,8.253135681,11887.2,12047.22,4,"[[14,849372905734,27],[320,849372894906,110],[10,849372880859,84],[129,849372965843,86]]"
467633,851.3990002,1983,47.58132935,8.261238098,11879.58,12039.6,4,"[[320,852382922625,78],[14,852382933671,33],[125,852383641718,29],[129,852382994328,87]]"
469322,854.4760001,1983,47.57759741,8.270028921,11879.58,12039.6,4,"[[447,855468022562,107],[320,855467950046,72],[10,855467935921,111],[129,855468022593,89]]"
470500,856.483,1983,47.57671292,8.271930401,11879.58,12039.6,4,"[[447,857468040515,113],[477,857467824000,43],[320,857467967375,80],[129,857468040500,76]]"
473327,861.5700002,1983,47.57034302,8.286437988,11879.58,12039.6,4,"[[320,862543014234,71],[10,862543000156,78],[14,862543026125,37],[129,862543088828,77]]"
477252,868.4530001,1983,47.56186275,8.305311937,11887.2,12047.22,4,"[[14,869438211812,43],[463,869438683214,45],[129,869438275953,78],[447,869438275890,126]]"
477565,869.0120001,1983,47.56123352,8.306694031,11887.2,12047.22,4,"[[447,869998167437,113],[10,869998076546,129],[320,869998090609,106],[129,869998167437,101]]"
478430,870.556,1983,47.55926514,8.311157227,11887.2,12047.22,4,"[[125,871533877484,34],[320,871533152812,75],[447,871533230109,123],[129,871533230140,74]]"
479673,872.658,1983,47.55688166,8.316932091,11887.2,12047.22,4,"[[14,873648124109,42],[320,873648111265,85],[10,873648097296,80],[129,873648189203,81]]"
481710,876.1300001,1983,47.55264541,8.326228215,11887.2,12047.22,4,"[[10,877113355968,159],[477,877113227325,9],[320,877113369984,152],[14,877113383156,85]]"
483841,879.79,1983,47.54891968,8.334915161,11879.58,12039.6,4,"[[477,880783108425,24],[447,880783331187,145],[125,880783981078,52],[129,880783331218,88]]"
488775,888.174,1983,47.53916931,8.356681824,11879.58,12039.6,4,"[[10,889143324500,152],[320,889143338468,136],[129,889143421312,100],[447,889143421312,145]]"
493090,895.599,1983,47.53033447,8.377075195,11887.2,12047.22,4,"[[447,896593497781,94],[320,896593412421,64],[129,896593497765,92],[10,897593398468,74]]"
493711,896.612,1983,47.52909851,8.379753113,11887.2,12047.22,4,"[[447,897603413734,109],[463,897603848168,34],[10,897603314171,77],[129,897603413828,91]]"
502230,911.1950002,1983,47.51252747,8.417175293,11887.2,12047.22,4,"[[320,912178464640,141],[14,912178481812,102],[10,912178450875,141],[447,912178555515,142]]"
503428,913.181,1983,47.51014709,8.422462463,11887.2,12047.22,4,"[[14,914163745171,72],[447,914163819375,96],[320,914163727734,75],[10,914163714015,102]]"
503705,913.6530001,1983,47.50958459,8.423696665,11887.2,12047.22,4,"[[14,914643501796,57],[447,914643576046,117],[320,914643484296,63],[129,914643576078,70]]"
506099,917.6690001,1983,47.50465005,8.434682993,11887.2,12047.22,4,"[[14,918653535437,42],[320,918653517312,78],[10,918653503734,79],[129,918653610609,87]]"
506710,918.697,1983,47.5035328,8.437429575,11887.2,12047.22,4,"[[477,919683390500,30],[320,919683530531,86],[10,919683516968,77],[129,919683624156,69]]"
507849,920.6900001,1983,47.50101898,8.442922739,11887.2,12047.22,4,"[[10,921673528828,74],[320,921673542375,99],[447,921673636765,68],[129,921673636843,106]]"
509805,924.0180001,1983,47.49705505,8.451919556,11887.2,12047.22,4,"[[14,925003615453,84],[129,925003692046,98],[320,925003596406,133],[10,925003582859,149]]"
511321,926.6340001,1983,47.49380493,8.458992004,11879.58,12039.6,4,"[[10,927603584265,43],[320,927603597750,71],[447,927603694406,102],[129,927603694390,71]]"
511609,927.1240001,1983,47.49324475,8.460388184,11887.2,12047.22,4,"[[447,928113972546,45],[10,928113862312,128],[320,928113875750,113],[14,928113895265,58]]"
513917,931.0910001,1983,47.48919471,8.469050481,11879.58,12039.6,4,"[[14,932078669875,97],[320,932078649656,117],[10,932078636281,115],[129,932078748031,97]]"
520004,941.4650002,1983,47.47695147,8.497150128,11887.2,12047.22,4,"[[320,942443731437,73],[14,942443753421,30],[447,942443833765,82],[129,942443833796,69]]"
520533,942.404,1983,47.47590637,8.499641418,11887.2,12047.22,4,"[[447,943398909171,122],[10,943398793500,84],[320,943398806437,80],[129,943398909203,73]]"
523304,947.2260001,1983,47.47000122,8.512756348,11887.2,12047.22,4,"[[447,948214201750,106],[14,948214120156,74],[320,948214097187,59],[129,948214201796,78]]"
523959,948.326,1983,47.46866517,8.5158128,11887.2,12047.22,4,"[[320,949308906437,60],[14,949308929703,48],[10,949308893843,74],[129,949309011546,95]]"
524292,948.888,1983,47.46796689,8.51743258,11887.2,12047.22,4,"[[477,949873663275,0],[320,949873798531,104],[14,949873821875,88],[129,949873903812,96]]"
525443,950.9360001,1983,47.46549962,8.522784893,11887.2,12047.22,4,"[[14,951918865953,91],[320,951918842250,134],[129,951918948296,105],[10,951918829703,153]]"
525682,951.365,1983,47.46492004,8.524223328,11887.2,12047.22,4,"[[14,952353845234,52],[10,952353808984,46],[320,952353821421,80],[129,952353927687,89]]"
526863,953.4070001,1983,47.46446228,8.525390625,11887.2,12047.22,4,"[[14,954398863968,50],[320,954398839750,65],[129,954398946781,88],[477,954398705275,1]]"
528905,956.974,1983,47.45942688,8.536582947,11887.2,12047.22,4,"[[10,957953949484,138],[320,957953961546,135],[125,957954707750,70],[129,957954069921,96]]"
529395,957.9980001,1983,47.45819092,8.539398193,11887.2,12047.22,4,"[[447,958988991984,104],[14,958988908343,66],[10,958988871234,128],[129,958988992015,82]]"
532917,964.5240002,1983,47.45009083,8.557222806,11887.2,12047.22,4,"[[320,965503948937,86],[14,965503975296,37],[447,965504060062,114],[129,965504060031,94]]"
533192,965.017,1983,47.44949341,8.558555603,11887.2,12047.22,4,"[[14,966003973453,63],[477,966003815575,0],[320,966003946937,148],[129,966004058296,88]]"
534039,966.4890001,1983,47.44776322,8.562715971,11887.2,12047.22,4,"[[447,967484072781,85],[14,967483987812,47],[320,967483961000,64],[129,967484072859,74]]"
536994,971.553,1983,47.44161987,8.576477051,11887.2,12047.22,4,"[[10,972529087546,32],[320,972529098109,32],[477,972528968900,0],[129,972529211750,89]]"
537848,973.036,1983,47.43970968,8.580744817,11887.2,12047.22,4,"[[14,974029061687,65],[320,974029033656,127],[10,974029023187,132],[477,974028904925,0]]"
538128,973.536,1983,47.4390564,8.582107544,11887.2,12047.22,4,"[[14,974524053984,51],[477,974523897300,4],[320,974524025890,64],[129,974524140203,97]]"
538986,975.03,1983,47.43736267,8.58581543,11887.2,12047.22,4,"[[320,976014330609,144],[10,976014320421,115],[477,976014202600,5],[129,976014445390,91]]"
541039,978.618,1983,47.43397522,8.593505859,11887.2,12047.22,4,"[[14,979599112453,52],[447,979599199234,127],[129,979599199296,90],[320,979599083406,80]]"
542150,980.549,1983,47.43173218,8.598587036,11879.58,12039.6,4,"[[447,981544207640,81],[14,981544120609,66],[320,981544091125,110],[129,981544207656,52]]"
542682,981.4950001,1983,47.43077165,8.600675143,11879.58,12039.6,4,"[[14,982484130078,74],[320,982484100406,82],[447,982484217156,128],[129,983484217187,98]]"
544807,985.1290002,1983,47.42620953,8.610745944,11887.2,12047.22,4,"[[10,986114387593,105],[477,986114271998,8],[320,986114396109,130],[14,986114426328,86]]"
545037,985.5450001,1983,47.4256897,8.612045288,11887.2,12047.22,4,"[[320,986524138156,86],[447,986524256046,103],[14,986524168500,65],[129,986524256031,93]]"
545702,986.668,1983,47.42434744,8.61518273,11879.58,12039.6,4,"[[320,987649149562,74],[14,987649180046,80],[447,987649267703,70],[129,987649267734,75]]"
546981,988.763,1983,47.42166138,8.620628357,11887.2,12047.22,4,"[[14,989744199312,33],[477,989744045925,33],[320,989744168406,60],[447,989744287203,124]]"
548162,990.8070002,1983,47.41937256,8.626190186,11887.2,12047.22,4,"[[477,991794138425,12],[14,991794291375,48],[320,991794260031,78],[129,991794379265,75]]"
549262,992.6700001,1983,47.41699219,8.631380521,11887.2,12047.22,4,"[[320,993654204828,57],[10,993654197859,28],[447,993654324468,120],[129,993654324453,93]]"
550407,994.6990001,1983,47.41457147,8.636873685,11887.2,12047.22,4,"[[10,995679230187,56],[447,995679356750,123],[320,995679236718,62],[129,995679356750,94]]"
550716,995.227,1983,47.41397095,8.638206482,11887.2,12047.22,4,"[[14,996214577734,92],[320,996214545843,98],[447,996214665937,104],[129,996214666046,77]]"
551014,995.767,1983,47.41323853,8.639923096,11887.2,12047.22,4,"[[447,996759447500,90],[320,996759327328,71],[14,996759359234,42],[129,996759447593,94]]"
551357,996.336,1983,47.41261628,8.641240047,11879.58,12039.6,4,"[[320,997304239515,124],[447,997304359843,135],[14,997304271500,60],[129,997304359859,96]]"
554505,1001.729,1983,47.40763519,8.652367225,11887.2,12047.22,4,"[[320,1002715177687,52],[14,1002715210312,39],[129,1002715298968,94],[447,1002715298937,118]]"
557197,1006.358,1983,47.40156555,8.666015625,11887.2,12047.22,4,"[[447,1007349459031,113],[14,1007349370296,70],[477,1007349222222,1],[129,1007349459031,109]]"
558095,1007.862,1983,47.3995351,8.66997352,11887.2,12047.22,4,"[[14,1008844384781,45],[477,1008844237247,0],[320,1008844351609,64],[129,1008844473484,79]]"
562039,1014.74,1983,47.3914032,8.688812256,11887.2,12047.22,4,"[[447,1015729552921,98],[14,1015729464328,94],[320,1015729430890,77],[129,1015729553000,110]]"
565092,1019.984,1983,47.38499451,8.703025818,11887.2,12047.22,4,"[[14,1020969560703,86],[10,1020969526937,87],[129,1020969649187,84],[477,1020969417600,5]]"
568551,1025.898,1983,47.37933143,8.715609037,11879.58,12039.6,4,"[[14,1026879572125,79],[129,1026879660156,86],[477,1026879430827,0],[320,1026879538843,34]]"
569755,1027.909,1983,47.37625898,8.722017728,11887.2,12047.22,4,"[[14,1028899582796,69],[477,1028899442200,20],[10,1028899551093,28],[129,1028899670734,85]]"
570680,1029.439,1983,47.37483215,8.725753784,11887.2,12047.22,4,"[[320,1030414853031,94],[10,1030414854796,117],[129,1030414973953,83],[14,1030414886171,95]]"
571228,1030.447,1983,47.37341929,8.728778546,11879.58,12039.6,4,"[[14,1031434615125,94],[10,1031434584078,131],[320,1031434582015,103],[129,1031434702875,85]]"
571769,1031.37,1983,47.37217712,8.731246948,11879.58,12039.6,4,"[[320,1032349584390,94],[10,1032349586656,127],[14,1032349617468,101],[129,1032349705109,103]]"
572043,1031.851,1983,47.37151065,8.73251108,11879.58,12039.6,4,"[[477,1032844491300,0],[14,1032844630546,64],[123,1032844946000,5],[129,1032844718125,80]]"
574322,1035.757,1983,47.36686707,8.743263245,11879.58,12039.6,4,"[[14,1036744685843,44],[477,1036744547525,0],[129,1036744772625,72],[123,1036744997843,38]]"
574607,1036.257,1983,47.3662037,8.744483361,11879.58,12039.6,4,"[[477,1037239535950,0],[320,1037239641046,114],[129,1037239760781,87],[123,1037239985703,60]]"
580863,1046.969,1983,47.35317993,8.773544312,11887.2,12047.22,4,"[[10,1047954747578,88],[14,1047954774062,39],[320,1047954742718,94],[129,1047954859843,114]]"
582054,1048.988,1983,47.35249329,8.77532959,11879.58,12039.6,4,"[[10,1049969768203,65],[320,1049969762937,96],[123,1049970095406,32],[129,1049969879484,104]]"
583201,1051.005,1983,47.34919739,8.78212738,11887.2,12047.22,4,"[[477,1051984707227,0],[320,1051984809515,52],[10,1051984815046,71],[129,1051984925500,99]]"
584481,1053.173,1983,47.3470459,8.787620544,11879.58,12039.6,4,"[[320,1054154806453,93],[477,1054154704625,0],[123,1054155134625,64],[129,1054154921859,98]]"
588275,1059.655,1983,47.33883098,8.805541992,11879.58,12039.6,4,"[[477,1060640044023,11],[320,1060640144921,100],[14,1060640174484,41],[10,1060640151453,133]]"
588863,1060.743,1983,47.33752752,8.808077299,11887.2,12047.22,4,"[[320,1061719884718,88],[10,1061719891343,130],[14,1061719914187,90],[129,1061719997671,129]]"
589104,1061.193,1983,47.33692932,8.809524536,11887.2,12047.22,4,"[[14,1062174922703,50],[123,1062175212921,38],[129,1062175006109,107],[10,1062174900015,53]]"
589400,1061.705,1983,47.33636371,8.810894306,11887.2,12047.22,4,"[[10,1062684969343,99],[477,1062684861775,2],[123,1062685281656,29],[129,1062685075218,105]]"
591100,1064.863,1983,47.33240677,8.819556603,11887.2,12047.22,4,"[[14,1065854955718,72],[10,1065854933843,141],[477,1065854826325,0],[129,1065855038375,109]]"
591575,1065.734,1983,47.33142917,8.821598933,11887.2,12047.22,4,"[[10,1066709947515,108],[477,1066709840250,0],[123,1066710255062,36],[129,1066710051625,101]]"
592169,1066.81,1983,47.33015442,8.824836731,11887.2,12047.22,4,"[[10,1067779985453,135],[477,1067779877900,1],[320,1067779978187,90],[129,1067780089078,88]]"
592678,1067.75,1983,47.32896423,8.827583313,11887.2,12047.22,4,"[[14,1068739985578,66],[320,1068739957218,88],[10,1068739964515,133],[123,1069740269546,34]]"
594441,1070.669,1983,47.32533083,8.835331843,11887.2,12047.22,4,"[[477,1071634899550,0],[123,1071635308281,60],[129,1071635108765,67],[14,1071635027140,54]]"
595006,1071.734,1983,47.3247722,8.836810772,11887.2,12047.22,4,"[[320,1072709998937,79],[10,1072710006562,140],[477,1072709899150,0],[129,1072710108156,97]]"
598596,1077.915,1983,47.31788247,8.852233887,11887.2,12047.22,4,"[[320,1078895115828,119],[10,1078895124031,123],[123,1078895416671,53],[477,1078895016575,14]]"
598904,1078.443,1983,47.31715393,8.853675842,11887.2,12047.22,4,"[[320,1079425069250,62],[477,1079424970100,10],[10,1079425077375,93],[129,1079425176078,87]]"
602281,1084.314,1983,47.30982894,8.869699331,11887.2,12047.22,4,"[[320,1085285130015,50],[10,1085285138609,66],[123,1085285423343,38],[129,1085285234750,89]]"
603432,1086.322,1983,47.30745477,8.875192495,11887.2,12047.22,4,"[[477,1087305063148,45],[320,1087305161765,73],[123,1087305452718,28],[129,1087305265750,99]]"
606965,1092.49,1983,47.2998202,8.892164964,11879.58,12047.22,4,"[[14,1093480245656,36],[477,1093480122498,3],[129,1093480322609,90],[10,1093480229812,32]]"
607553,1093.467,1983,47.29856329,8.894770696,11879.58,12047.22,4,"[[14,1094455251875,66],[320,1094455227125,79],[10,1094455236234,39],[123,1094455509640,40]]"
609603,1097.12,1983,47.29595637,8.900686411,11887.2,12047.22,4,"[[14,1098110314468,88],[320,1098110290156,115],[10,1098110299500,128],[129,1098110390359,97]]"
610145,1098.049,1983,47.29432704,8.90420767,11887.2,12047.22,4,"[[10,1099035283890,120],[14,1099035298718,96],[320,1099035274593,103],[477,1099035176498,12]]"
611559,1100.545,1983,47.29101563,8.911491394,11887.2,12047.22,4,"[[14,1101530334500,36],[477,1101530212698,0],[129,1101530409640,87],[447,1101530409593,135]]"
618107,1111.619,1983,47.27755737,8.941497803,11887.2,12047.22,4,"[[14,1112610440703,44],[320,1112610418234,74],[129,1112610513390,82],[447,1112610513328,108]]"
622232,1118.405,1983,47.26908875,8.959693909,11887.2,12047.22,4,"[[320,1119390494796,72],[123,1119390747250,47],[129,1119390587656,61],[14,1119390516546,49]]"
624385,1122.097,1983,47.26602328,8.96688608,11879.58,12047.22,4,"[[14,1123075549953,94],[320,1123075528562,31],[123,1123075776468,43],[129,1123075620203,105]]"
625759,1124.376,1983,47.26290894,8.973701477,11887.2,12047.22,4,"[[14,1125360630109,53],[10,1125360619281,62],[477,1125360511850,1],[123,1125360854140,70]]"
628527,1129.097,1983,47.2571318,8.986393855,11887.2,12047.22,4,"[[129,1130080699421,82],[477,1130080513050,5],[320,1130080610093,41],[123,1130080849484,61]]"
631113,1133.43,1983,47.25178528,8.998008728,11887.2,12047.22,4,"[[477,1134415802200,15],[320,1134415899171,117],[10,1134415909625,80],[129,1134415987093,95]]"
632584,1136.058,1983,47.24851964,9.005549504,11879.58,12047.22,4,"[[10,1137040698062,40],[125,1137041326171,63],[123,1137040918375,52],[129,1137040774593,113]]"
633195,1137.08,1983,47.24721618,9.008084811,11879.58,12047.22,4,"[[10,1138050709921,49],[129,1138050786093,96],[477,1138050602425,0],[123,1138050928921,64]]"
636195,1142.188,1983,47.24093628,9.021903992,11879.58,12047.22,4,"[[320,1143166002140,45],[477,1143165905450,17],[463,1143166662303,16],[123,1143166225515,49]]"
642413,1153.005,1983,47.22875977,9.048820496,11879.58,12047.22,4,"[[320,1153990858328,106],[10,1153990869218,114],[477,1153990761650,5],[129,1153990940375,103]]"
645745,1158.879,1983,47.22151934,9.064917931,11887.2,12054.84,4,"[[320,1159850920859,120],[10,1159850931843,127],[447,1159851001187,107],[129,1159851001218,83]]"
647522,1161.817,1983,47.21781921,9.072647095,11887.2,12047.22,4,"[[320,1162795951546,140],[477,1162795855025,0],[10,1162795962593,100],[129,1162796031125,91]]"
649455,1165.098,1983,47.21379167,9.081819974,11887.2,12054.84,4,"[[477,1166080900550,11],[125,1166081606109,38],[123,1166081192593,51],[129,1166081075640,104]]"
651508,1168.539,1983,47.21113819,9.087806115,11887.2,12054.84,4,"[[477,1169520981575,0],[320,1169521078031,82],[248,1169521919453,44],[10,1169521089187,72]]"
653834,1172.536,1983,47.20583124,9.099355844,11887.2,12054.84,4,"[[320,1173521122484,120],[477,1173521026025,2],[10,1173521133656,138],[129,1173521199156,98]]"
655541,1175.539,1983,47.20201395,9.10745474,11887.2,12054.84,4,"[[320,1176521154093,77],[10,1176521165343,125],[477,1176521057750,0],[129,1176521230015,83]]"
657285,1178.475,1983,47.19842943,9.115694486,11887.2,12054.84,4,"[[477,1179461105975,15],[10,1179461213609,102],[320,1179461202343,107],[129,1179461277515,90]]"
657899,1179.561,1983,47.19703674,9.118721008,11887.2,12054.84,4,"[[320,1180536210625,117],[10,1180536221906,121],[477,1180536114300,0],[129,1180536285500,93]]"
658657,1180.963,1983,47.19525146,9.122360229,11879.58,12047.22,4,"[[10,1181951167437,87],[477,1181951059975,44],[447,1181951230656,90],[129,1181951230718,93]]"
659860,1183.064,1983,47.19270351,9.128300593,11887.2,12054.84,4,"[[447,1184051317265,104],[125,1184051834078,70],[123,1184051417187,20],[129,1184051317296,88]]"
662017,1186.825,1983,47.18811035,9.138290405,11887.2,12054.84,4,"[[447,1187816520015,93],[248,1187817276375,37],[129,1187816520000,88],[123,1187816616328,43]]"
662298,1187.288,1983,47.18753621,9.139639047,11887.2,12054.84,4,"[[447,1188281297546,102],[477,1188281128327,5],[129,1188281297562,97],[123,1188281393484,23]]"
667102,1195.589,1983,47.17799377,9.159988403,11879.58,12047.22,4,"[[320,1196566589265,53],[10,1196566600718,149],[129,1196566660250,79],[123,1196566748203,96]]"
668093,1197.258,1983,47.17636367,9.164217435,11887.2,12054.84,4,"[[477,1198241235525,10],[10,1198241343234,37],[125,1198241908187,82],[129,1198241402312,87]]"
669309,1199.341,1983,47.17361709,9.169781025,11879.58,12047.22,4,"[[129,1200316649812,100],[477,1200316483500,9],[447,1200316649781,118],[123,1201316734312,68]]"
670219,1200.9,1983,47.17166189,9.174076961,11879.58,12047.22,4,"[[320,1201871370062,80],[477,1201871273825,7],[123,1201871522796,97],[10,1201871381515,112]]"
672316,1204.446,1983,47.16719288,9.183795636,11887.2,12054.84,4,"[[447,1205431476484,100],[10,1205431419046,48],[129,1205431476515,90],[477,1205431311350,13]]"
674791,1208.63,1983,47.16210938,9.195144653,11887.2,12054.84,4,"[[447,1209621520828,128],[10,1209621464265,73],[477,1209621356598,4],[129,1209621520828,86]]"
675357,1209.534,1983,47.16095488,9.197387695,11887.2,12054.84,4,"[[123,1210456693921,50],[129,1210456619109,95],[447,1210456619031,128],[10,1210456562718,94]]"
677856,1213.799,1983,47.15560913,9.209220886,11887.2,12054.84,4,"[[10,1214781519203,130],[477,1214781411473,0],[129,1214781574593,84],[123,1214781645234,119]]"
678133,1214.29,1983,47.15499619,9.210486779,11887.2,12054.84,4,"[[447,1215276645468,97],[129,1215276645515,76],[123,1215276715640,65],[10,1215276590203,97]]"
679008,1215.844,1983,47.15383239,9.213444636,11887.2,12054.84,4,"[[10,1216826541484,125],[477,1216826433897,0],[123,1216826665187,114],[129,1216826596468,84]]"
679832,1217.147,1983,47.15332031,9.214576721,11887.2,12054.84,4,"[[447,1218126610484,136],[10,1218126555812,107],[123,1218126677937,73],[129,1218126610468,80]]"
681238,1219.584,1983,47.14933777,9.222885132,11879.58,12047.22,4,"[[248,1220557384875,22],[320,1220556576718,54],[129,1220556642531,74],[123,1220556707625,109]]"
683806,1223.927,1983,47.14414952,9.234220065,11879.58,12047.22,4,"[[477,1224906520950,18],[123,1224906742875,66],[129,1224906681921,99],[447,1224906681921,99]]"
684679,1225.39,1983,47.14247131,9.238334656,11887.2,12054.84,4,"[[447,1226376697281,134],[477,1226376536550,7],[123,1226376756875,98],[129,1226376697343,93]]"
685264,1226.375,1983,47.14123535,9.241149902,11879.58,12047.22,4,"[[248,1227362446437,33],[477,1227361546550,0],[10,1227361654281,141],[447,1227361707062,135]]"
689028,1232.74,1983,47.13317871,9.258522034,11887.2,12054.84,4,"[[447,1233731782312,136],[477,1233731623050,14],[129,1233731782343,93],[123,1233731834953,43]]"
690262,1234.835,1983,47.13070679,9.264015198,11887.2,12054.84,4,"[[477,1235806662525,1],[447,1235806821312,136],[129,1235806821281,83],[123,1235806871968,51]]"
690499,1235.244,1983,47.1301373,9.265347994,11887.2,12054.84,4,"[[10,1236226751031,129],[477,1236226643250,0],[447,1236226802031,100],[248,1236227537421,32]]"
692522,1238.634,1983,47.12576139,9.274503268,11887.2,12054.84,4,"[[447,1239626837046,148],[477,1239626678925,0],[123,1239626884125,28],[129,1239626837046,81]]"
693659,1240.598,1983,47.12516785,9.276237488,11879.58,12047.22,4,"[[477,1241561700250,0],[129,1241561858000,84],[447,1241561858078,148],[123,1241561903281,26]]"
694629,1242.235,1983,47.12278748,9.28125,11887.2,12054.84,4,"[[477,1243216944623,0],[320,1243217040343,71],[123,1243217145515,65],[10,1243217052140,144]]"
696146,1244.742,1983,47.11956994,9.288306603,11879.58,12047.22,4,"[[447,1245717720343,133],[477,1245717563298,21],[129,1245717720296,95],[123,1245717761671,69]]"
697229,1246.628,1983,47.11720276,9.29347229,11887.2,12054.84,4,"[[477,1247596763800,0],[447,1247596920468,109],[125,1247597386906,50],[123,1247596960046,86]]"
698427,1248.665,1983,47.11444919,9.299152081,11887.2,12054.84,4,"[[447,1249651943031,152],[10,1249651894531,66],[123,1249651980687,87],[129,1249651943015,104]]"
698691,1249.114,1983,47.11403022,9.300278884,11887.2,12054.84,4,"[[320,1250091896093,86],[10,1250091907968,131],[477,1250091800100,0],[129,1250091956359,78]]"
700192,1251.678,1983,47.11077157,9.307391827,11879.58,12047.22,4,"[[447,1252667233812,109],[10,1252667185921,64],[477,1252667078100,4],[129,1252667233812,103]]"
701128,1253.255,1983,47.10872327,9.311687763,11879.58,12047.22,4,"[[320,1254236932421,79],[125,1254237453078,64],[10,1254236944265,93],[123,1254237025312,82]]"
706191,1261.979,1983,47.09788513,9.335289001,11887.2,12054.84,4,"[[10,1262957046593,49],[477,1262956938700,10],[123,1262957117968,93],[129,1262957092765,95]]"
706692,1262.81,1983,47.09687805,9.337554932,11887.2,12054.84,4,"[[447,1263792117656,105],[477,1263791963800,5],[129,1263792117671,85],[123,1263792142203,62]]"
707851,1264.761,1983,47.09619141,9.339408875,11887.2,12054.84,4,"[[447,1265737119500,147],[10,1265737073812,89],[123,1265737142203,89],[129,1265737119500,98]]"
708558,1265.882,1983,47.09461794,9.342674842,11887.2,12054.84,4,"[[447,1266877126015,122],[10,1266877080531,61],[477,1266876972648,0],[123,1266877147703,86]]"
709204,1266.933,1983,47.09257507,9.346687317,11887.2,12054.84,4,"[[447,1267927135500,102],[477,1267926982248,2],[10,1267927090109,99],[129,1267927135437,84]]"
709811,1267.969,1983,47.09138489,9.349365234,11887.2,12054.84,4,"[[10,1268937101781,90],[447,1268937147015,97],[123,1268937166718,91],[129,1268937146968,101]]"
712255,1272.197,1983,47.08625793,9.360488892,11887.2,12054.84,4,"[[477,1273177039798,4],[320,1273177135734,102],[10,1273177147718,142],[447,1273177192171,86]]"
712897,1273.318,1983,47.08502818,9.363520696,11887.2,12054.84,4,"[[477,1274302059325,0],[320,1274302155265,88],[447,1274302211546,101],[10,1274302167250,143]]"
714119,1275.595,1983,47.08213806,9.369827271,11887.2,12054.84,4,"[[10,1276567438468,72],[477,1276567330600,16],[129,1276567482468,95],[123,1276567495203,85]]"
722706,1290.413,1983,47.06474304,9.407661438,11887.2,12054.84,4,"[[320,1291392332656,34],[10,1291392344718,53],[123,1291392385890,57],[129,1291392386468,59]]"
725729,1295.578,1983,47.05819702,9.421669006,11879.58,12047.22,4,"[[320,1296557395359,55],[10,1296557407437,58],[123,1296557443218,56],[129,1296557448375,71]]"
726001,1296.035,1983,47.05764771,9.42263031,11879.58,12047.22,4,"[[10,1297017648343,132],[320,1297017636312,101],[477,1297017540573,0],[123,1297017683593,79]]"
727763,1299.055,1983,47.05388473,9.431269719,11887.2,12054.84,4,"[[320,1300037512078,91],[477,1300037416350,6],[129,1300037564562,88],[10,1300037524093,158]]"
730702,1304.156,1983,47.04748535,9.445152283,11879.58,12047.22,4,"[[320,1305137532562,93],[10,1305137544656,140],[477,1305137436652,14],[123,1305137571578,98]]"
731947,1306.264,1983,47.04480705,9.450777494,11879.58,12047.22,4,"[[10,1307237515046,145],[320,1307237502937,96],[477,1307237407050,5],[129,1307237554546,98]]"
734525,1310.695,1983,47.03926733,9.462749775,11879.58,12047.22,4,"[[320,1311682552375,52],[10,1311682564453,61],[123,1311682584843,59],[129,1311682603312,93]]"
734786,1311.15,1983,47.03865051,9.464103699,11879.58,12047.22,4,"[[320,1312127557609,100],[10,1312127569718,134],[477,1312127461723,0],[123,1312127589718,74]]"
736822,1314.738,1983,47.03531039,9.471271221,11879.58,12047.22,4,"[[477,1315723251148,0],[10,1315723359125,38],[123,1315723375453,51],[129,1315723397390,89]]"
738460,1317.563,1983,47.03201294,9.478866577,11879.58,12047.22,4,"[[10,1318537638656,161],[320,1318537626484,57],[477,1318537530600,10],[123,1318537652203,60]]"
739657,1319.639,1983,47.02922058,9.484428406,11887.2,12054.84,4,"[[477,1320612553050,42],[10,1320612661031,54],[123,1320612672593,29],[129,1320612698828,75]]"
750539,1338.86,1983,47.00598248,9.534653884,11879.58,12047.22,4,"[[10,1339837876500,33],[477,1339837768523,20],[123,1339837869625,64],[129,1339837912000,78]]"
751103,1339.878,1983,47.00472557,9.537470891,11879.58,12047.22,4,"[[320,1340862867765,62],[477,1340862771925,34],[129,1340862915265,53],[123,1340862872031,82]]"
753839,1344.798,1983,46.99873352,9.550483704,11879.58,12047.22,4,"[[320,1345768172328,57],[477,1345768076475,0],[123,1345768172062,94],[129,1345768219281,61]]"
755437,1347.534,1983,46.99541512,9.557894193,11879.58,12047.22,4,"[[320,1348512951625,67],[125,1348513383093,63],[206,1348513038046,42],[123,1348512948906,88]]"
755692,1347.982,1983,46.9947052,9.559272766,11887.2,12054.84,4,"[[248,1348958684218,40],[123,1348957951796,106],[129,1348958001578,79],[10,1348957967156,130]]"
756173,1348.833,1983,46.99365234,9.561264038,11879.58,12047.22,4,"[[320,1349812965125,97],[477,1349812869302,7],[10,1349812977375,117],[123,1349812961140,124]]"
757096,1350.487,1983,46.99164439,9.565993089,11879.58,12047.22,4,"[[320,1351462982671,61],[477,1351462886827,16],[10,1351462994890,52],[129,1351463028953,86]]"
761123,1357.613,1983,46.98262024,9.585365295,11887.2,12054.84,4,"[[10,1358593071890,63],[320,1358593059609,70],[123,1358593047734,99],[129,1358593105234,75]]"
766836,1367.198,1983,46.97163391,9.608985901,11887.2,12054.84,4,"[[320,1368168416546,91],[130,1368169296265,35],[206,1368168487703,86],[10,1368168428843,138]]"
769346,1371.474,1983,46.96627342,9.620713454,11879.58,12054.84,4,"[[10,1372448242343,120],[113,1372448488000,37],[125,1372448639875,79],[123,1372448206000,119]]"
770792,1373.951,1983,46.96324753,9.627192571,11879.58,12047.22,4,"[[206,1374918554000,77],[248,1374919202281,24],[129,1374918531937,64],[123,1374918461843,109]]"
778515,1387.34,1983,46.94700079,9.661560059,11887.2,12054.84,4,"[[320,1388323382843,89],[206,1388323439015,86],[123,1388323345375,112],[10,1388323395140,124]]"
778782,1387.789,1983,46.94659424,9.662750244,11887.2,12062.46,4,"[[477,1388768543450,9],[10,1388768651609,84],[206,1388768695062,99],[123,1388768601453,85]]"
779047,1388.249,1983,46.9461163,9.66402494,11887.2,12062.46,4,"[[113,1389233631000,23],[10,1389233409046,119],[477,1389233300925,0],[123,1389233358546,114]]"
780639,1391.076,1983,46.94267144,9.671490009,11887.2,12062.46,4,"[[477,1392053335173,4],[320,1392053431000,97],[123,1392053390437,107],[129,1392053473343,105]]"
782066,1393.579,1983,46.93963623,9.678268433,11887.2,12062.46,4,"[[320,1394558450156,44],[477,1394558354348,4],[123,1394558407562,84],[129,1394558492296,54]]"
784189,1397.188,1983,46.93496704,9.688018799,11887.2,12054.84,4,"[[113,1398158719703,28],[320,1398158498046,100],[123,1398158452546,106],[129,1398158539921,86]]"
785939,1400.288,1983,46.93107993,9.696631798,11887.2,12062.46,4,"[[320,1401268774453,105],[477,1401268678625,0],[129,1401268816015,62],[10,1401268786718,89]]"
787112,1402.323,1983,46.92851956,9.701913687,11887.2,12062.46,4,"[[320,1403298552421,55],[206,1403298597921,99],[10,1403298564734,122],[477,1403298456825,1]]"
787347,1402.734,1983,46.92805403,9.703110915,11887.2,12062.46,4,"[[206,1403713596375,102],[320,1403713551140,43],[123,1403713501234,63],[129,1403713592546,44]]"
787587,1403.17,1983,46.92745972,9.704429626,11887.2,12062.46,4,"[[130,1404149378234,30],[206,1404148600421,111],[320,1404148555406,105],[123,1404148505265,96]]"
787908,1403.764,1983,46.92668152,9.706214905,11887.2,12062.46,4,"[[320,1404738561359,60],[477,1404738465700,5],[206,1404738605875,115],[123,1404738510718,78]]"
790660,1408.568,1983,46.92228699,9.715621948,11887.2,12054.84,4,"[[10,1409543630906,71],[129,1409543659421,69],[206,1409543659781,68],[123,1409543564109,86]]"
792661,1412.063,1983,46.91716081,9.726351224,11887.2,12062.46,4,"[[206,1413043689781,99],[320,1413043650984,72],[10,1413043663375,92],[129,1413043691593,82]]"
793771,1413.95,1983,46.9151001,9.731208801,11887.2,12054.84,4,"[[10,1414928694171,81],[320,1414928681765,91],[477,1414928586025,0],[129,1414928722296,82]]"
794056,1414.474,1983,46.91436768,9.732619066,11887.2,12054.84,4,"[[10,1415453690406,87],[206,1415453715234,91],[123,1415453619031,85],[129,1415453718437,113]]"
794631,1415.518,1983,46.91292456,9.735365648,11887.2,12054.84,4,"[[10,1416488701843,91],[477,1416488593725,21],[206,1416488726000,94],[123,1416488629671,94]]"
796711,1419.205,1983,46.9083252,9.745559692,11887.2,12054.84,4,"[[320,1420178729218,111],[477,1420178633475,0],[206,1420178763250,90],[123,1420178666703,111]]"
797631,1420.793,1983,46.90621948,9.749610901,11887.2,12062.46,4,"[[10,1421778758359,102],[320,1421778746000,70],[206,1421778778984,47],[123,1421778682250,88]]"
805825,1434.331,1983,46.89039327,9.783888597,11879.58,12054.84,4,"[[477,1435319024200,20],[10,1435319132359,73],[320,1435319119968,87],[206,1435319144093,98]]"
811515,1443.944,1983,46.87810348,9.810157189,11887.2,12062.46,4,"[[123,1444903920765,79],[206,1444904019093,62],[129,1444904039281,61],[477,1444903905573,0]]"
813863,1447.87,1983,46.87302929,9.821143517,11879.58,12054.84,4,"[[320,1448849041546,64],[206,1448849057046,73],[123,1448848958453,89],[129,1448849079484,79]]"
819055,1456.931,1983,46.86339298,9.841964722,11879.58,12054.84,4,"[[320,1457909140937,65],[477,1457909045172,3],[129,1457909178234,84],[123,1457909051781,70]]"
821554,1461.058,1983,46.85766705,9.854255676,11879.58,12054.84,4,"[[477,1462039100648,2],[320,1462039196406,74],[123,1462039104500,83],[129,1462039233390,101]]"
823207,1463.823,1983,46.85389709,9.861703268,11879.58,12054.84,4,"[[320,1464799215796,93],[248,1464799880859,41],[206,1464799221625,74],[125,1464799546781,72]]"
823858,1464.875,1983,46.85259286,9.864761353,11879.58,12054.84,4,"[[320,1465859227390,102],[206,1465859232671,60],[10,1465859239812,85],[477,1465859131625,7]]"
824755,1466.397,1983,46.8507843,9.868938167,11879.58,12054.84,4,"[[248,1467374963156,23],[477,1467374203625,7],[129,1467374336062,89],[206,1467374303703,55]]"
826552,1469.293,1983,46.84696004,9.87664032,11879.58,12054.84,4,"[[10,1470269539140,74],[477,1470269430975,2],[123,1470269429562,52],[129,1470269563203,111]]"
827673,1471.179,1983,46.84465027,9.882001179,11887.2,12062.46,4,"[[320,1472149295609,58],[10,1472149308015,71],[206,1472149297093,45],[477,1472149199823,0]]"
828978,1473.214,1983,46.84204102,9.887226384,11887.2,12062.46,4,"[[320,1474194322343,69],[206,1474194322703,70],[123,1474194222734,93],[125,1474194645781,68]]"
831315,1477.065,1983,46.83713751,9.897994995,11887.2,12062.46,4,"[[320,1478029359781,66],[206,1478029357906,71],[123,1478029257828,100],[129,1478029395703,102]]"
833170,1480.053,1983,46.83434438,9.903968811,11887.2,12062.46,4,"[[10,1481034404328,92],[477,1481034296097,14],[123,1481034288062,91],[129,1481034427640,82]]"
834696,1482.579,1983,46.83114624,9.910337867,11879.58,12054.84,4,"[[206,1483549423265,68],[477,1483549332522,0],[123,1483549322953,98],[129,1483549463968,47]]"
835567,1484.033,1983,46.82936096,9.914290265,11887.2,12062.46,4,"[[113,1485009537015,38],[10,1485009447859,74],[206,1485009429625,63],[123,1485009329218,74]]"
836425,1485.434,1983,46.82798767,9.917706745,11887.2,12062.46,4,"[[10,1486409463640,143],[320,1486409451218,96],[477,1486409355422,5],[123,1486409344140,104]]"
837975,1488.006,1983,46.82437134,9.924740675,11887.2,12062.46,4,"[[113,1488989576031,46],[206,1488989471718,55],[123,1488989371218,78],[129,1488989515046,103]]"
838594,1489.002,1983,46.82322693,9.927554247,11887.2,12062.46,4,"[[113,1489974584734,53],[10,1489974502281,104],[477,1489974394073,31],[129,1489974525046,103]]"
839076,1489.815,1983,46.82235718,9.929630931,11887.2,12062.46,4,"[[113,1490794592578,56],[10,1490794511234,111],[206,1490794489718,53],[123,1490794389093,88]]"
844589,1498.825,1983,46.81086731,9.95401522,11887.2,12062.46,4,"[[477,1499794501550,21],[206,1499794583390,58],[123,1499794482500,106],[129,1499794631937,100]]"
846460,1501.898,1983,46.80687856,9.962265015,11887.2,12062.46,4,"[[320,1502884634390,59],[10,1502884646828,85],[477,1502884538573,14],[129,1502884668828,83]]"
846754,1502.356,1983,46.8062439,9.963527772,11887.2,12062.46,4,"[[113,1503344711921,66],[130,1503345300750,66],[125,1503344935531,53],[123,1503344518140,123]]"
850738,1508.892,1983,46.79938365,9.978538513,11887.2,12062.46,4,"[[206,1509864688265,78],[10,1509864719984,84],[123,1509864587125,83],[129,1509864741562,85]]"
854809,1515.666,1983,46.79067838,9.996940613,11887.2,12062.46,4,"[[125,1516640071250,85],[113,1516639840312,55],[477,1516639685423,0],[123,1516639656890,114]]"
857300,1519.737,1983,46.78565074,10.00778961,11887.2,12062.46,4,"[[477,1520720711250,15],[130,1520721445515,33],[206,1520720782187,32],[123,1520720680875,117]]"
859358,1523.312,1983,46.78118172,10.01726532,11879.58,12054.84,4,"[[131,1524285272640,16],[123,1524284791703,90],[477,1524284823900,22],[129,1524284952921,70]]"
863441,1530.117,1983,46.77396613,10.03250885,11879.58,12054.84,4,"[[206,1531084910859,65],[129,1531084973734,100],[477,1531084845150,0],[123,1531084809437,83]]"
864922,1532.544,1983,46.77070747,10.03944397,11879.58,12054.84,4,"[[113,1533520230125,46],[320,1533520192937,93],[123,1533520060343,98],[129,1533520225687,87]]"
865500,1533.503,1983,46.76959022,10.04198456,11879.58,12054.84,4,"[[130,1534485648000,54],[320,1534485031062,91],[113,1534485067046,45],[123,1534484897984,106]]"
866114,1534.538,1983,46.7682402,10.0447998,11879.58,12054.84,4,"[[477,1535514890698,1],[320,1535514986218,73],[125,1535515262406,48],[129,1535515018859,83]]"
868876,1539.052,1983,46.76237462,10.05722809,11887.2,12062.46,4,"[[131,1540030374484,48],[10,1540030048921,63],[129,1540030068843,74],[123,1540029900640,76]]"
873479,1546.618,1983,46.75286865,10.07720947,11887.2,12062.46,4,"[[477,1547600022348,11],[10,1547600130609,100],[123,1547599978750,93],[129,1547600150156,84]]"
874977,1549.074,1983,46.74975896,10.08407593,11887.2,12062.46,4,"[[125,1550050412703,46],[10,1550050159687,58],[131,1550050475812,51],[477,1550050051425,7]]"
875938,1550.663,1983,46.74775722,10.08826447,11887.2,12062.46,4,"[[320,1551640168359,83],[477,1551640072575,0],[10,1551640180859,112],[113,1551640182015,44]]"
882054,1560.713,1983,46.73691055,10.1131897,11879.58,12054.84,4,"[[320,1561690277906,80],[123,1561690131765,101],[129,1561690309406,83],[10,1561690290406,123]]"
882968,1562.254,1983,46.73514156,10.11772156,11887.2,12062.46,4,"[[477,1563230194922,11],[206,1563230245921,30],[123,1563230143796,60],[129,1563230322093,77]]"
883307,1562.815,1983,46.73451233,10.11914509,11887.2,12062.46,4,"[[130,1563790866390,53],[320,1563790295625,68],[10,1563790308062,134],[131,1563790610984,82]]"
883542,1563.216,1983,46.73405457,10.12021693,11879.58,12054.84,4,"[[125,1564195556250,28],[477,1564195205672,18],[131,1564195616390,53],[123,1564195154015,49]]"
884771,1565.264,1983,46.73151049,10.12589264,11879.58,12054.84,4,"[[10,1566245335515,75],[320,1566245322984,65],[477,1566245227247,33],[123,1566245174671,79]]"
885065,1565.735,1983,46.73104496,10.12699127,11879.58,12054.84,4,"[[10,1566710409515,135],[477,1566710301297,8],[320,1566710397015,86],[123,1566710248515,83]]"
886000,1567.265,1983,46.72922943,10.13152313,11887.2,12062.46,4,"[[320,1568245345140,48],[123,1568245195968,57],[477,1568245249422,46],[131,1568245656296,59]]"
887380,1569.549,1983,46.7265294,10.13735962,11879.58,12054.84,4,"[[10,1570525444375,125],[131,1570525740828,67],[320,1570525431906,71],[123,1570525281656,89]]"
889152,1572.52,1983,46.72299143,10.14594269,11879.58,12054.84,4,"[[10,1573495500468,136],[320,1573495488015,82],[129,1573495519109,82],[123,1573495336359,96]]"
889727,1573.458,1983,46.72182762,10.14855194,11879.58,12054.84,4,"[[10,1574435566968,58],[320,1574435554515,77],[125,1574435801671,53],[123,1574435402453,75]]"
890363,1574.546,1983,46.72045898,10.15150117,11887.2,12062.46,4,"[[320,1575530424921,81],[10,1575530437328,113],[123,1575530272312,67],[129,1575530455890,88]]"
892142,1577.557,1983,46.7184906,10.15632443,11887.2,12062.46,4,"[[130,1578541006796,62],[10,1578540471703,63],[123,1578540305328,98],[129,1578540490078,71]]"
892435,1578.053,1983,46.71768447,10.15809631,11879.58,12054.84,4,"[[10,1579035475562,83],[123,1579035308984,81],[320,1579035463093,63],[477,1579035367300,4]]"
893066,1579.113,1983,46.71591549,10.16166687,11887.2,12062.46,4,"[[320,1580090474546,61],[477,1580090378750,16],[10,1580090486968,85],[129,1580090505281,51]]"
893990,1580.703,1983,46.71442581,10.16578674,11879.58,12054.84,4,"[[131,1581675790953,82],[130,1581676035203,23],[123,1581675337328,87],[10,1581675505031,80]]"
897643,1586.88,1983,46.70702401,10.18295288,11887.2,12062.46,4,"[[10,1587855572281,143],[320,1587855559796,88],[123,1587855401843,116],[129,1587855590406,104]]"
898757,1588.748,1983,46.70466614,10.18787663,11887.2,12062.46,4,"[[320,1589735580609,75],[10,1589735593125,100],[477,1589735484847,13],[129,1589735611109,107]]"
901450,1593.166,1983,46.69944763,10.20006878,11887.2,12062.46,4,"[[320,1594150629718,69],[10,1594150642187,109],[123,1594150469046,39],[129,1594150660062,88]]"
902171,1594.443,1983,46.69802856,10.20341827,11879.58,12054.84,4,"[[10,1595415663265,151],[320,1595415650796,85],[123,1595415489640,57],[125,1595415882734,69]]"
906237,1601.238,1983,46.69180298,10.21815602,11879.58,12054.84,4,"[[320,1602210782703,65],[131,1602211061890,118],[123,1602210618781,25],[129,1602210812812,93]]"
910429,1608.303,1983,46.68258408,10.23905182,11879.58,12054.84,4,"[[10,1609275807234,56],[477,1609275699000,8],[123,1609275628000,33],[129,1609275824593,87]]"
914598,1615.154,1983,46.67462365,10.25786591,11887.2,12062.46,4,"[[320,1616125870140,65],[123,1616125700734,65],[129,1616125899750,76],[131,1616126136468,58]]"
915496,1616.618,1983,46.67280579,10.26190037,11887.2,12062.46,4,"[[477,1617585790525,33],[130,1617586372390,55],[131,1617586151281,78],[123,1617585716296,92]]"
915805,1617.156,1983,46.67215638,10.26315308,11887.2,12062.46,4,"[[320,1618121119125,59],[131,1618121383593,66],[123,1618120948968,69],[129,1618121148718,85]]"
917294,1619.613,1983,46.66932678,10.27014011,11887.2,12062.46,4,"[[10,1620595941781,73],[477,1620595833550,0],[131,1620596191562,83],[123,1620595758187,102]]"
918998,1622.433,1983,46.66584778,10.27764297,11879.58,12062.46,4,"[[320,1623421177046,82],[248,1623421763906,26],[130,1623421653937,42],[123,1623421004921,82]]"
919249,1622.864,1983,46.6653132,10.27908325,11879.58,12054.84,4,"[[320,1623845954437,65],[125,1623846166234,43],[123,1623845782140,65],[477,1623845858725,18]]"
919250,1622.864,1983,46.6653132,10.27908325,11879.58,12062.46,4,"[[320,1623845954437,65],[125,1623846166234,43],[123,1623845782140,65],[477,1623845858725,18]]"
922851,1629.176,1983,46.65925598,10.29358654,11879.58,12062.46,4,"[[320,1630161022765,82],[477,1630160927000,0],[123,1630160848093,97],[129,1630161051953,52]]"
923778,1630.789,1983,46.65715027,10.29820884,11879.58,12062.46,4,"[[477,1631760945375,7],[123,1631760865890,90],[131,1631761293250,82],[129,1631761070296,57]]"
924426,1631.793,1983,46.65582275,10.30088843,11887.2,12062.46,4,"[[320,1632746051843,63],[131,1632746303031,79],[123,1632745876218,76],[129,1632746080937,67]]"
924971,1632.713,1983,46.6547924,10.3033905,11887.2,12062.46,4,"[[320,1633696068109,69],[477,1633695972375,14],[131,1633696318500,82],[129,1633696097234,64]]"
925317,1633.278,1983,46.65414067,10.30510712,11887.2,12062.46,4,"[[477,1634240971923,1],[131,1634241317578,109],[320,1634241067671,86],[129,1634241096812,88]]"
925925,1634.297,1983,46.65297686,10.30792236,11887.2,12062.46,4,"[[130,1635271789187,64],[129,1635271359937,81],[477,1635271235123,18],[123,1635271154390,84]]"
926992,1636.068,1983,46.65074235,10.31272888,11887.2,12062.46,4,"[[320,1637046099140,55],[248,1637046679718,23],[477,1637046003425,12],[123,1637045921984,105]]"
927256,1636.537,1983,46.65027683,10.31375885,11879.58,12062.46,4,"[[477,1637496008350,12],[131,1637496351031,93],[123,1637495926828,75],[129,1637496133078,86]]"
929036,1639.495,1983,46.64678541,10.32220459,11887.2,12062.46,4,"[[320,1640481147796,75],[477,1640481052050,16],[123,1640480969468,73],[129,1640481176718,90]]"
930356,1641.729,1983,46.64408538,10.32790375,11887.2,12062.46,4,"[[320,1642706162046,59],[477,1642706066250,14],[123,1642705982906,80],[129,1642706190859,83]]"
932842,1645.949,1983,46.63915085,10.33957672,11887.2,12070.08,4,"[[477,1646921595352,0],[131,1646921929656,113],[123,1646921510562,101],[129,1646921719843,62]]"
933185,1646.517,1983,46.63835946,10.34108734,11887.2,12070.08,4,"[[477,1647496117677,0],[320,1647496213484,51],[131,1647496451484,74],[129,1647496242125,58]]"
934131,1648.072,1983,46.63752152,10.34355927,11887.2,12070.08,4,"[[123,1649036048515,118],[477,1649036134052,0],[131,1649036466484,94],[130,1649036666546,73]]"
935107,1649.691,1983,46.63621805,10.34651184,11879.58,12062.46,4,"[[131,1650666496156,82],[477,1650666165202,7],[123,1650666079109,78],[129,1650666289578,65]]"
936546,1652.043,1983,46.63284302,10.35401135,11879.58,12062.46,4,"[[10,1653016286937,177],[130,1653016704921,46],[123,1653016091859,103],[477,1653016178702,50]]"
938075,1654.593,1983,46.63000488,10.36084431,11879.58,12062.46,4,"[[320,1655561301312,58],[131,1655561532218,64],[129,1655561329781,77],[123,1655561117843,68]]"
938748,1655.718,1983,46.62853694,10.36381531,11879.58,12062.46,4,"[[477,1656701222952,13],[131,1656701548578,81],[129,1656701347156,82],[123,1656701134890,56]]"
939366,1656.751,1983,46.62730408,10.3668064,11879.58,12062.46,4,"[[477,1657731255352,54],[10,1657731363562,57],[320,1657731351093,68],[129,1657731379515,78]]"
939967,1657.737,1983,46.62634898,10.36930847,11879.58,12062.46,4,"[[477,1658722056527,0],[320,1658722152281,58],[129,1658722180625,77],[123,1658721967765,75]]"
941616,1660.581,1983,46.62290411,10.37686157,11887.2,12070.08,4,"[[477,1661526271675,31],[131,1661526593109,66],[123,1661526182031,71],[10,1661526379906,42]]"
942509,1661.985,1983,46.62117004,10.38107523,11887.2,12070.08,4,"[[10,1662971647843,111],[130,1662972050171,59],[477,1662971539600,18],[129,1662971663562,55]]"
943668,1663.844,1983,46.61901855,10.38616646,11887.2,12070.08,4,"[[10,1664826417765,67],[248,1664826973156,21],[130,1664826817218,42],[123,1664826218859,74]]"
945701,1667.239,1983,46.61503601,10.39527707,11879.58,12062.46,4,"[[477,1668196399450,21],[123,1668196307687,73],[131,1668196715062,87],[129,1668196523296,66]]"
946336,1668.248,1983,46.61384583,10.39815763,11887.2,12070.08,4,"[[129,1669216480453,73],[477,1669216356650,7],[131,1669216671359,63],[123,1669216264546,58]]"
946653,1668.799,1983,46.61306763,10.39976539,11887.2,12070.08,4,"[[320,1669771711562,84],[10,1669771724015,96],[131,1669771930062,96],[123,1669771523531,105]]"
947911,1670.919,1983,46.61056777,10.40535736,11879.58,12062.46,4,"[[477,1671896388725,23],[130,1671896885328,46],[131,1671896701109,87],[129,1671896512515,73]]"
948475,1671.849,1983,46.6101488,10.40659332,11887.2,12070.08,4,"[[320,1672831491281,45],[130,1672831890578,45],[123,1672831302250,113],[129,1672831519234,83]]"
949563,1673.588,1983,46.60899353,10.40927794,11879.58,12062.46,4,"[[477,1674571665102,12],[320,1674571760859,64],[10,1674571773328,52],[129,1674571788843,95]]"
952287,1677.975,1983,46.60345459,10.42207299,11879.58,12062.46,4,"[[320,1678961614312,48],[123,1678961423468,85],[131,1678961824875,91],[129,1678961642156,82]]"
952561,1678.428,1983,46.60290527,10.42327881,11887.2,12070.08,4,"[[477,1679411530502,5],[10,1679411638703,48],[129,1679411654093,86],[123,1679411435250,76]]"
953148,1679.433,1983,46.60157776,10.42602539,11887.2,12070.08,4,"[[320,1680411580468,56],[131,1680411789828,75],[129,1680411608312,84],[123,1680411389218,72]]"
955769,1683.842,1983,46.59645081,10.43801657,11887.2,12070.08,4,"[[10,1684816826687,105],[130,1684817194875,79],[123,1684816621671,78],[129,1684816841937,61]]"
957317,1686.368,1983,46.59352965,10.44477081,11887.2,12070.08,4,"[[477,1687326610348,10],[123,1687326512812,40],[10,1687326718578,47],[129,1687326733750,64]]"
958314,1687.953,1983,46.59150696,10.44953881,11887.2,12070.08,4,"[[130,1688932042437,28],[123,1688931474578,88],[125,1688931836640,71],[131,1688931870203,96]]"
960251,1691.284,1983,46.58766407,10.45843506,11887.2,12070.08,4,"[[320,1692266708625,54],[477,1692266613023,17],[123,1692266513859,69],[129,1692266736171,101]]"
960515,1691.715,1983,46.587152,10.45960236,11887.2,12070.08,4,"[[10,1692691722453,107],[477,1692691614248,4],[123,1692691515125,48],[129,1692691737515,94]]"
960797,1692.157,1983,46.58668647,10.46070099,11887.2,12070.08,4,"[[320,1693131715781,46],[477,1693131620048,4],[123,1693131520781,47],[129,1693131743265,96]]"
961403,1693.169,1983,46.58547612,10.46337891,11887.2,12070.08,4,"[[477,1694126629273,5],[131,1694126922625,78],[123,1694126529734,60],[129,1694126752484,92]]"
962255,1694.63,1983,46.58363342,10.46729111,11887.2,12070.08,4,"[[10,1695601753953,109],[477,1695601645750,19],[320,1695601741468,66],[129,1695601768937,104]]"
962528,1695.07,1983,46.5830554,10.46866608,11887.2,12070.08,4,"[[10,1696051758640,67],[131,1696051942140,85],[477,1696051650450,33],[129,1696051773625,104]]"
963391,1696.525,1983,46.58291574,10.46935272,11879.58,12062.46,4,"[[130,1697507123531,81],[131,1697506957437,106],[477,1697506666950,8],[129,1697506790125,109]]"
965635,1700.15,1983,46.57812086,10.47999573,11887.2,12070.08,4,"[[320,1701126802140,46],[10,1701126814625,68],[123,1701126604906,54],[129,1701126829437,65]]"
965913,1700.609,1983,46.57772827,10.481158,11887.2,12070.08,4,"[[477,1701591774900,21],[10,1701591883046,101],[123,1701591673234,50],[129,1701591897937,90]]"
966254,1701.168,1983,46.57722473,10.4824978,11887.2,12070.08,4,"[[477,1702151717150,18],[131,1702152003734,82],[129,1702151840171,87],[123,1702151615343,63]]"
968608,1705.068,1983,46.57239494,10.49331665,11887.2,12070.08,4,"[[477,1706046760227,0],[10,1706046868437,80],[131,1706047043593,79],[129,1706046883093,36]]"
969381,1706.358,1983,46.57090759,10.4969006,11887.2,12070.08,4,"[[130,1707327240093,81],[131,1707327081109,100],[477,1707326798827,6],[10,1707326907031,65]]"
970007,1707.337,1983,46.56978801,10.49935913,11887.2,12070.08,4,"[[320,1708312650765,53],[10,1708312663234,105],[131,1708312836468,101],[123,1708312451562,46]]"
971358,1709.538,1983,46.56718109,10.50519562,11887.2,12070.08,4,"[[10,1710522157296,112],[477,1710522049102,31],[130,1710522485343,62],[131,1710522328718,94]]"
973394,1712.836,1983,46.56326294,10.51418397,11879.58,12062.46,4,"[[477,1713822130402,21],[320,1713822226156,64],[10,1713822238578,118],[123,1713822025484,50]]"
973686,1713.292,1983,46.56266552,10.51542664,11887.2,12070.08,4,"[[320,1714281971765,40],[477,1714281876077,23],[123,1714281771046,68],[10,1714281984296,77]]"
974308,1714.338,1983,46.56150171,10.51817322,11879.58,12062.46,4,"[[10,1715311970968,79],[477,1715311862777,3],[123,1715311757484,58],[129,1715311985437,67]]"
977685,1719.849,1983,46.55566406,10.5317353,11879.58,12062.46,4,"[[10,1720827030703,107],[477,1720826922477,9],[113,1720826833718,51],[123,1720826815781,66]]"
978630,1721.4,1983,46.55502319,10.53320908,11879.58,12062.46,4,"[[113,1722376904687,37],[10,1722377103234,71],[123,1722376887953,54],[131,1722377264875,70]]"
980412,1724.283,1983,46.55070159,10.54296112,11887.2,12070.08,4,"[[320,1725257076375,36],[477,1725256980625,23],[129,1725257103109,28],[10,1725257088828,85]]"
980692,1724.714,1983,46.55037573,10.5437851,11887.2,12070.08,4,"[[113,1725701938484,60],[131,1725702299453,91],[130,1725702444984,25],[10,1725702140515,114]]"
981040,1725.28,1983,46.54977055,10.54536438,11887.2,12070.08,4,"[[10,1726252089890,79],[123,1726251873546,51],[320,1726252077421,44],[131,1726252248359,89]]"
981349,1725.792,1983,46.54920959,10.54667403,11887.2,12070.08,4,"[[477,1726776988900,8],[130,1726777399671,57],[131,1726777254984,69],[10,1726777096890,123]]"
981676,1726.317,1983,46.54851364,10.54811096,11887.2,12070.08,4,"[[113,1727291898531,29],[10,1727292102218,82],[131,1727292259859,53],[123,1727291885656,55]]"
981918,1726.718,1983,46.54800156,10.54920959,11887.2,12070.08,4,"[[477,1727702023075,7],[320,1727702118796,58],[10,1727702131250,125],[131,1727702288593,115]]"
984561,1731.062,1983,46.54278771,10.56122589,11887.2,12070.08,4,"[[320,1732037144828,42],[10,1732037157343,84],[123,1732036939578,45],[477,1732037049125,0]]"
984882,1731.589,1983,46.54220581,10.56248362,11887.2,12070.08,4,"[[10,1732562158843,113],[130,1732562452656,44],[123,1732561940937,74],[131,1732562312203,99]]"
990634,1740.987,1983,46.53108215,10.58793975,11887.2,12070.08,4,"[[477,1741962185225,17],[10,1741962293437,118],[131,1741962439250,116],[123,1742962073281,47]]"
991769,1742.883,1983,46.52882204,10.59288025,11887.2,12070.08,4,"[[10,1743862283671,100],[131,1743862427984,92],[130,1743862559984,62],[123,1743862063078,66]]"
992725,1744.425,1983,46.52719116,10.59698337,11887.2,12070.08,4,"[[320,1745412288265,36],[10,1745412300687,84],[477,1745412192575,29],[131,1745412443781,90]]"
996589,1750.945,1983,46.52046204,10.61205608,11887.2,12070.08,4,"[[130,1751932700796,76],[131,1751932574828,91],[125,1751932554718,81],[10,1751932437000,97]]"
1002977,1761.547,1983,46.50787354,10.64059374,11887.2,12070.08,4,"[[320,1762532475484,43],[10,1762532487937,101],[130,1762532735390,54],[131,1762532617500,130]]"
1004676,1764.386,1983,46.50466919,10.64836456,11887.2,12070.08,4,"[[477,1765367469400,19],[130,1765367820656,54],[10,1765367577578,98],[131,1765367704906,103]]"
1005816,1766.35,1983,46.50233382,10.65316772,11887.2,12070.08,4,"[[10,1767317540718,91],[130,1767317780734,56],[477,1767317432502,23],[131,1767317666531,61]]"
1006936,1768.234,1983,46.50022888,10.65841303,11887.2,12070.08,4,"[[477,1769227506177,39],[320,1769227601843,43],[10,1769227614296,98],[131,1769227738625,48]]"
1010102,1773.607,1983,46.49501038,10.67033721,11887.2,12070.08,4,"[[320,1774592605593,37],[10,1774592618109,57],[131,1774592738265,79],[477,1774592509952,0]]"
1012705,1778.017,1983,46.48988342,10.68212742,11887.2,12070.08,4,"[[477,1779002565027,2],[10,1779002673093,106],[130,1779002895234,40],[131,1779002790046,105]]"
1013358,1779.09,1983,46.48846125,10.68516541,11887.2,12070.08,4,"[[130,1780073155546,55],[10,1780072935125,81],[125,1780073036953,59],[131,1780073051125,92]]"
1013937,1780.065,1983,46.48725089,10.68777466,11887.2,12070.08,4,"[[10,1781047692859,68],[320,1781047680359,42],[125,1781047794109,92],[131,1781047808093,78]]"
1020357,1790.808,1983,46.47468567,10.7164262,11887.2,12070.08,4,"[[320,1791792797140,18],[477,1791792701475,24],[130,1791793011937,60],[131,1791792916734,103]]"
1033283,1812.462,1983,46.45033497,10.77209473,11879.58,12062.46,4,"[[130,1813448217718,61],[320,1813448036093,45],[131,1813448139546,97],[10,1813448048609,88]]"
1041368,1826.774,1983,46.4347229,10.80759932,11887.2,12070.08,4,"[[10,1827758204109,97],[131,1827758284656,84],[320,1827758191656,43],[130,1827758351234,92]]"
1042414,1828.544,1983,46.43259857,10.81198883,11887.2,12070.08,4,"[[320,1829523438140,39],[130,1829523595000,71],[131,1829523529859,101],[10,1829523450593,96]]"
1043622,1830.609,1983,46.43028259,10.81764779,11887.2,12070.08,4,"[[320,1831588235359,38],[130,1831588389000,65],[131,1831588325578,125],[10,1831588247828,90]]"
1044789,1832.518,1983,46.4279899,10.82276917,11887.2,12070.08,4,"[[130,1833503409281,78],[320,1833503258484,38],[125,1833503344218,76],[10,1833503270937,100]]"
