id,timeAtServer,aircraft,latitude,longitude,baroAltitude,geoAltitude,numMeasurements,measurements
2,0,1605,50.48213118,7.3542332,10363.2,10500.36,5,"[[463,963756980,25],[238,963870125,32],[115,963663562,91],[412,963820222,34],[394,963815875,138]]"
5,0.001000166,1283,49.8303533,5.400374129,9753.6,9906,5,"[[463,960120430,41],[424,960138097,44],[412,960120172,50],[115,960291484,44],[13,960091359,74]]"
25,0.042999983,1643,50.04165391,5.937813424,10866.12,11049,6,"[[101,1028871125,34],[394,1028740781,69],[463,1028614180,34],[424,1028634322,37],[412,1028630622,5],[13,1028686062,55]]"
26,0.044000149,2580,49.88928223,9.482357627,10660.38,10820.4,4,"[[101,1036760984,62],[440,1036640475,59],[412,1036899072,22],[123,1037417234,61]]"
29,0.052999973,1835,45.3296364,6.900083961,11292.84,11483.34,4,"[[14,1033395578,61],[112,1032997140,76],[206,1033156953,83],[113,1033441859,40]]"
30,0.052999973,1336,46.81316311,6.750137329,10972.8,11140.44,5,"[[14,1036341062,85],[477,1036243402,11],[10,1036385312,58],[206,1036430953,69],[473,1035959898,44]]"
34,0.05700016,2617,49.22726906,10.14464529,10660.38,10904.22,5,"[[101,1045367796,23],[254,1045133109,40],[320,1045656000,73],[440,1045247300,28],[123,1045502359,78]]"
35,0.05700016,975,49.96861267,9.343438399,10256.52,10447.02,6,"[[101,1047293937,57],[320,1048073296,50],[440,1047173400,77],[412,1047454697,19],[123,1048025093,16],[115,1047678671,33]]"
56,0.082000017,2415,,,11269.98,,4,"[[436,1071634093,72],[101,1071606937,33],[394,1071572984,107],[238,1071717171,20]]"
65,0.110000134,2555,48.05754089,11.10971832,10980.42,11140.44,5,"[[125,1085287375,118],[254,1085706156,55],[320,1085810093,50],[131,1085422328,125],[123,1085428531,106]]"
66,0.111000061,1739,51.20718384,8.151929701,10972.8,11125.2,7,"[[101,1100104906,29],[440,1099984400,25],[115,1099881000,66],[436,1100195671,122],[463,1100199855,38],[394,1100010218,65],[238,1099835265,103]]"
68,0.118000031,2146,48.59999084,9.458101713,8816.34,9060.18,4,"[[10,1096356656,119],[320,1096373765,72],[254,1095996375,129],[125,1096371843,52]]"
69,0.118000031,332,48.67863464,9.374295748,7635.24,7848.6,4,"[[10,1096872156,113],[254,1096458078,140],[125,1096894546,56],[123,1096850875,112]]"
71,0.118999958,2610,48.44714666,9.041675768,10668,10835.64,6,"[[10,1102477031,84],[320,1102495640,84],[254,1102245796,0],[125,1102677609,87],[123,1102539156,118],[294,1102189609,66]]"
81,0.144000053,1635,46.80093384,9.086363257,12192,12359.64,6,"[[14,1127544203,111],[320,1127558171,123],[10,1127576468,156],[125,1128159234,87],[477,1127458452,1],[129,1127538875,115]]"
87,0.156000137,635,47.39414978,7.595672607,10965.18,11132.82,5,"[[14,1141987234,131],[320,1142009671,123],[10,1142006000,131],[477,1141866052,8],[129,1141972578,101]]"
92,0.163000107,2303,46.10547599,10.53479004,10668,10904.22,5,"[[113,1139038328,36],[131,1139698906,107],[10,1139500578,84],[125,1139689343,101],[477,1139388627,0]]"
98,0.179000139,1260,48.93627102,9.148864746,10972.8,11140.44,4,"[[10,1159460468,110],[254,1158915234,93],[463,1159161080,35],[402,1159161120,6]]"
99,0.179000139,585,49.29425773,9.195628919,10965.18,11201.4,6,"[[101,1164843890,33],[254,1164667906,97],[440,1164723550,27],[10,1165231906,73],[125,1165172312,72],[394,1165453234,26]]"
106,0.185000181,1047,47.79821777,8.201774597,3939.54,4069.08,5,"[[447,1169542109,115],[320,1169458562,133],[10,1169440515,93],[477,1169316502,4],[129,1169542093,98]]"
120,0.207000017,1855,48.23766159,6.43661499,11590.02,11780.52,4,"[[477,1189995802,12],[440,1190215475,21],[473,1189998798,37],[129,1190148843,23]]"
133,0.258000135,2124,50.89709473,8.738807472,10972.8,11140.44,4,"[[436,1235110281,73],[394,1234922703,105],[463,1234889505,6],[115,1234751546,66]]"
138,0.269999981,1691,48.97554016,9.640925481,10782.3,11041.38,4,"[[254,1251830109,121],[320,1252362125,69],[123,1252274359,43],[125,1252213921,66]]"
139,0.277000189,1659,46.61036682,6.801608946,10645.14,10805.16,4,"[[14,1269797781,81],[473,1269391123,27],[102,1269569093,47],[206,1269830406,75]]"
145,0.299000025,1596,49.02416165,6.943431653,7482.84,7612.38,5,"[[320,1283813984,54],[463,1283189505,26],[412,1283130947,3],[424,1283189072,8],[402,1283189795,4]]"
146,0.301000118,2319,49.30063539,9.063576146,11887.2,12062.46,7,"[[440,1289820650,33],[101,1289941171,27],[10,1290341968,87],[320,1290361312,73],[463,1289847480,44],[123,1290356750,53],[402,1289847595,34]]"
147,0.308000088,1808,51.39967579,6.134185791,10675.62,10797.54,5,"[[436,1277362031,76],[394,1277436937,181],[322,1277781390,73],[115,1277626250,64],[13,1277686671,63]]"
151,0.309000015,492,50.32576222,4.66028162,6652.26,6797.04,4,"[[436,1293833031,94],[394,1293942875,37],[115,1294032656,26],[13,1293557250,47]]"
155,0.312000036,2298,51.74174163,2.704238892,10462.26,10546.08,4,"[[199,1284392375,35],[191,1284622156,47],[322,1283985687,86],[13,1284217000,63]]"
163,0.322999954,2373,48.58992004,9.675152118,11879.58,12100.56,4,"[[254,1304819640,145],[440,1305143775,24],[123,1305078625,55],[125,1305103953,0]]"
164,0.328999996,840,46.37831866,9.458335876,8138.16,8290.56,5,"[[14,1319060750,67],[320,1319075984,84],[10,1319094250,56],[206,1318845484,95],[477,1318976527,4]]"
165,0.328999996,840,46.37831866,9.458335876,8138.16,8282.94,5,"[[14,1319060750,67],[320,1319075984,84],[10,1319094250,56],[206,1318845484,95],[477,1318976527,4]]"
166,0.328999996,1201,47.29344177,9.505577087,6446.52,6598.92,4,"[[447,1324348109,113],[320,1324253781,105],[477,1324156452,31],[10,1324258859,131]]"
174,0.355000019,2138,51.53096008,5.859350256,10660.38,10835.64,4,"[[394,1325842171,83],[436,1325698875,85],[322,1326032921,110],[13,1325990921,69]]"
182,0.368999958,2751,49.4304657,8.032812821,5631.18,5745.48,7,"[[101,1352220453,41],[440,1352099975,30],[412,1351963197,12],[424,1351915522,29],[463,1351929655,0],[115,1352548234,43],[402,1351929720,0]]"
190,0.379000187,914,49.00838044,6.58587004,10668,10820.4,4,"[[440,1355758375,46],[412,1355427922,11],[424,1355482072,17],[402,1355479020,15]]"
193,0.383000135,84,49.79902364,7.17956543,7894.32,8023.86,4,"[[101,1374083531,34],[440,1373963000,50],[412,1373852122,31],[394,1374304531,84]]"
196,0.38499999,1494,47.13793945,8.479248047,10972.8,11132.82,4,"[[14,1368043406,129],[320,1368082781,88],[10,1368098484,142],[463,1368755930,36]]"
205,0.397000074,2149,49.95501709,9.450844213,10972.8,11148.06,4,"[[101,1379439546,45],[440,1379319000,36],[412,1379594447,56],[123,1380134203,35]]"
208,0.407999992,1787,49.5234375,7.803906892,6400.8,6537.96,4,"[[320,1383327109,61],[424,1382416072,25],[412,1382474372,33],[402,1382410845,44]]"
215,0.420000076,1173,50.61520386,6.06944034,11894.82,12016.74,5,"[[322,1399911921,93],[238,1399757171,45],[440,1399766150,35],[412,1399768922,37],[115,1399600906,69]]"
217,0.423000097,320,49.39283752,8.420738807,5128.26,5189.22,4,"[[101,1406802828,66],[463,1406615430,45],[440,1406682300,45],[115,1407185812,58]]"
220,0.425000191,296,50.45699297,7.420670793,10668,10812.78,4,"[[320,1405224250,38],[238,1404417156,23],[412,1404348172,30],[115,1404213562,59]]"
245,0.463000059,1675,,,11582.4,,4,"[[463,1427442255,6],[394,1427592750,121],[440,1427390325,40],[13,1427890390,40]]"
254,0.468000174,1613,46.93745759,6.17192195,11887.2,12016.74,5,"[[206,1449094734,34],[14,1448980453,83],[102,1448743515,42],[477,1448875552,8],[473,1448621173,48]]"
266,0.483999968,2253,47.33395386,8.693824768,8526.78,8709.66,5,"[[14,1473899625,28],[477,1473767302,6],[10,1473879921,80],[125,1474633484,54],[320,1473870640,53]]"
278,0.495000124,1196,49.28572083,7.956003042,10668,10873.74,5,"[[463,1459323230,43],[440,1459536450,65],[424,1459303147,24],[402,1459323245,42],[412,1459316122,18]]"
280,0.496999979,2456,,,10668,,4,"[[101,1490896984,56],[440,1490776500,40],[463,1491016830,27],[412,1491075497,31]]"
298,0.521000147,1226,48.80145574,6.254473234,10363.2,10530.84,4,"[[320,1502255671,38],[440,1502044375,36],[394,1502365171,16],[412,1501708647,28]]"
300,0.523000002,1043,47.28161828,7.860999474,8008.62,8221.98,4,"[[14,1511005796,135],[10,1511035234,143],[477,1510893802,6],[320,1511034859,107]]"
307,0.536000013,1082,51.13935568,6.921539307,10668,10812.78,4,"[[436,1518521765,116],[238,1518474328,128],[394,1518344187,148],[115,1518398734,128]]"
309,0.536000013,1752,50.7881012,6.218929806,10965.18,11148.06,4,"[[436,1523784734,96],[322,1524183390,82],[394,1523766796,85],[115,1523837296,49]]"
311,0.537000179,1336,46.81388855,6.74862001,10972.8,11140.44,4,"[[14,1515993859,124],[10,1516038093,70],[477,1515896127,0],[473,1515612848,10]]"
313,0.548000097,207,47.06451416,8.098983765,10668,10896.6,4,"[[477,1531741752,0],[14,1531828531,112],[10,1531882000,147],[320,1531871921,62]]"
314,0.551000118,1835,45.3289032,6.901114328,11292.84,11483.34,4,"[[113,1533618328,36],[14,1533572437,54],[112,1533174171,31],[206,1533333625,69]]"
333,0.580000162,2617,49.22653198,10.14573317,10660.38,10904.22,4,"[[248,1555105531,25],[125,1555345296,103],[440,1555270700,34],[123,1555525156,86]]"
334,0.580000162,962,49.39668274,10.23806058,11277.6,11475.72,4,"[[248,1569009906,53],[320,1569695796,54],[10,1569679312,36],[123,1569537953,19]]"
340,0.59100008,1749,50.28318787,6.019929585,10972.8,11109.96,4,"[[322,1568837484,67],[394,1568503531,87],[115,1568512296,101],[13,1568496000,49]]"
351,0.608999968,2303,46.10490417,10.53387898,10668,10904.22,4,"[[113,1589042562,88],[10,1589505140,100],[130,1589668843,81],[125,1589694171,79]]"
353,0.611000061,67,49.7010498,6.04146857,10957.56,11117.58,5,"[[394,1581557000,102],[436,1581574640,58],[424,1581270422,26],[412,1581252497,23],[13,1581502734,40]]"
356,0.614000082,1290,50.19415904,10.44191103,8976.36,9204.96,4,"[[320,1604329843,59],[440,1603533825,9],[125,1603908468,49],[463,1704973105,11]]"
357,0.618999958,1260,48.93673654,9.147852847,10972.8,11140.44,5,"[[101,1608868656,18],[10,1609010453,101],[440,1608748050,50],[463,1608710605,24],[123,1609024562,68]]"
363,0.64199996,267,51.97480774,1.194229126,7269.48,7353.3,4,"[[289,1614012421,24],[199,1613876625,105],[191,1614105859,52],[322,1614163125,53]]"
373,0.659000158,2124,50.89736938,8.737471297,10972.8,11140.44,4,"[[101,1645297250,22],[436,1645660234,74],[394,1645472687,78],[115,1645301562,31]]"
374,0.659000158,2364,46.40918279,7.563262939,11582.4,11742.42,6,"[[102,1646137796,33],[112,1646081265,88],[477,1646209027,5],[14,1646287953,64],[206,1646215781,125],[473,1645905148,26]]"
391,0.70600009,2712,46.41490872,6.265296936,10660.38,10820.4,4,"[[14,1698293515,94],[112,1697790890,137],[206,1698292859,64],[473,1697884198,52]]"
394,0.713000059,869,50.78323106,5.176010132,10965.18,11140.44,5,"[[436,1698316062,99],[322,1698506296,91],[394,1698441031,87],[412,1698730472,18],[13,1698171140,104]]"
396,0.713999987,635,47.39455401,7.59380634,10965.18,11132.82,4,"[[10,1701531000,55],[14,1701512187,68],[320,1701534640,70],[477,1701390977,0]]"
406,0.746999979,203,47.24675065,8.538841834,5067.3,5204.46,5,"[[447,1740079296,100],[14,1739998375,108],[477,1739913552,4],[10,1740046515,137],[320,1740031093,109]]"
407,0.746999979,203,47.24675065,8.538841834,5067.3,5196.84,5,"[[447,1740079296,100],[14,1739998375,108],[477,1739913552,4],[10,1740046515,137],[320,1740031093,109]]"
408,0.749000072,1902,46.3364682,11.15386963,10660.38,10866.12,5,"[[320,1727843328,57],[10,1727855390,50],[131,1727837796,111],[130,1727813984,84],[125,1727859093,105]]"
411,0.758000135,1983,48.44270325,5.887052096,11841.48,11986.26,4,"[[477,1725446377,7],[463,1725257930,5],[473,1725430373,24],[412,1725198147,14]]"
423,0.777000189,1596,49.02341681,6.943287097,7482.84,7620,5,"[[440,1763263575,53],[320,1763602546,38],[463,1762978505,47],[477,1763460127,33],[412,1762919947,38]]"
427,0.788000107,1808,51.39907837,6.135864258,10675.62,10797.54,4,"[[436,1757599093,61],[394,1757673437,116],[238,1757871281,49],[13,1757923750,46]]"
434,0.810000181,2326,49.96977725,9.935500686,10363.2,10599.42,4,"[[101,1793659750,19],[248,1793597531,27],[320,1794335734,68],[123,1794227562,34]]"
435,0.812999964,1659,46.60926819,6.800805069,10645.14,10812.78,4,"[[102,1804536750,29],[14,1804765375,66],[206,1804797765,39],[473,1804358623,58]]"
438,0.822999954,280,51.17875671,7.974663812,11582.4,11727.18,7,"[[101,1810031984,40],[436,1810083609,99],[238,1809742375,111],[463,1810111305,46],[115,1809768281,71],[394,1809897500,89],[13,1810373500,32]]"
443,0.828999996,2319,49.30014038,9.065340482,11887.2,12062.46,4,"[[10,1810875468,51],[440,1810354525,28],[320,1810894796,36],[463,1810381680,17]]"
447,0.837000132,1787,49.52310853,7.804821118,6400.8,6537.96,7,"[[440,1818110975,66],[402,1817893570,40],[320,1818809765,69],[463,1817893730,29],[424,1817898897,15],[115,1818512265,37],[412,1817957247,15]]"
449,0.838999987,2449,47.41552734,8.995056152,4061.46,4160.52,4,"[[447,1831549000,142],[477,1831320727,8],[320,1831421906,112],[10,1831421109,134]]"
451,0.840000153,2373,48.58918762,9.676278921,11879.58,12100.56,6,"[[320,1825248390,109],[10,1825232421,104],[463,1825183105,53],[254,1824888984,55],[125,1825172687,71],[123,1825147265,43]]"
455,0.851999998,1283,49.82923605,5.402229928,9753.6,9906,4,"[[424,1820352372,0],[394,1820492984,38],[412,1820334447,52],[13,1820306812,53]]"
458,0.855000019,1173,50.61499127,6.070837072,11894.82,12016.74,4,"[[115,1819295046,100],[238,1819451390,57],[394,1819244531,74],[436,1819243484,125]]"
462,0.858999968,2359,47.81057739,9.304595947,10828.02,10972.8,4,"[[320,1832547875,89],[10,1832536000,134],[123,1832577968,110],[125,1832886953,94]]"
472,0.878000021,561,49.82532566,9.631075472,10965.18,11186.16,4,"[[101,1861129703,55],[440,1861009250,15],[402,1861206645,19],[123,1861715453,88]]"
474,0.881999969,168,48.09237671,7.0128479,9448.8,9616.44,5,"[[102,1874969640,26],[320,1875053765,92],[402,1874978895,48],[412,1874907197,15],[473,1874955348,14]]"
481,0.889000177,2210,47.57592153,9.925936185,8557.26,8747.76,4,"[[10,1876606125,71],[254,1876794812,26],[320,1876608234,78],[123,1876365437,133]]"
492,0.914999962,1605,50.48282947,7.351041227,10363.2,10507.98,5,"[[440,1903746475,57],[101,1903866875,42],[320,1904756640,27],[394,1903873015,94],[115,1903721046,56]]"
509,0.933000088,1467,48.88199111,8.543532522,7307.58,7467.6,6,"[[101,1919524968,30],[10,1919640609,92],[254,1919247765,34],[320,1919660640,74],[463,1919271855,41],[402,1919272045,33]]"
513,0.93900013,1849,45.98277283,11.49638851,11894.82,12092.94,4,"[[113,1917023046,77],[10,1917557156,41],[130,1917250109,105],[114,1917424687,28]]"
518,0.950000048,2610,48.4459363,9.043121338,10668,10835.64,4,"[[320,1932771984,82],[463,1932735105,33],[123,1932815265,119],[294,1932466859,51]]"
531,0.962000132,533,52.09629822,4.189529419,11612.88,11734.8,4,"[[322,1937135593,106],[436,1937514265,113],[394,1937688875,54],[13,1937504046,42]]"
534,0.962000132,2001,52.13664427,7.064758301,8923.02,9098.28,4,"[[436,1948752500,127],[322,1949031281,88],[238,1948623640,78],[13,1949078468,41]]"
539,0.969000101,2022,45.98071289,8.618774414,11277.6,11445.24,5,"[[473,1951506948,26],[10,1951763500,83],[477,1951634802,53],[113,1951682625,75],[206,1951333578,34]]"
540,0.970999956,207,47.06364441,8.099533081,10668,10896.6,4,"[[14,1954553937,103],[477,1954467202,0],[10,1954607468,144],[206,1954787578,45]]"
548,0.986000061,1478,,,10668,,4,"[[440,1969622075,45],[101,1969742562,24],[436,1970182390,83],[115,1969827781,68]]"
551,0.996999979,1613,46.93634033,6.171775818,11887.2,12016.74,4,"[[473,1988660548,36],[102,1988782953,29],[14,1989019937,55],[477,1988915127,8]]"
554,1.012000084,414,50.24834584,6.054283348,11277.6,11468.1,4,"[[436,1981057296,92],[115,1981049328,84],[412,1981044397,46],[13,1981045562,66]]"
557,1.012000084,1082,51.13893671,6.922607422,10668,10812.78,4,"[[436,1988509312,121],[115,1988385546,88],[238,1988461343,75],[322,1988950421,87]]"
569,1.032000065,1752,50.78837585,6.217667863,10965.18,11148.06,5,"[[463,2004050730,255],[436,2003789156,110],[238,2003982375,44],[394,2003771500,124],[115,2003842234,72]]"
574,1.046000004,332,48.67749023,9.372182993,7620,7833.36,4,"[[320,2026817421,91],[123,2026778796,102],[254,2026386250,132],[10,2026799625,119]]"
585,1.062000036,2253,47.33487404,8.694974459,8519.16,8702.04,4,"[[14,2053768640,122],[320,2053739359,75],[477,2053636352,0],[10,2053748531,91]]"
594,1.078999996,2023,51.80938203,7.619171143,11582.4,11711.94,4,"[[238,2059609593,132],[394,2059787984,107],[436,2059920906,106],[13,2060252296,42]]"
597,1.083000183,2146,48.60214233,9.458594689,8831.58,9075.42,6,"[[320,2066344625,72],[463,2066253080,32],[125,2066341968,86],[440,2066301850,64],[254,2065965906,130],[10,2066327515,126]]"
598,1.083000183,2555,48.05904065,11.10710731,10980.42,11140.44,5,"[[320,2066723640,69],[125,2066201218,128],[131,2066336843,132],[123,2066342421,93],[10,2066718140,60]]"
603,1.088000059,2124,50.89759827,8.736135122,10972.8,11140.44,5,"[[436,2075223500,95],[440,2074740375,17],[101,2074860906,40],[463,2075003305,13],[394,2075035984,104]]"
607,1.101000071,2415,,,11269.98,,5,"[[320,2077297671,44],[440,2076499450,47],[424,2076417472,16],[101,2076619921,38],[412,2076428547,30]]"
609,1.101000071,429,49.93670654,7.204935174,7010.4,7178.04,6,"[[320,2088962734,31],[440,2088128300,33],[424,2088050222,35],[101,2088248875,32],[463,2088028155,40],[412,2088078022,34]]"
612,1.107000113,1635,46.80296817,9.086517334,12192,12359.64,4,"[[447,2096899406,90],[14,2096904453,106],[320,2096918343,131],[10,2096936656,92]]"
613,1.111000061,1058,51.79019165,7.513015335,8724.9,8877.3,4,"[[238,2084581484,93],[436,2084874828,115],[394,2084744593,105],[13,2085206687,72]]"
614,1.114000082,1835,45.32803345,6.902356829,11292.84,11475.72,4,"[[14,2093932343,67],[113,2093977875,52],[112,2093534296,84],[206,2093693421,81]]"
616,1.117000103,1575,50.45699297,7.126934979,11277.6,11445.24,7,"[[101,2109372796,26],[440,2109252325,23],[238,2109412953,68],[463,2109285005,30],[412,2109343647,16],[394,2109325546,115],[115,2109203234,89]]"
618,1.121000051,1047,47.79853433,8.199885442,3939.54,4069.08,4,"[[447,2109028015,105],[320,2108944718,139],[477,2108802502,21],[10,2108926687,80]]"
623,1.131000042,2303,46.10426331,10.53287413,10668,10904.22,4,"[[130,2099665906,51],[477,2099390152,5],[131,2099701015,105],[10,2099501984,124]]"
630,1.148000002,1260,48.93720207,9.146840949,10972.8,11140.44,5,"[[254,2108832156,55],[463,2109077080,55],[402,2109077320,15],[123,2109391875,51],[10,2109377500,131]]"
631,1.150000095,1643,50.04235219,5.934324522,10850.88,11033.76,5,"[[101,2138380531,29],[320,2138971109,44],[424,2138143722,13],[463,2138123805,35],[412,2138140022,47]]"
632,1.151000023,2100,50.50438315,4.808968209,9974.58,10111.74,4,"[[322,2127406156,66],[394,2127408046,63],[115,2127509937,58],[13,2127027734,82]]"
645,1.166000128,635,47.39474022,7.593102088,10965.18,11132.82,4,"[[14,2151572312,126],[320,2151594750,127],[477,2151451352,0],[10,2151591046,135]]"
652,1.179000139,2364,46.41023254,7.564220894,11582.4,11742.42,5,"[[14,2166632968,72],[112,2166426734,79],[206,2166561031,84],[113,2166993593,57],[10,2166692953,100]]"
653,1.179000139,581,49.54925537,10.43462653,10972.8,11201.4,5,"[[248,2168730437,78],[101,2169115515,35],[320,2169541625,62],[125,2169120234,79],[123,2169368953,49]]"
659,1.18900013,585,49.296725,9.196351704,10965.18,11201.4,5,"[[101,2174946406,33],[320,2175355000,42],[440,2174826000,45],[463,2174867655,29],[125,2175275625,113]]"
662,1.192000151,1596,49.02262542,6.94314254,7490.46,7620,7,"[[477,2163747727,0],[320,2163890375,54],[424,2163266347,35],[463,2163266830,27],[402,2163266870,38],[412,2163208147,17],[10,2163872171,53]]"
665,1.203999996,203,47.24749549,8.538278433,5059.68,5189.22,5,"[[14,2190212187,61],[447,2190293218,97],[320,2190244812,118],[477,2190127127,1],[10,2190260125,163]]"
667,1.213000059,1691,48.97746975,9.640936601,10767.06,11026.14,4,"[[254,2201835531,118],[320,2202368078,91],[402,2202100570,15],[463,2202100480,49]]"
674,1.217000008,2580,49.88789187,9.485061233,10660.38,10820.4,4,"[[101,2207064156,63],[440,2206943625,32],[412,2207201847,14],[123,2207718968,66]]"
692,1.25999999,1201,47.29344255,9.505638709,6454.14,6598.92,4,"[[447,2244038531,120],[320,2243944328,98],[10,2243949406,131],[477,2243847002,14]]"
694,1.284000158,1659,46.60858154,6.80026915,10645.14,10812.78,5,"[[102,2269600593,43],[112,2269386968,48],[206,2269861390,78],[473,2269422423,52],[14,2269829234,89]]"
702,1.292999983,124,46.3647254,13.07977295,10683.24,10942.32,4,"[[114,2266826031,80],[130,2266753359,74],[125,2267293843,85],[131,2267154859,106]]"
703,1.294000149,1787,49.52273611,7.805711901,6400.8,6537.96,5,"[[320,2266578921,54],[402,2265663045,51],[115,2266281812,39],[424,2265668172,2],[412,2265726572,0]]"
722,1.325999975,2149,49.95697539,9.451434161,10972.8,11148.06,5,"[[101,2310385921,47],[125,2310920843,56],[440,2310265425,61],[412,2310541322,36],[123,2311081281,32]]"
726,1.334000111,1808,51.39841888,6.137619019,10675.62,10797.54,5,"[[436,2307754468,87],[394,2307828171,170],[238,2308026078,78],[322,2308174140,106],[13,2308079078,43]]"
735,1.351000071,168,48.0920105,7.014083862,9448.8,9616.44,5,"[[320,2335066687,66],[402,2334992170,32],[10,2335053062,39],[477,2334920927,14],[473,2334968348,30]]"
736,1.351000071,2359,47.81054481,9.302955041,10828.02,10980.42,4,"[[320,2337543875,79],[10,2337531968,139],[123,2337574593,90],[125,2337885343,89]]"
754,1.375,280,51.17827335,7.972946167,11582.4,11727.18,5,"[[436,2359900093,97],[238,2359559140,94],[463,2359927980,54],[412,2359998447,34],[394,2359714046,75]]"
755,1.376000166,2022,45.97988892,8.618841404,11277.6,11445.24,5,"[[477,2351308952,12],[206,2351007718,118],[113,2351356406,74],[130,2352244453,84],[14,2351381859,79]]"
756,1.378000021,2373,48.5884327,9.677364952,11879.58,12100.56,6,"[[10,2355403093,89],[125,2355343125,88],[254,2355060140,116],[320,2355419125,89],[463,2355354255,32],[123,2355317640,53]]"
758,1.380000114,2319,49.29959106,9.067030687,11887.2,12062.46,4,"[[101,2370021656,28],[463,2369928080,60],[402,2369928195,46],[123,2370435906,51]]"
770,1.401000023,1082,51.13847118,6.923828125,10668,10812.78,4,"[[436,2388528187,86],[238,2388479859,105],[394,2388350578,149],[115,2388403843,135]]"
771,1.401000023,1173,50.6146654,6.072692871,11894.82,12016.74,5,"[[436,2389047687,115],[394,2389048484,120],[412,2389266772,26],[115,2389098750,15],[13,2389113390,69]]"
772,1.404000044,1568,49.10572117,9.663198371,12184.38,12412.98,6,"[[440,2392731300,36],[10,2393083468,86],[125,2392924500,82],[254,2392547593,67],[463,2392776980,27],[123,2393011656,107]]"
776,1.412000179,914,49.00628559,6.586014597,10668,10820.4,6,"[[402,2395868945,55],[10,2396450625,101],[320,2396467937,91],[473,2396417698,6],[412,2395817647,11],[424,2395871822,12]]"
780,1.417999983,1446,47.49161542,8.323481633,11277.6,11437.62,4,"[[447,2411195171,144],[320,2411125421,148],[477,2410981927,8],[14,2411132546,104]]"
784,1.421000004,2199,46.94160461,8.185707092,10972.8,11140.44,4,"[[206,2400858125,76],[477,2400609027,0],[10,2400746718,114],[14,2400687140,122]]"
785,1.423000097,2751,49.4319127,8.030783164,5623.56,5730.24,4,"[[463,2381942255,22],[402,2381942320,28],[394,2382723296,37],[412,2381976172,7]]"
791,1.436000109,2298,51.74084473,2.701968631,10454.64,10538.46,4,"[[191,2395034796,37],[199,2394804875,40],[289,2394889750,39],[13,2394630343,60]]"
797,1.447999954,1196,49.28466797,7.95910175,10668,10873.74,7,"[[101,2434781750,26],[440,2434661250,43],[115,2435100375,38],[424,2434428547,15],[412,2434441222,10],[463,2434448655,39],[402,2434448870,21]]"
798,1.450000048,1023,51.66279602,4.760717444,11277.6,11369.04,4,"[[436,2417927781,82],[322,2417797406,100],[115,2418299281,47],[394,2418111390,27]]"
806,1.463999987,1675,,,11582.4,,4,"[[440,2432484100,36],[115,2432533703,73],[412,2432598897,23],[463,2432535655,32]]"
822,1.503000021,2645,50.57947191,8.693897144,11277.6,11445.24,4,"[[101,2488585234,27],[440,2488464750,55],[463,2488735230,27],[394,2488912265,53]]"
834,1.519999981,1752,50.78869629,6.216108992,10972.8,11155.68,4,"[[440,2494056275,29],[436,2493792359,112],[394,2493775031,114],[412,2494099947,13]]"
848,1.542999983,320,49.39103983,8.419936331,5143.5,5204.46,5,"[[101,2536961578,69],[440,2536841075,30],[463,2536773405,64],[402,2536773520,17],[115,2537344453,57]]"
854,1.54700017,1613,46.9352417,6.171569824,11887.2,12016.74,4,"[[473,2528901498,46],[477,2529156277,2],[102,2529024078,33],[14,2529261078,88]]"
855,1.549000025,2303,46.10366045,10.53190613,10668,10904.22,4,"[[477,2529413102,9],[10,2529525140,113],[320,2529509750,35],[131,2529724421,101]]"
873,1.572999954,354,51.54952744,5.401611328,11574.78,11681.46,4,"[[322,2558932312,92],[436,2558764156,128],[394,2558942609,94],[115,2559131453,44]]"
877,1.578000069,1043,47.28073379,7.858464168,8001,8214.36,4,"[[477,2550886652,12],[10,2551027984,101],[125,2551817140,86],[14,2550998406,137]]"
880,1.578000069,635,47.39501953,7.59190486,10965.18,11132.82,4,"[[477,2561503877,0],[10,2561643890,78],[320,2561647546,85],[14,2561625109,79]]"
892,1.597000122,2617,49.22520447,10.1477755,10660.38,10904.22,6,"[[254,2585126390,29],[101,2585361859,25],[440,2585241350,42],[320,2585648703,79],[125,2585314515,114],[123,2585494593,77]]"
894,1.59800005,1826,50.293396,7.592636911,11285.22,11452.86,6,"[[101,2587299921,19],[440,2587179375,35],[394,2587480406,125],[463,2587253205,38],[13,2587786703,32],[115,2587314734,83]]"
895,1.606000185,1635,46.80403887,9.086585999,12192,12359.64,4,"[[447,2577651734,79],[320,2577670531,106],[14,2577656671,89],[10,2577688750,122]]"
900,1.608999968,1749,50.28428417,6.017315839,10972.8,11109.96,4,"[[436,2588700281,74],[394,2588695734,100],[238,2588886750,19],[13,2588687593,69]]"
912,1.633000135,175,50.85110422,5.654830933,10988.04,11178.54,5,"[[436,2603760484,89],[322,2604074484,67],[394,2603850421,116],[13,2603797234,63],[115,2603968562,98]]"
913,1.633000135,2415,,,11269.98,,4,"[[436,2616654906,60],[322,2617023765,3],[115,2616532015,59],[13,2616692406,65]]"
916,1.647000074,203,47.24819377,8.537715032,5052.06,5181.6,5,"[[447,2630690671,95],[320,2630641890,102],[477,2630524152,1],[14,2630609375,120],[10,2630657140,144]]"
956,1.728000164,1518,49.56807799,5.763887972,10058.4,10256.52,4,"[[320,2700627750,47],[436,2700198812,129],[412,2699876847,32],[115,2700173312,69]]"
959,1.755000114,2212,47.36015191,12.91337233,10637.52,10881.36,4,"[[124,2742193906,49],[125,2741792281,92],[131,2741623328,117],[114,2741902765,68]]"
961,1.755000114,2364,46.41127764,7.565185547,11582.4,11742.42,6,"[[14,2746419250,110],[473,2746036598,50],[102,2746269203,44],[113,2746780343,51],[112,2746213750,106],[206,2746347718,114]]"
962,1.756999969,2712,46.41272076,6.263923645,10660.38,10820.4,4,"[[473,2747341973,41],[14,2747751328,82],[112,2747248437,136],[206,2747750250,53]]"
974,1.781000137,1787,49.52220154,7.807014867,6400.8,6537.96,4,"[[463,2729814255,48],[412,2729877622,0],[424,2729819297,51],[402,2729814170,22]]"
977,1.784000158,1716,50.93187235,8.369522095,11582.4,11795.76,6,"[[436,2773994843,99],[101,2773727234,39],[440,2773606700,46],[394,2773807703,91],[115,2773636843,73],[13,2774261734,27]]"
978,1.784000158,1716,50.93187235,8.369522095,11582.4,11788.14,6,"[[436,2773994843,99],[101,2773727234,39],[440,2773606700,46],[394,2773807703,91],[115,2773636843,73],[13,2774261734,27]]"
979,1.789000034,168,48.09167377,7.015404334,9448.8,9616.44,4,"[[473,2774959823,26],[102,2774974109,24],[477,2774912277,26],[402,2774984120,47]]"
981,1.791000128,1808,51.39799991,6.138763428,10675.62,10797.54,4,"[[322,2768143000,73],[394,2767796406,113],[238,2767994375,53],[13,2768047781,69]]"
983,1.799000025,280,51.17799403,7.971725464,11582.4,11727.18,4,"[[394,2759785968,90],[238,2759631296,107],[463,2760000055,31],[115,2759656671,90]]"
984,1.799000025,1283,49.82785034,5.404478374,9753.6,9906,4,"[[440,2769965850,26],[412,2769790422,0],[424,2769808472,31],[13,2769764109,77]]"
994,1.827000141,1912,50.67527642,8.111038208,3810,3901.44,4,"[[440,2806138475,30],[463,2806346730,7],[101,2806258968,29],[115,2806212843,34]]"
998,1.83100009,1623,48.93319857,10.2718554,8252.46,8420.1,4,"[[254,2813234875,87],[320,2813679953,79],[123,2813492125,66],[125,2813328625,37]]"
1012,1.86500001,2465,,,11277.6,,5,"[[447,2852713906,95],[14,2852640500,84],[320,2852652031,124],[10,2852660734,120],[477,2852527677,0]]"
1013,1.86500001,2465,,,11277.6,,5,"[[447,2852713906,95],[14,2852640500,84],[320,2852652031,124],[10,2852660734,120],[477,2852527677,0]]"
1014,1.866000175,2373,48.58773442,9.678449129,11879.58,12100.56,5,"[[254,2845562484,64],[320,2845921015,109],[463,2845856605,50],[10,2845905046,110],[123,2845819296,47]]"
1018,1.881000042,1300,49.73315223,10.19590636,10668,10896.6,4,"[[440,2846321375,14],[125,2846611718,49],[123,2846839828,59],[248,2846204625,68]]"
1020,1.881000042,1023,51.66362698,4.761962891,11277.6,11369.04,4,"[[322,2867940484,118],[436,2868070562,71],[115,2868442187,66],[13,2868080531,66]]"
1021,1.883000135,2610,48.44448853,9.04491718,10668,10835.64,7,"[[254,2862117875,80],[320,2862366171,81],[10,2862347578,123],[463,2862330055,51],[125,2862548031,90],[123,2862409203,120],[294,2862062109,51]]"
1022,1.884000063,2359,47.81048584,9.301368713,10835.64,10980.42,5,"[[320,2867841468,114],[10,2867829578,121],[463,2868212805,34],[125,2868181968,79],[123,2867872906,94]]"
1024,1.88499999,414,50.24771118,6.057008442,11277.6,11468.1,6,"[[436,2861064671,76],[238,2861241406,21],[412,2861050847,9],[394,2861054656,83],[115,2861056046,92],[13,2861053312,55]]"
1027,1.886000156,1082,51.13796997,6.925098316,10668,10812.78,4,"[[436,2868205796,106],[322,2868646937,87],[238,2868157046,64],[115,2868080796,48]]"
1028,1.886000156,646,50.87172686,4.3019104,11269.98,11437.62,5,"[[436,2869889281,57],[322,2869837453,74],[394,2870052421,54],[115,2870194843,79],[13,2869574437,133]]"
1042,1.910000086,2443,50.34484863,6.538127177,7924.8,8100.06,5,"[[436,2878814140,95],[322,2879200734,29],[394,2878749453,95],[115,2878706953,57],[13,2878892359,61]]"
1046,1.912000179,1467,48.88023376,8.543349046,7307.58,7467.6,7,"[[101,2894539031,26],[320,2894673234,66],[440,2894418500,9],[10,2894653156,93],[402,2894285795,47],[463,2894285705,28],[125,2894851000,58]]"
1055,1.933000088,992,46.32115251,10.86479187,10355.58,10530.84,4,"[[320,2915606546,53],[125,2915698421,95],[130,2915705578,76],[131,2915695500,96]]"
1073,1.960999966,2001,52.13734255,7.062011719,8915.4,9090.66,4,"[[436,2938735671,106],[394,2938679390,77],[322,2939014093,43],[238,2938607546,81]]"
1074,1.968000174,1594,49.03486866,10.68138524,10668,10858.5,4,"[[320,2949810265,83],[254,2949376953,55],[125,2949321656,88],[123,2949578609,67]]"
1086,1.985000134,2555,48.06025101,11.10492413,10980.42,11140.44,5,"[[320,2965717984,66],[254,2965613156,35],[125,2965195937,90],[123,2965337000,105],[131,2965332015,134]]"
1098,2,207,47.06135559,8.100906372,10668,10896.6,5,"[[477,2994335627,0],[14,2994422125,103],[10,2994475828,149],[206,2994654828,49],[473,2994340523,32]]"
1127,2.051000118,2415,,,11269.98,,5,"[[101,3041633234,30],[320,3042310359,32],[424,3041430322,18],[440,3041512800,38],[412,3041441320,29]]"
1129,2.052000046,2023,51.81003377,7.61680603,11582.4,11711.94,4,"[[238,3029324500,108],[394,3029502421,116],[115,3029530656,86],[440,3029764550,24]]"
1136,2.055999994,429,49.93547058,7.206814415,7010.4,7178.04,4,"[[320,3031561187,30],[440,3030727125,52],[412,3030676495,26],[463,3030626678,26]]"
1143,2.062999964,1058,51.79083252,7.513906118,8709.66,8877.3,4,"[[394,3034722109,90],[436,3034852250,122],[238,3034558656,109],[13,3035184125,72]]"
1145,2.06400013,1752,50.78910828,6.214253194,10972.8,11155.68,6,"[[436,3043820984,111],[322,3044219234,61],[238,3044015140,52],[394,3043804015,100],[115,3043875265,68],[13,3043961796,82]]"
1167,2.105000019,481,50.53308105,8.395650763,10660.38,10828.02,4,"[[101,3093587093,51],[440,3093466900,8],[463,3093711578,15],[412,3093783145,45]]"
1172,2.114000082,1749,50.28497314,6.015737433,10972.8,11109.96,4,"[[436,3088627609,79],[115,3088632578,89],[394,3088623203,103],[13,3088614828,31]]"
1173,2.11500001,203,47.24898516,8.53715163,5052.06,5181.6,4,"[[447,3110707453,115],[320,3110658375,109],[477,3110540577,23],[10,3110673546,137]]"
1175,2.117000103,2253,47.33670044,8.697120667,8519.16,8702.04,4,"[[14,3104202921,88],[320,3104173109,72],[125,3104934500,89],[10,3104181921,111]]"
1176,2.124000072,1635,46.80505371,9.086698206,12192,12359.64,6,"[[447,3116543312,110],[14,3116548093,109],[477,3116462227,4],[320,3116561937,119],[10,3116580171,133],[125,3117163109,79]]"
1177,2.124000072,1047,47.79886019,8.197983962,3939.54,4069.08,4,"[[447,3119561671,112],[477,3119336277,0],[320,3119478546,115],[10,3119460531,96]]"
1179,2.128000021,635,47.39543152,7.590042114,10965.18,11132.82,5,"[[320,3111343187,112],[102,3111200781,33],[14,3111320765,118],[477,3111199552,9],[10,3111339515,86]]"
1181,2.131999969,2124,50.89816853,8.732833862,10972.8,11140.44,4,"[[101,3115097093,42],[463,3115239253,34],[440,3114976650,68],[115,3115100171,76]]"
1190,2.162000179,1596,49.02076721,6.942795974,7490.46,7627.62,4,"[[424,3133083972,20],[440,3133369575,57],[463,3133084478,43],[412,3133025720,0]]"
1194,2.167999983,1691,48.97961115,9.641008879,10751.82,11010.9,6,"[[10,3152358906,77],[254,3151843281,109],[320,3152376375,64],[125,3152227375,56],[123,3152288640,47],[463,3152108053,75]]"
1203,2.186000109,2580,49.88676453,9.487272564,10660.38,10820.4,4,"[[101,3167377265,62],[125,3167872562,52],[440,3167256725,60],[123,3168030968,54]]"
1211,2.203999996,1260,48.93864519,9.143732974,10972.8,11140.44,5,"[[254,3188385843,77],[10,3188931140,109],[463,3188629603,62],[123,3188945937,48],[294,3188495812,55]]"
1212,2.207000017,840,46.38199628,9.455795288,8153.4,8298.18,5,"[[14,3199039984,76],[10,3199073437,127],[320,3199055234,66],[206,3198826000,99],[477,3198955752,0]]"
1213,2.212000132,1808,51.39758094,6.139907837,10675.62,10797.54,4,"[[394,3188494484,176],[436,3188421843,96],[322,3188841796,105],[238,3188692546,73]]"
1230,2.25999999,1659,46.60670471,6.798795374,10645.14,10812.78,5,"[[14,3249778046,107],[473,3249371172,37],[102,3249549562,37],[112,3249334703,53],[206,3249809812,81]]"
1234,2.26699996,862,48.97211624,3.496615761,10972.8,11109.96,4,"[[436,3252789062,80],[412,3252626795,8],[314,3252065343,72],[13,3252497625,63]]"
1248,2.295000076,581,49.54779053,10.43267501,10972.8,11201.4,4,"[[440,3279104775,32],[320,3279650828,65],[248,3278840937,97],[123,3279478343,44]]"
1253,2.309000015,2751,49.43339539,8.028765227,5608.32,5715,4,"[[440,3281853100,60],[101,3281973593,40],[463,3281682228,21],[412,3281716495,0]]"
1263,2.32400012,2022,45.9776901,8.618911743,11277.6,11445.24,5,"[[14,3311232937,79],[477,3311160027,11],[113,3311206421,86],[10,3311288750,106],[206,3310858625,145]]"
1266,2.337000132,2712,46.4115104,6.26385498,10660.38,10820.4,4,"[[14,3328241312,65],[473,3327831847,41],[112,3327738265,123],[206,3328239906,70]]"
1267,2.343000174,1173,50.614151,6.075656289,11894.82,12016.74,5,"[[436,3319792531,97],[322,3320156218,91],[238,3319999328,44],[115,3319842734,94],[13,3319858687,75]]"
1270,2.34800005,2149,49.9593961,9.452176481,10972.8,11148.06,4,"[[101,3310367937,40],[440,3310247450,40],[412,3310523795,42],[123,3311064000,33]]"
1280,2.361999989,2037,49.04017639,10.05868765,11277.6,11460.48,4,"[[254,3342740015,79],[320,3343236125,103],[125,3342945921,67],[123,3343085781,90]]"
1293,2.383000135,2359,47.8104517,9.299785907,10835.64,10988.04,4,"[[10,3372524156,157],[320,3372536109,116],[125,3372877281,80],[123,3372568171,74]]"
1296,2.393000126,1082,51.13755798,6.926137563,10668,10812.78,4,"[[436,3378386906,88],[238,3378337640,108],[394,3378209218,125],[115,3378261156,96]]"
1304,2.401000023,2319,49.29872674,9.07000893,11887.2,12062.46,5,"[[320,3370485687,40],[125,3370436984,127],[463,3369973828,40],[123,3370480250,55],[254,3369910140,33]]"
1306,2.404000044,630,47.61716681,6.651024452,11277.6,11445.24,4,"[[14,3397009953,61],[473,3396794797,48],[10,3397021656,44],[477,3396883302,9]]"
1316,2.416000128,1336,46.8160959,6.744094849,10972.8,11140.44,5,"[[473,3406648947,37],[14,3407029593,114],[10,3407073687,60],[206,3407120203,49],[477,3406931827,0]]"
1317,2.417000055,1446,47.49032593,8.325714111,11277.6,11437.62,4,"[[14,3401091687,115],[10,3401073437,143],[320,3401084578,130],[477,3400941102,2]]"
1333,2.437999964,2373,48.5868988,9.679588905,11871.96,12092.94,4,"[[125,3415807562,63],[463,3415820103,49],[123,3415782015,67],[254,3415525953,139]]"
1341,2.453999996,1226,48.80461121,6.252065805,10363.2,10530.84,4,"[[10,3431844265,83],[440,3431646900,51],[424,3431368247,7],[412,3431311495,24]]"
1342,2.453999996,2610,48.44360869,9.046012477,10668,10835.64,4,"[[10,3432844515,96],[320,3432863062,93],[254,3432615234,50],[123,3432905984,96]]"
1359,2.491000175,1675,,,11582.4,,4,"[[424,3467452747,12],[440,3467381625,13],[238,3467635156,33],[394,3467581390,112]]"
1360,2.492000103,1739,51.20569261,8.145828247,10972.8,11125.2,4,"[[440,3470117700,36],[436,3470327734,95],[238,3469967843,54],[394,3470142203,84]]"
1368,2.506000042,1043,47.27998352,7.856185913,7993.38,8206.74,6,"[[473,3501019972,24],[320,3501137765,96],[14,3501108531,147],[10,3501138140,141],[477,3500996852,0],[125,3501927500,67]]"
1383,2.522000074,1575,50.45643435,7.131760056,11277.6,11445.24,5,"[[238,3496961046,32],[463,3496832578,20],[394,3496874265,95],[412,3496890995,32],[115,3496751359,65]]"
1394,2.546000004,1494,47.14045715,8.472999573,10972.8,11132.82,5,"[[14,3529503515,157],[320,3529543171,116],[10,3529558656,167],[477,3529424977,0],[206,3529807875,71]]"
1403,2.55700016,1826,50.29284668,7.595600329,11285.22,11452.86,5,"[[463,3547667728,36],[440,3547593375,39],[394,3547895671,130],[125,3548663062,75],[115,3547729906,70]]"
1412,2.584000111,547,46.71689308,10.1856308,10660.38,10843.26,6,"[[10,3565570656,101],[477,3565462627,4],[320,3565558250,81],[125,3565794156,24],[131,3565849906,57],[123,3565398203,55]]"
1416,2.585000038,869,50.78063965,5.172185125,10965.18,11140.44,4,"[[322,3568503859,70],[436,3568314546,106],[394,3568439390,138],[13,3568167765,85]]"
1437,2.614000082,1613,46.93303512,6.171217698,11887.2,12016.74,5,"[[14,3599722093,89],[477,3599617327,2],[473,3599362197,59],[206,3599835468,46],[102,3599485015,31]]"
1438,2.616000175,1749,50.28538513,6.014725535,10972.8,11109.96,4,"[[322,3598954343,56],[394,3598621578,90],[115,3598631140,79],[13,3598612796,52]]"
1442,2.626000166,203,47.24986965,8.536517803,5044.44,5166.36,5,"[[447,3620790187,130],[14,3620708593,85],[320,3620740859,111],[10,3620756000,139],[477,3620622827,3]]"
1443,2.631000042,2303,46.10229492,10.5297926,10668,10904.22,5,"[[113,3609044578,81],[10,3609508390,113],[130,3609673046,68],[125,3609698718,104],[131,3609708468,106]]"
1448,2.644999981,280,51.17738885,7.969360352,11582.4,11727.18,4,"[[238,3619172562,83],[394,3619326796,80],[115,3619197500,81],[463,3619541178,39]]"
1449,2.646000147,1692,51.75165726,1.457214355,10363.2,10416.54,4,"[[322,3609161453,92],[191,3609258937,57],[199,3608996765,50],[13,3609362812,23]]"
1452,2.652000189,635,47.39585747,7.588172326,10965.18,11132.82,4,"[[14,3641622390,72],[473,3641493047,42],[320,3641644796,65],[477,3641501127,0]]"
1473,2.707000017,805,47.67434692,10.1335144,9144,9372.6,4,"[[125,3683530656,120],[320,3683503250,82],[10,3683499875,115],[123,3683183812,112]]"
1481,2.729000092,2717,47.09284896,11.66860727,11277.6,11529.06,4,"[[10,3704105531,96],[130,3704074656,74],[125,3703804640,105],[131,3703757296,93]]"
1489,2.743000031,2022,45.97685216,8.618980408,11277.6,11445.24,5,"[[14,3731799468,32],[473,3731598372,17],[206,3731425046,73],[477,3731726502,12],[10,3731855171,81]]"
1491,2.745000124,2617,49.22368454,10.15006617,10660.38,10904.22,4,"[[10,3725630359,36],[320,3725646765,76],[125,3725312000,115],[123,3725492218,72]]"
1494,2.762000084,646,50.87127686,4.304710594,11269.98,11437.62,4,"[[436,3739897937,126],[394,3740060937,50],[115,3740203390,68],[13,3739582968,135]]"
1495,2.762000084,1283,49.82648946,5.406758076,9753.6,9906,5,"[[436,3740271703,55],[394,3740304000,59],[424,3740161922,28],[115,3740316906,68],[13,3740118859,96]]"
1496,2.769000053,2364,46.41297913,7.566699516,11582.4,11742.42,7,"[[112,3756065515,104],[14,3756269953,113],[102,3756120015,45],[477,3756191052,0],[473,3755887372,43],[10,3756329984,115],[206,3756198859,92]]"
1507,2.791000128,962,49.3938446,10.24158184,11277.6,11475.72,4,"[[248,3770014125,20],[254,3770163828,33],[10,3770683453,42],[320,3770699968,45]]"
1513,2.800000191,2359,47.81040515,9.298518254,10843.26,10988.04,4,"[[320,3782581281,103],[125,3782924656,74],[10,3782569375,144],[123,3782613859,101]]"
1516,2.811000109,1467,48.87822038,8.54317113,7307.58,7475.22,4,"[[101,3800041437,27],[440,3799920925,36],[10,3800154234,94],[463,3799787903,65]]"
1519,2.812999964,1173,50.61392212,6.077246415,11894.82,12016.74,5,"[[436,3800054609,124],[322,3800418468,93],[394,3800054640,108],[238,3800261078,41],[115,3800104343,45]]"
1528,2.847000122,585,49.30030952,9.197363602,10965.18,11201.4,5,"[[254,3834793328,23],[463,3834887828,36],[320,3835376593,30],[10,3835357390,73],[123,3835353937,44]]"
1533,2.85800004,2212,47.35862732,12.91552734,10637.52,10888.98,4,"[[124,3842388078,45],[125,3841987546,80],[131,3841818562,116],[114,3842096468,64]]"
1535,2.861000061,2465,,,11277.6,,5,"[[477,3855135702,0],[320,3855259765,128],[14,3855247703,86],[10,3855268656,125],[447,3855320875,106]]"
1536,2.863000154,2326,49.9730072,9.930628726,10363.2,10599.42,5,"[[248,3843615531,34],[320,3844352859,74],[440,3843554275,51],[125,3844033390,76],[123,3844245140,33]]"
1541,2.868000031,168,48.09088238,7.018221342,9448.8,9616.44,4,"[[477,3849917677,15],[473,3849965572,49],[320,3850063406,100],[10,3850049875,75]]"
1548,2.881999969,2373,48.58625793,9.680574857,11879.58,12100.56,5,"[[254,3865784390,53],[463,3866078503,23],[320,3866141937,107],[10,3866125953,114],[123,3866039765,52]]"
1549,2.88499999,2712,46.41036987,6.263211878,10660.38,10820.4,4,"[[14,3868437531,74],[112,3867934359,138],[473,3868027972,43],[206,3868435859,52]]"
1556,2.899000168,332,48.67547607,9.368309608,7604.76,7818.12,4,"[[254,3886400203,132],[320,3886830187,81],[10,3886812359,91],[123,3886792359,104]]"
1561,2.906000137,2610,48.44300351,9.046735262,10668,10835.64,7,"[[320,3892845875,89],[10,3892827281,120],[254,3892598437,69],[125,3893027687,104],[123,3892888593,115],[294,3892542890,45],[115,3893438203,31]]"
1565,2.914000034,1752,50.78960871,6.211776733,10972.8,11155.68,4,"[[436,3893803109,116],[394,3893786687,101],[238,3893997921,47],[115,3893858390,61]]"
1570,2.923000097,992,46.32175769,10.86170197,10355.58,10530.84,4,"[[320,3900612593,51],[10,3900625625,97],[131,3900702375,105],[125,3900705156,94]]"
1589,2.952000141,1594,49.03353882,10.683359,10668,10858.5,5,"[[254,3939730718,46],[320,3940163562,76],[125,3939674390,87],[440,3939888750,33],[123,3939931500,84]]"
1595,2.96600008,2432,49.82351012,6.067273939,9456.42,9608.82,6,"[[436,3945963375,62],[412,3945698845,35],[424,3945710347,38],[394,3945945015,86],[440,3945863625,26],[115,3945912343,37]]"
1606,2.989000082,1058,51.79257668,7.51625061,8702.04,8862.06,4,"[[394,3964713562,90],[436,3964843640,152],[238,3964549812,130],[13,3965175500,71]]"
1611,2.993000031,1226,48.80583165,6.251148425,10363.2,10530.84,4,"[[440,3982225075,48],[10,3982422921,55],[412,3981889745,31],[320,3982438640,39]]"
1617,3.006000042,296,50.45585632,7.429143002,10668,10812.78,6,"[[101,3994946687,49],[394,3994993500,146],[440,3994826250,43],[238,3995037296,53],[424,3994922497,14],[115,3994834109,91]]"
1618,3.006000042,2580,49.88579702,9.489218222,10660.38,10820.4,4,"[[101,3997629250,55],[440,3997508675,11],[123,3998281859,67],[412,3997766320,53]]"
1627,3.031000137,2253,47.3381327,8.698988694,8511.54,8694.42,6,"[[14,4014592968,66],[320,4014562718,77],[447,4014681781,73],[10,4014571171,124],[477,4014459452,15],[125,4015323218,82]]"
1629,3.032999992,1575,50.45622253,7.133813155,11277.6,11445.24,7,"[[101,4021931062,27],[440,4021810550,49],[394,4021886218,88],[238,4021972671,58],[463,4021843953,23],[412,4021902495,23],[115,4021763000,82]]"
1635,3.041000128,414,50.24685617,6.060741528,11277.6,11468.1,5,"[[436,4011083734,97],[412,4011068770,9],[394,4011073265,97],[115,4011074328,67],[13,5011072859,69]]"
1636,3.041000128,2769,50.99662651,7.785644531,10668,10858.5,4,"[[436,4012013703,101],[394,4011827593,107],[238,4011742640,38],[115,4011661765,88]]"
1647,3.05700016,2146,48.6061691,9.459445351,8846.82,9090.66,5,"[[254,4046057718,141],[320,4046439140,98],[10,4046421937,124],[125,4046434968,82],[115,4046931328,47]]"
1649,3.060000181,481,50.53198863,8.398453996,10660.38,10828.02,5,"[[101,4053766125,54],[440,4053645775,22],[394,4054064859,49],[463,4053890978,0],[115,4053873015,85]]"
1662,3.092000008,280,51.17692566,7.967537545,11582.4,11727.18,4,"[[436,4080216203,102],[322,4080647625,24],[463,4080244603,26],[238,4079876062,82]]"
1671,3.10800004,635,47.39618334,7.586834247,10965.18,11132.82,6,"[[473,4091347122,39],[14,4091476718,122],[320,4091499140,114],[10,4091495390,121],[477,4091355477,0],[412,4091812420,37]]"
1675,3.114000082,1826,50.29252625,7.597190455,11285.22,11452.86,4,"[[440,4087994375,33],[463,4088068853,47],[394,4088297328,108],[13,4088603953,30]]"
1678,3.114000082,581,49.5464312,10.4309247,10972.8,11201.4,4,"[[440,4099499950,33],[248,4099236640,100],[463,4099658453,24],[123,4099873203,41]]"
1681,3.118999958,7,51.5705225,7.987594604,10683.24,10866.12,4,"[[463,4092315628,66],[394,4091981062,43],[238,4091754750,116],[115,4091933078,70]]"
1688,3.131000042,2554,47.80718994,11.75447845,10972.8,11170.92,4,"[[254,4105261359,26],[130,4105442812,68],[131,4104692437,111],[125,4104727656,106]]"
1690,3.143000126,2415,,,11269.98,,5,"[[101,4126647906,41],[436,4126677265,94],[394,4126616265,103],[424,4126444522,27],[412,4126455445,27]]"
1691,3.143000126,1260,48.93988037,9.141117976,10972.8,11140.44,6,"[[101,4128815046,23],[320,4128978250,64],[254,4128414000,92],[463,4128656703,51],[123,4128974375,56],[294,4128523609,63]]"
1698,3.149000168,1808,51.39656067,6.142767829,10675.62,10797.54,4,"[[436,4127889234,78],[238,4128159046,88],[394,4127960843,170],[13,4128213781,51]]"
1709,3.167999983,320,49.3882467,8.418852154,5173.98,5227.32,4,"[[254,4151823765,31],[101,4151809421,30],[440,4151688950,25],[463,4151620128,57]]"
1710,3.170000076,1596,49.01885469,6.942419755,7498.08,7627.62,5,"[[440,4143199150,38],[412,4142855170,3],[463,4142914028,51],[477,4143393102,0],[424,4142913472,12]]"
1712,3.171000004,2100,50.50796767,4.806295859,9959.34,10096.5,4,"[[394,4128313468,66],[115,4128415875,63],[412,4128483420,27],[13,4127931921,85]]"
1720,3.186000109,2364,46.41366577,7.567369415,11582.4,11742.42,5,"[[14,4166363765,88],[477,4166284827,44],[473,4165981222,46],[206,4166292875,93],[112,4166159671,75]]"
1724,3.194000006,1749,50.28605316,6.01315885,10972.8,11109.96,6,"[[412,4168815445,16],[320,4169669984,17],[322,4169125046,38],[394,4168792593,85],[115,4168802343,89],[13,4168783500,32]]"
1727,3.197999954,1691,48.98179911,9.641008879,10728.96,10988.04,4,"[[10,4182324484,39],[254,4181808281,104],[320,4182341875,66],[123,4182254156,36]]"
1731,3.203999996,1787,49.52110291,7.809906006,6400.8,6537.96,5,"[[320,4183249078,48],[440,4182551100,65],[463,4182334553,45],[412,4182397545,59],[115,4182953625,52]]"
1733,3.213999987,1635,46.80729753,9.086860657,12192,12359.64,4,"[[14,4206628718,116],[320,4206642453,119],[447,4206624234,88],[10,4206660656,140]]"
1737,3.223999977,1728,45.4919175,11.9511823,10668,10904.22,4,"[[131,4196922062,70],[114,4196608609,28],[130,4196397406,75],[125,4196995656,80]]"
1740,3.229000092,840,46.38381958,9.454472239,8161.02,8305.8,6,"[[14,4219138328,81],[320,4219153593,91],[10,4219171781,116],[477,4219054127,1],[130,4219879140,49],[206,4218925093,82]]"
1748,3.254000187,2751,49.43484549,8.026774638,5600.7,5707.38,4,"[[463,4212270928,21],[440,4212442050,49],[412,4212305570,33],[101,4212562515,40]]"
1753,3.269999981,77,49.79455463,9.037219898,7315.2,7505.7,4,"[[125,4251652062,67],[412,4251128720,32],[440,4250897625,43],[101,4251018109,35]]"
1756,3.282000065,1336,46.81688729,6.742446899,10972.8,11140.44,5,"[[477,4275373827,10],[14,4275471656,121],[473,4275091197,51],[206,4275562515,88],[10,4275515750,90]]"
1762,3.286000013,1082,51.13637633,6.929168701,10668,10812.78,4,"[[436,4268329750,93],[238,4268279578,126],[394,4268151937,180],[115,4268202640,90]]"
1764,3.289000034,2359,47.81034851,9.296974182,10843.26,10988.04,5,"[[10,4262517296,137],[125,4262873281,50],[320,4262529265,123],[123,4262562437,92],[129,4262667812,76]]"
1770,3.296000004,2022,45.97634008,8.618980408,11277.6,11445.24,5,"[[14,4281759828,53],[206,4281385375,132],[10,4281815609,62],[477,4281686902,23],[113,4281732265,95]]"
1778,3.309000015,2373,48.58568612,9.681484825,11879.58,12100.56,6,"[[320,4287628171,78],[463,4287565103,16],[10,4287612218,92],[254,4287270953,138],[123,4287525796,59],[125,4287551359,109]]"
1780,3.311000109,1568,49.10801697,9.657475398,12184.38,12412.98,7,"[[440,4292756175,35],[10,4293110171,67],[254,4292573390,69],[320,4293127843,34],[463,4292801828,29],[123,4293039203,110],[125,4292952531,77]]"
1782,3.318000078,1659,46.60456253,6.797241211,10645.14,10805.16,5,"[[14,4309812031,85],[473,4309405022,25],[112,4309367515,68],[102,4309583625,35],[206,4309843265,74]]"
1784,3.328999996,2037,49.0388256,10.05668239,11277.6,11460.48,4,"[[254,4302716968,110],[440,4302906475,28],[123,4303062875,86],[125,4302923578,113]]"
1785,3.330000162,1446,47.48905505,8.327918419,11277.6,11437.62,6,"[[14,4321249140,118],[447,4321312078,124],[320,4321241937,141],[10,4321230875,157],[477,4321098452,0],[129,4321312109,112]]"
1787,3.337000132,621,51.41908807,4.391403198,7749.54,7818.12,4,"[[436,4317282656,111],[322,4317097687,117],[115,4317646375,45],[13,4317150843,82]]"
1792,3.355000019,2149,49.96170044,9.452940288,10972.8,11148.06,4,"[[440,4324330175,59],[463,4324556103,18],[412,4324606995,22],[123,4325147375,25]]"
1805,3.38499999,207,47.05844685,8.102698693,10668,10896.6,4,"[[14,4367466062,88],[477,4367379777,25],[10,4367519906,148],[129,4367398859,38]]"
1806,3.38499999,207,47.05844685,8.102698693,10668,10904.22,4,"[[14,4367466062,88],[477,4367379777,25],[10,4367519906,148],[129,4367398859,38]]"
1810,3.394000053,1902,46.33351135,11.1599657,10660.38,10866.12,5,"[[320,4378661031,56],[113,4378294609,68],[131,4378654078,71],[10,4378673078,52],[125,4378675812,62]]"
1816,3.398000002,1643,50.04373169,5.92726858,10828.02,11010.9,6,"[[101,4388996140,23],[440,4388875725,55],[394,4388863640,90],[412,4388755645,27],[115,4388857703,59],[424,4388759447,29]]"
1822,3.407000065,2712,46.40927124,6.263211878,10660.38,10820.4,4,"[[473,4398370447,41],[14,4398780015,71],[112,4398276765,125],[206,4398778187,45]]"
1825,3.412000179,2199,46.94558716,8.188659668,10972.8,11140.44,6,"[[14,4390712781,118],[477,4390634427,5],[10,4390772312,169],[125,4391546437,67],[206,4390886093,60],[129,4390626578,84]]"
1827,3.412000179,585,49.30169678,9.197739821,10965.18,11201.4,4,"[[101,4404866859,28],[254,4404695546,83],[463,4404789553,69],[10,4405259671,115]]"
1832,3.429000139,2210,47.5756073,9.934181213,8534.4,8717.28,5,"[[320,4406660937,40],[254,4406846562,27],[10,4406658859,76],[125,4406805828,86],[129,4406777171,50]]"
1841,3.43900013,1142,47.52778651,9.261404184,4777.74,4884.42,4,"[[10,4414252921,115],[320,4414257359,97],[447,4414385812,144],[129,4414385750,102]]"
1842,3.43900013,1142,47.52778651,9.261404184,4777.74,4876.8,4,"[[10,4414252921,115],[320,4414257359,97],[447,4414385812,144],[129,4414385750,102]]"
1848,3.447000027,1494,47.1415426,8.470388559,10972.8,11132.82,6,"[[14,4439779375,124],[320,4439819015,93],[10,4439834515,106],[125,4440604500,66],[206,4440084296,57],[129,4439788796,82]]"
1849,3.457000017,2769,50.99616099,7.786636353,10668,10858.5,4,"[[440,4424144050,39],[115,4423983750,75],[463,4424320953,26],[238,4424064593,79]]"
1853,3.463000059,1196,49.28280588,7.964437384,10668,10873.74,6,"[[463,4434466378,37],[394,4435275031,31],[440,4434677725,33],[424,4434446197,0],[129,4435324640,34],[115,4435117781,39]]"
1854,3.463000059,492,50.3234346,4.66792751,6629.4,6774.18,4,"[[436,4438686156,84],[394,4438795406,26],[115,4438884750,36],[13,4438411562,48]]"
1855,3.463999987,2443,50.34819031,6.538816753,7901.94,8077.2,5,"[[436,4443823734,95],[440,4443782450,55],[322,4444210640,36],[394,4443758875,106],[115,4443716531,101]]"
1856,3.463999987,470,52.38551253,2.284136091,10972.8,11018.52,4,"[[436,4444401109,57],[199,4444149468,64],[322,4443957796,90],[191,4444286171,48]]"
1861,3.470999956,1594,49.0329895,10.6842041,10668,10858.5,4,"[[254,4459412906,59],[320,4459845500,52],[440,4459571075,4],[123,4459613265,38]]"
1870,3.488000154,2138,51.52760134,5.868377686,10660.38,10835.64,4,"[[436,4455797421,84],[394,4455939656,100],[238,4456122031,55],[13,4456091484,41]]"
1872,3.488000154,2023,51.81129068,7.612228394,11582.4,11711.94,4,"[[436,4460004281,90],[394,4459871890,84],[115,4459900812,93],[238,4459694828,78]]"
1874,3.488000154,2298,51.73899505,2.697296143,10439.4,10523.22,5,"[[436,4474888375,55],[199,4474872734,32],[322,4474469421,79],[191,4475102953,41],[13,4474699734,53]]"
1887,3.513000011,1675,,,11582.4,,5,"[[436,4492847531,78],[440,4492510625,50],[412,4492624620,33],[394,4492709062,141],[115,4492558093,84]]"
1888,3.513000011,2526,46.95167542,7.286613464,7040.88,7200.9,5,"[[102,4496225078,30],[10,4496506375,90],[14,4496461500,92],[477,4496364602,18],[473,4496115097,37]]"
1907,3.544000149,791,,,3268.98,,4,"[[10,4517662406,97],[320,4517669296,53],[477,4517523977,3],[129,4517697656,93]]"
1910,3.544000149,547,46.71596204,10.1877594,10660.38,10843.26,5,"[[10,4525565546,117],[320,4525553140,79],[123,4525392687,57],[131,4525843968,60],[129,4525584796,87]]"
1915,3.558000088,2706,,,10972.8,,5,"[[473,4535074872,33],[10,4535164703,80],[320,4535179984,73],[436,4535358562,76],[412,4534664095,18]]"
1916,3.559000015,914,49.00401306,6.586092435,10668,10820.4,5,"[[10,4537452968,105],[320,4537470281,100],[412,4536821795,13],[424,4536876172,12],[129,4537519671,76]]"
1919,3.56400013,320,49.38736221,8.41856304,5173.98,5234.94,4,"[[101,4556755093,72],[440,4556634550,36],[463,4556565478,19],[115,4557137687,46]]"
1926,3.575000048,1226,48.80703735,6.250234751,10363.2,10530.84,5,"[[10,4551856875,83],[320,4551872578,50],[424,4551379772,46],[412,4551323270,22],[129,4551904109,28]]"
1928,3.575000048,296,50.45559641,7.431137497,10668,10812.78,4,"[[440,4555024850,65],[394,4555192671,86],[238,4555236187,26],[115,4555033078,55]]"
1930,3.578000069,1043,47.27906799,7.853370667,7985.76,8199.12,6,"[[14,4561034765,147],[320,4561064031,99],[447,4561013140,88],[10,4561064390,168],[477,4560923177,0],[129,4561013140,114]]"
1933,3.578999996,805,47.67470538,10.13073261,9136.38,9364.98,4,"[[320,4558491218,79],[10,4558487812,120],[123,4558172734,115],[129,4558610546,60]]"
1934,3.580000162,1260,48.94033813,9.140061599,10972.8,11140.44,4,"[[320,4559324796,55],[10,4559305812,106],[123,4559321125,53],[294,4558869906,40]]"
1935,3.580000162,273,48.38232422,6.525033804,11277.6,11437.62,4,"[[320,4559700062,86],[473,4559584722,255],[477,4559554802,24],[129,4559719000,47]]"
1941,3.585999966,388,51.07731628,4.247774691,11567.16,11727.18,4,"[[322,4568101937,112],[394,4568391390,51],[115,4568548375,59],[13,4567953218,136]]"
1948,3.595000029,2364,46.41435242,7.567972323,11582.4,11742.42,4,"[[102,4586225171,52],[206,4586304406,104],[112,4586171500,96],[473,4585992597,37]]"
1951,3.607000113,67,49.69981384,6.032216925,10957.56,11117.58,5,"[[440,4581440650,34],[394,4581551171,71],[436,4581568171,55],[424,4581265572,23],[412,4581247495,2]]"
1955,3.61500001,1955,50.96450547,8.783416748,8488.68,7528.56,4,"[[436,4601947203,90],[101,4601610718,31],[440,4601490225,38],[394,4601759437,57]]"
1956,3.617000103,175,50.85223389,5.648679991,10988.04,11178.54,4,"[[322,4604091203,54],[394,4603869484,121],[115,4603987968,68],[13,4603813828,116]]"
1959,3.628000021,2146,48.60742601,9.459734465,8854.44,9098.28,4,"[[254,4605959687,100],[10,4606324656,108],[320,4606341859,76],[123,4606286171,40]]"
1962,3.631999969,1228,49.80335999,8.902395148,6088.38,6217.92,4,"[[101,4615996984,25],[440,4615876475,29],[125,4616685296,83],[412,4616108295,11]]"
1964,3.633000135,1635,46.80813547,9.086860657,12192,12359.64,5,"[[320,4616700453,75],[14,4616686765,82],[10,4616718718,121],[447,4616682359,89],[129,4616682359,100]]"
1967,3.644999981,280,51.17660522,7.966349834,11582.4,11727.18,7,"[[101,4639937750,21],[440,4639817200,41],[436,4639987781,99],[412,4640086670,34],[238,4639647890,98],[394,4639801640,100],[115,4639672265,80]]"
1980,3.664999962,7,51.57032776,7.989510201,10683.24,10873.74,4,"[[436,4650485687,67],[238,4650092734,52],[394,4650319062,37],[463,4650653453,9]]"
1985,3.677999973,869,50.77903748,5.169958166,10957.56,11132.82,5,"[[322,4658517265,93],[394,4658453328,133],[436,4658328515,103],[412,4658740920,36],[13,4658180593,113]]"
1986,3.677999973,2100,50.50909424,4.805000707,9951.72,10096.5,5,"[[322,4658755453,83],[394,4658758953,80],[115,4658861484,75],[436,4658641328,69],[13,4658377031,125]]"
1987,3.677999973,2100,50.50909424,4.805000707,9951.72,10088.88,5,"[[322,4658755453,83],[394,4658758953,80],[115,4658861484,75],[436,4658641328,69],[13,4658377031,125]]"
1988,3.684000015,442,49.63837187,6.092883961,9547.86,9715.5,5,"[[394,4655907093,24],[115,4655863187,57],[320,4656352625,59],[412,4655563045,29],[424,4655583697,6]]"
1989,3.684000015,1283,49.82537221,5.408613875,9753.6,9906,6,"[[394,4660291750,69],[115,4660304453,55],[436,4660259625,80],[412,4660130770,28],[424,4660148797,33],[13,4660107062,82]]"
1990,3.687000036,1716,50.93308271,8.363037109,11582.4,11788.14,6,"[[101,4673698750,37],[436,4673964312,114],[440,4673578200,26],[238,4673641343,30],[394,4673777203,82],[115,4673606343,112]]"
1991,3.68900013,2359,47.81034851,9.295669556,10850.88,10995.66,5,"[[320,4667776656,113],[125,4668119453,87],[123,4667810328,77],[129,4667915171,104],[10,4667764656,149]]"
1999,3.710999966,2134,51.90486067,7.326782227,10043.16,10218.42,4,"[[238,4681036546,120],[436,4681259390,75],[394,4681155265,73],[463,4681653928,7]]"
2000,3.713000059,1336,46.81735281,6.741485596,10972.8,11140.44,6,"[[102,4706254218,21],[477,4706393952,8],[206,4706582828,69],[473,4706111472,47],[14,4706491828,84],[10,4706535921,56]]"
2005,3.71600008,1749,50.28671265,6.011545282,10972.8,11109.96,5,"[[436,4698605359,53],[322,4698933687,67],[115,4698611421,91],[394,4698601500,116],[13,4698592062,65]]"
2013,3.731000185,2303,46.10083008,10.52751495,10668,10904.22,4,"[[125,4709707359,94],[477,4709404302,44],[131,4709717218,75],[10,4709516390,112]]"
2014,3.73300004,1787,49.52054816,7.811205065,6400.8,6537.96,4,"[[463,4699726578,22],[412,4699789445,20],[424,4699730872,0],[115,4700345781,38]]"
2032,3.759000063,203,47.25168519,8.535038875,5021.58,5151.12,6,"[[320,4741369281,118],[477,4741250977,0],[447,4741419328,149],[129,4741419406,112],[14,4741337328,118],[10,4741384343,104]]"
2034,3.768000126,2465,,,11277.6,,6,"[[477,4750353777,0],[320,4750477531,124],[447,4750537921,106],[129,4750537875,83],[14,4750465031,56],[10,4750486671,121]]"
2036,3.776000023,2751,49.43540411,8.025958087,5593.08,5707.38,4,"[[101,4762423015,40],[440,4762302575,37],[463,4762131153,28],[412,4762165995,8]]"
2045,3.802999973,2617,49.22227478,10.15221229,10660.38,10904.22,4,"[[101,4795355765,36],[440,4795235200,34],[320,4795640609,76],[125,4795305328,108]]"
2065,3.832000017,1173,50.61405945,6.076379073,11894.82,12016.74,4,"[[322,4810744406,88],[440,4810593825,28],[115,4810428921,91],[394,4810379609,110]]"
2073,3.847000122,1568,49.10860741,9.656042802,12184.38,12412.98,4,"[[440,4832773750,36],[320,4833145593,57],[123,4833057234,109],[10,4833127953,67]]"
2075,3.85800004,2373,48.58489473,9.68264128,11871.96,12092.94,4,"[[254,4846522984,60],[463,4846817103,35],[123,4846777031,60],[129,4847019156,27]]"
2086,3.876000166,1594,49.03244019,10.68497878,10668,10858.5,4,"[[254,4859552468,63],[440,4859710775,23],[125,4859495062,98],[123,4859752500,58]]"
2096,3.89199996,585,49.30282334,9.198086387,10965.18,11201.4,4,"[[123,4850287843,39],[125,4850229750,97],[320,4850310656,32],[10,4850291546,75]]"
2099,3.894000053,492,50.32301563,4.669189453,6629.4,6774.18,5,"[[436,4868699687,98],[394,4868808906,57],[412,4868906695,33],[115,4868898093,68],[13,4868425296,86]]"
