,distance_diff
0,6.655191463288603
1,9.692962847402903
2,15.021075914528014
3,15.470421653859992
4,18.151448839711726
5,21.974108300234466
6,22.205637929141403
7,22.4824202763462
8,23.066747625354353
9,23.580017460460272
10,25.576578949410077
11,34.21050441533089
12,36.68216913919682
13,36.688541587406824
14,37.314220583470345
15,38.01896304455483
16,39.308957366167434
17,39.76282601778021
18,39.968707560139514
19,40.28424983623405
20,41.266156516026044
21,41.48890199807458
22,41.662702647736204
23,41.7134231854917
24,44.39467287445377
25,44.63009577489553
26,45.89808295033499
27,47.10287555265704
28,47.30152653990554
29,47.58246976487571
30,47.66563453383848
31,47.84168209869236
32,47.85797806176888
33,47.879156686228306
34,48.25913542386421
35,49.22739926539005
36,49.861686660721
37,51.768582067564026
38,52.37479017721414
39,53.7988343924205
40,53.862245181384715
41,55.28586353860554
42,55.34060965864418
43,55.69834233522239
44,57.29597126587056
45,57.39460753154919
46,58.132359156019426
47,58.28161616424998
48,58.983947512853014
49,59.00820380178141
50,59.418555523278
51,60.58259764570439
52,61.145339837044844
53,61.50763687173708
54,61.60682166855766
55,63.00146504706526
56,63.690586218987605
57,64.86619783847395
58,64.88729274865749
59,66.03648286195305
60,67.01100502723224
61,67.98644092641739
62,68.27616191980701
63,69.14394472283429
64,69.53287767173154
65,69.6258881389103
66,69.88990469495958
67,70.25790406703959
68,70.72053965528423
69,71.13229110126522
70,71.13229110126522
71,71.82838078586927
72,73.12342215016113
73,74.78423701122271
74,76.02554001061034
75,76.61641207366422
76,76.94315486808807
77,77.39452499987192
78,78.25894214933133
79,79.51498912758818
80,80.73172536543665
81,81.98209219836163
82,83.41044404214374
83,84.84867399162832
84,85.7742138039631
85,85.85487925362727
86,88.62543891119586
87,88.95435501331131
88,89.40323135872413
89,89.71120282323335
90,90.20186185649915
91,90.65886664656175
92,90.74522369105415
93,93.09133755258506
94,93.2052186802045
95,93.48906574129184
96,93.56615865551213
97,93.61532606833264
98,93.74090121195304
99,94.37229813614786
100,94.40350873999367
101,95.53821320753669
102,95.96948976381464
103,96.160080991148
104,96.35697432829707
105,97.18296929368653
106,97.30419099799198
107,97.35477220960304
108,97.4242901928901
109,97.4886117972163
110,97.52605579062221
111,97.61649606199786
112,98.0381739747985
113,98.06856978039582
114,98.2492902562656
115,98.39240714397924
116,98.48206794614178
117,98.56183384705464
118,99.31400118322344
119,99.67370372247078
120,99.78977242398241
121,100.11800424422937
122,101.66368023280528
123,102.08382903868704
124,102.16582090177639
125,102.27247095263436
126,102.45499850832024
127,102.90117727402414
128,103.02738359743498
129,103.07597970886377
130,103.1685785601691
131,105.07939989406619
132,105.20315333083092
133,105.50825283753406
134,105.54247489116793
135,107.69727669946829
136,108.0865443080888
137,108.23529236950081
138,108.94002142506147
139,109.04436628750894
140,109.50152034630426
141,109.83486501016023
142,110.97287665414795
143,112.14559753793479
144,112.2414370582945
145,112.6730670664133
146,112.73465514515867
147,112.93930129147091
148,112.94462493436855
149,112.98989161754734
150,113.10550672343625
151,113.19797710726971
152,113.61574642895641
153,113.921421575923
154,114.20481654066448
155,114.2288639899305
156,114.32165806018735
157,114.38048249993945
158,114.97563667099546
159,114.99161539518435
160,115.46956170979844
161,116.56654924317216
162,117.67324421668911
163,117.96071662128949
164,118.00689436480195
165,118.06814947890763
166,118.10199943490228
167,118.11499339381501
168,120.18864748815734
169,121.1772965967456
170,121.87953680128012
171,122.01723149510576
172,122.6542143019129
173,123.58274611417177
174,123.64096390984264
175,123.69928660104236
176,123.85950947215295
177,124.21951986021915
178,124.22395168665949
179,124.44740791830486
180,124.57321975659863
181,124.63063255091043
182,124.7374809932219
183,124.78243460923663
184,124.83962456222608
185,124.90458099770207
186,125.03376608954461
187,125.48805131623895
188,125.54186859941655
189,125.60860014413274
190,125.91513796580716
191,125.9605946222182
192,126.07919678523008
193,126.1669672351033
194,126.26126877591885
195,126.30449332986538
196,126.47833734219732
197,126.58612563662011
198,126.6786886559083
199,127.06694464496425
200,127.06945006589686
201,127.0777142668626
202,127.10629853166428
203,127.11130398442913
204,127.14351917693986
205,127.32383202169807
206,127.39080219420516
207,127.46777742155217
208,127.88409984192073
209,127.94996298945944
210,128.24255748206662
211,128.3182732840891
212,128.73156878379086
213,128.9779156189515
214,129.43355565836072
215,129.46199440676446
216,129.87059739303308
217,130.1267173759756
218,130.23746438445713
219,130.3120497466613
220,130.315497425922
221,130.315497425922
222,130.3930082849779
223,131.1325695016956
224,131.27906914810922
225,131.54594694543624
226,132.3875735633852
227,132.85461676373467
228,133.37591351717825
229,133.82632413346468
230,134.02444390027517
231,134.2175479041389
232,135.4561034268115
233,135.71331602280424
234,136.29699989104734
235,136.61396344543758
236,136.92882294834592
237,137.08231860631219
238,137.10787120371623
239,137.4451195308698
240,137.68999239905142
241,137.75502694133894
242,138.87111134246706
243,138.90715313665336
244,139.3584530229181
245,139.64127161426399
246,140.1292574710809
247,140.3373356156103
248,140.99481571048486
249,140.99565955978534
250,141.46670627343713
251,142.08825521777146
252,142.40418257984055
253,142.8251579399926
254,143.5145784280258
255,143.66319346022206
256,144.2531658627685
257,144.36688668425748
258,144.73471340475473
259,144.84977767903044
260,145.89504909718252
261,145.95283696093048
262,146.29168887809337
263,146.766994439052
264,146.79508183220202
265,147.81235890249152
266,148.52134507295224
267,150.51412687349708
268,151.3606482555325
269,151.70717298192008
270,152.95649920627812
271,153.08928637122443
272,153.21408574580857
273,153.26562083568484
274,153.39416698820702
275,154.15258634521004
276,154.5312584060809
277,155.8570505790889
278,156.28234893613475
279,156.57878116205814
280,156.84264890939707
281,158.31484775129476
282,158.33934441065207
283,158.42044870676708
284,158.5837974232287
285,158.93403851157643
286,159.22646867279187
287,159.4824343702008
288,160.07651865400803
289,160.83247230537378
290,162.01681943809018
291,162.4689866002043
292,164.10888092799487
293,164.70859883015805
294,164.94248594945051
295,165.9909048974414
296,166.29186365833596
297,166.91537129630123
298,167.33410081720785
299,168.5952712794894
300,168.72533955236102
301,169.37220160765906
302,169.46646355278781
303,169.49112102260915
304,169.78693043153288
305,169.86677028959417
306,169.86677028959417
307,170.3861444741453
308,171.53013910365266
309,172.2031783313381
310,172.7310644827592
311,173.6862807624782
312,173.9654175216842
313,174.02739736600668
314,174.27330005301843
315,174.8282303168424
316,174.92887353989053
317,174.93289405417778
318,175.09626602578336
319,175.8984045157816
320,176.14634780733675
321,176.63885208563872
322,177.8349596021147
323,177.85094918041955
324,177.89624186261727
325,178.1429537771379
326,179.12145837093104
327,179.4595706329056
328,179.72410181667152
329,179.8000494374878
330,180.12244963801072
331,180.31774099648615
332,181.1995337675938
333,181.2955694731624
334,181.34318364142652
335,182.15000778128953
336,182.34798738007683
337,183.0696904914057
338,183.1370138465119
339,184.06604190776935
340,184.44283103765474
341,184.63262950738553
342,185.3278035928885
343,185.6525590501915
344,186.06354392184508
345,186.391818833509
346,186.50117316266576
347,187.46328899873888
348,188.09564177612708
349,188.25572209445193
350,188.29789839273627
351,189.3743355192614
352,189.7052050001901
353,189.7268181263296
354,189.81229419965695
355,190.12803782114176
356,190.3209965183158
357,190.88133963919884
358,191.97301111632103
359,192.38650129136164
360,192.66053169478835
361,193.0989028617568
362,193.386982717096
363,193.39772535045464
364,194.20181111248024
365,194.44344730749813
366,194.83293444916222
367,194.91194556043516
368,196.35648987005598
369,196.968900561064
370,196.98206026189214
371,196.99659537187463
372,197.0840758533207
373,197.19051312955634
374,197.23923657599704
375,197.77127284573947
376,198.08316352587053
377,198.1668232332976
378,198.18794985070465
379,199.28789316657458
380,199.4107731783493
381,199.9630399042717
382,200.2452063365884
383,201.25211391789213
384,201.25211391789213
385,202.0952344609187
386,202.48368786235514
387,202.54149877985657
388,203.47669669903283
389,203.52978723562052
390,203.79736585190122
391,204.21775229518633
392,204.29531608488554
393,204.9213144583792
394,204.93743442841276
395,205.79477959540958
396,206.10853893805898
397,206.24685255077233
398,206.63004152417244
399,207.41084738816193
400,207.91185751479415
401,207.95604370344614
402,208.07835226317368
403,208.7529389719295
404,208.77378349424333
405,209.01529698791325
406,209.14286669190483
407,209.31031177933383
408,209.35727088050712
409,209.49075983136183
410,210.32222825043553
411,210.64549635730967
412,211.5943005788065
413,212.5768651152421
414,213.32701380380763
415,213.32701380380763
416,213.49205221082107
417,213.70220472810237
418,213.7187973618485
419,214.17141112443502
420,214.38643727514184
421,214.99547466814792
422,215.1910792795766
423,215.42714406496032
424,216.6619677080145
425,217.6232950467847
426,218.080907624713
427,218.1522080859406
428,218.27659325610065
429,218.83164468057328
430,219.58769651568247
431,220.47697900904595
432,220.54570252718747
433,220.95467776680087
434,221.51589595417803
435,222.3527241439911
436,222.76595703467532
437,223.53549452088112
438,223.7520840789624
439,223.9993241796428
440,228.08124054733705
441,228.21598837731946
442,228.6232029808726
443,228.8099735137957
444,229.28621878866744
445,229.8250156562308
446,229.86412831384135
447,230.22495882231473
448,230.6367441621459
449,230.86627207960504
450,231.78160602925774
451,232.24762359805385
452,232.57850749336376
453,232.60776378790422
454,232.83304486084475
455,233.1488709091837
456,233.34437893448927
457,234.07107503156624
458,234.34381746638053
459,234.87930011342786
460,236.02385874415626
461,236.74662978296956
462,237.10315161683278
463,237.32098343393383
464,237.9018802893969
465,238.15850943392797
466,239.49980746670226
467,241.17866217414814
468,241.68388332327982
469,242.43164237204562
470,243.88160821923364
471,244.5603601313767
472,244.69121199748704
473,246.39059910175047
474,249.13533609172987
475,249.40250188614795
476,249.42868584566259
477,250.68380884536333
478,252.58407697247628
479,253.12577908493768
480,254.75704299133827
481,255.24394888859618
482,255.64221958885358
483,257.18496759949323
484,258.4354082336628
485,259.04948827635735
486,259.15347164131026
487,259.18144797925834
488,259.3280956245103
489,259.4274250191081
490,259.5721596229818
491,260.27319636937136
492,260.3438540270381
493,260.7411331436759
494,260.93146132763087
495,261.20484372326615
496,261.7334797480415
497,261.9098235465223
498,262.51466703406896
499,262.92904365300285
500,263.58308735555863
501,264.25413626722263
502,264.2871158496331
503,264.32226090842613
504,264.3317048661816
505,264.93768491416404
506,265.03392728174504
507,265.1115484785596
508,266.5021794841146
509,266.6568795569524
510,266.7795590357424
511,267.2222686685362
512,267.24315249153733
513,268.5959369374759
514,268.89371514617596
515,269.0353647277902
516,269.0541806786181
517,269.0995364524173
518,269.5957356783553
519,269.72041372073403
520,270.7300383139275
521,272.4305254329454
522,272.79250064294206
523,274.0986041270837
524,274.15622788296474
525,274.72902556647745
526,274.8712014977464
527,274.91014037165013
528,275.33560699340995
529,275.59385680750165
530,276.32223126106504
531,276.94651935133766
532,277.15875009694076
533,277.39776188530107
534,277.4958203959131
535,277.75681603010383
536,278.50164366113745
537,278.64972022345876
538,278.92853738321253
539,279.271603968793
540,280.1587930986154
541,280.28150491080584
542,280.84533344851735
543,281.90580002713926
544,283.00145551851165
545,283.21361974773646
546,283.3919388520957
547,283.6789928242045
548,283.9356804723633
549,286.6048043835687
550,286.64479324138404
551,289.74683125230314
552,289.834735024328
553,290.6876405689455
554,291.56045368122835
555,295.36969976763646
556,295.8363519346921
557,297.06815176379484
558,297.7975201725627
559,297.9267575696132
560,299.10712617105565
561,299.5724212044052
562,300.0508552090931
563,301.918709793312
564,307.5956673738611
565,309.1292190267704
566,310.87498618141854
567,311.2724240811144
568,312.16208040605335
569,312.30767275855493
570,312.4226238523671
571,315.6125175043237
572,315.6596105006502
573,315.70086588111695
574,316.5505860922303
575,316.8726865453112
576,317.2164874861695
577,317.6372648059377
578,321.13403943626804
579,322.0103371749009
580,323.14292703560045
581,328.3250999782437
582,328.9635672060355
583,331.29170067177455
584,334.31956297678954
585,335.58884053799255
586,337.5077836092588
587,344.0157089522762
588,344.3152703701588
589,346.61097366115206
590,346.8835760244583
591,347.24270112165993
592,347.29027690791634
593,350.0824005128273
594,351.0290250456986
595,352.6885795396338
596,353.4705836328441
597,354.4117630386293
598,354.63992169254664
599,354.66294737145097
600,355.7822988496545
601,356.2286245893385
602,361.1621443091938
603,363.0040715142231
604,364.39867644288034
605,366.6618042374248
606,368.6796307840073
607,371.0794556716575
608,373.3949370489409
609,373.3949370489409
610,374.20153803157126
611,375.27262876332424
612,377.5583689372692
613,378.619244155573
614,381.1033377922701
615,381.3664543066202
616,381.61628959502593
617,385.18771159395595
618,392.92773782339304
619,393.12420225618246
620,405.5395126983506
621,407.0258699662193
622,428.8242063957833
623,453.66652229285523
624,453.8036491758016
625,456.8668188000355
626,490.14688278559385
627,494.5884296892194
