"id","timeAtServer","aircraft","latitude","longitude","baroAltitude","geoAltitude","numMeasurements","measurements"
1,0,1787,49.5238952636719,7.80282271535773,6400.8,6537.96,3,"[[463,963309455,4],[424,963315122,27],[412,963373222,0]]"
208,0.407999992370605,1787,49.5234375,7.80390689247533,6400.8,6537.96,4,"[[320,1383327109,61],[424,1382416072,25],[412,1382474372,33],[402,1382410845,44]]"
447,0.837000131607056,1787,49.5231085308528,7.80482111750422,6400.8,6537.96,7,"[[440,1818110975,66],[402,1817893570,40],[320,1818809765,69],[463,1817893730,29],[424,1817898897,15],[115,1818512265,37],[412,1817957247,15]]"
703,1.29400014877319,1787,49.5227361129502,7.80571190086571,6400.8,6537.96,5,"[[320,2266578921,54],[402,2265663045,51],[115,2266281812,39],[424,2265668172,2],[412,2265726572,0]]"
974,1.7810001373291,1787,49.5222015380859,7.80701486687911,6400.8,6537.96,4,"[[463,2729814255,48],[412,2729877622,0],[424,2729819297,51],[402,2729814170,22]]"
1218,2.22900009155273,1787,49.52197265625,7.80766537314967,6400.8,6537.96,2,"[[412,3189933295,18],[440,3190086925,33]]"
1515,2.8050000667572,1787,49.5213317871094,7.80925549958882,6400.8,6537.96,3,"[[463,3775519603,25],[424,3775524222,55],[412,3775582720,45]]"
1731,3.2039999961853,1787,49.5211029052734,7.80990600585937,6400.8,6537.96,5,"[[320,4183249078,48],[440,4182551100,65],[463,4182334553,45],[412,4182397545,59],[115,4182953625,52]]"
2014,3.73300004005432,1787,49.5205481577728,7.81120506492821,6400.8,6537.96,4,"[[463,4699726578,22],[412,4699789445,20],[424,4699730872,0],[115,4700345781,38]]"
2573,4.73600006103516,1787,49.5197102174921,7.81343202333193,6400.8,6537.96,6,"[[440,5707423800,34],[463,5707207752,7],[412,5707270345,11],[424,5707211722,42],[115,5707827109,39],[402,6707207647,7]]"
2784,5.12600016593933,1787,49.5193176269531,7.81431499280428,6400.8,6537.96,2,"[[463,6116769628,10],[412,6116831820,2]]"
3074,5.64900016784668,1787,49.5188257249735,7.81565898173564,6400.8,6537.96,4,"[[463,6612302603,29],[424,6612306147,27],[412,6612364995,0],[402,6612302497,11]]"
3330,6.11500000953674,1787,49.5185464115466,7.81632706925676,6400.8,6537.96,4,"[[101,7097267171,32],[440,7097146700,46],[412,7096993395,2],[402,7096931048,35]]"
3591,6.6470000743866,1787,49.517941232455,7.81788594013936,6400.8,6537.96,7,"[[101,7637866625,33],[440,7637746125,62],[320,7638442828,68],[463,7637530703,9],[402,7637530623,2],[412,7637592870,16],[424,7637534097,4]]"
3851,7.15200018882752,1787,49.517578125,7.81872397974918,6400.8,6537.96,3,"[[440,8138756273,27],[101,8138876828,43],[412,8138603070,26]]"
4119,7.66100001335144,1787,49.5170567399364,7.82011289854308,6400.8,6537.96,5,"[[463,8647742227,15],[412,8647804095,2],[320,8648653593,69],[424,8647745172,17],[440,8647957273,58]]"
4749,8.7480001449585,1787,49.51611328125,7.82248246042352,6400.8,6537.96,3,"[[320,9721661250,53],[412,9720812247,9],[424,9720753272,20]]"
5002,9.18200016021729,1787,49.5158386230469,7.82313296669408,6400.8,6537.96,3,"[[463,10142582177,19],[440,10142796747,44],[412,10142643722,8]]"
5297,9.68600010871887,1787,49.5153343071372,7.82449258340372,6400.8,6537.96,6,"[[101,10676691031,30],[320,10677266062,70],[463,10676356052,25],[440,10676570447,52],[412,10676417447,27],[424,10676358397,18]]"
5542,10.1319999694824,1787,49.5150549937103,7.82516067092483,6400.8,6537.96,3,"[[440,11103862722,46],[320,11104557968,48],[412,11103709547,6]]"
5793,10.603000164032,1787,49.5145568847656,7.82645777652138,6400.8,6537.96,6,"[[440,11585760572,34],[101,11585881046,36],[320,11586455812,79],[412,11585607572,17],[463,11585546425,0],[402,12585546373,14]]"
6022,11.0210001468658,1787,49.5142170534296,7.82731339738176,6400.8,6537.96,4,"[[101,12011807921,32],[412,12011534523,12],[115,12012093875,49],[402,12011473498,38]]"
6346,11.6110000610352,1787,49.5136871337891,7.82862613075658,6400.8,6537.96,5,"[[440,12590511045,45],[424,12590299147,23],[463,12590297375,20],[402,12590297323,25],[412,12590358223,0]]"
6601,12.0789999961853,1787,49.513332560911,7.82954035578547,6400.8,6537.96,3,"[[412,13042223025,38],[463,13042162300,32],[402,13042162248,39]]"
6919,12.6640000343323,1787,49.5127273818194,7.83109922666808,6400.8,6537.96,3,"[[463,13633272500,29],[412,13633333075,28],[424,13633273872,29]]"
7231,13.2239999771118,1787,49.512308411679,7.83213847392314,6400.8,6537.96,6,"[[101,14215160328,21],[440,14215039820,43],[463,14214826800,23],[424,14214828297,29],[412,14214887175,0],[402,14214826798,26]]"
7502,13.7180001735687,1787,49.5118894415387,7.833251953125,6400.8,6537.96,5,"[[320,14690806218,56],[463,14689899200,15],[412,14689959450,0],[402,14689899398,24],[424,14689900347,0]]"
8041,14.7339999675751,1787,49.5110049490201,7.83547891152872,6400.8,6537.96,4,"[[463,15706936525,4],[402,15706936398,22],[440,15707148970,44],[412,15706996475,0]]"
8325,15.2910001277924,1787,49.5105859788798,7.83651815878378,6400.8,6537.96,3,"[[320,16271649562,49],[412,16270803625,9],[402,16270743673,31]]"
8592,15.7599999904633,1787,49.5100708007813,7.83787777549342,6400.8,6537.96,5,"[[320,16745356531,48],[440,16744663120,43],[402,16744450973,43],[412,16744510750,28],[424,16744451522,23]]"
8885,16.3180000782013,1787,49.5097014863612,7.8387451171875,6400.8,6537.96,4,"[[463,17289146325,57],[412,17289205825,4],[115,17289767109,72],[424,17289146648,49]]"
9154,16.7920000553131,1787,49.5092010498047,7.84004612972862,6400.8,6537.96,4,"[[440,17764430345,30],[424,17764218848,4],[463,17764218750,14],[412,17764278075,0]]"
9374,17.2160000801086,1787,49.5089263916016,7.84069663599918,6400.8,6537.96,6,"[[440,18198548170,51],[101,18198668703,30],[463,18198336675,21],[320,18199241062,40],[412,18198395950,27],[424,18198336800,15]]"
9648,17.7550001144409,1787,49.5083312988281,7.84221448396382,6400.8,6537.96,4,"[[440,18733687045,40],[424,18733475750,22],[463,18733475800,14],[412,18733534875,0]]"
10264,18.8730001449585,1787,49.507466978946,7.84438674514358,6400.8,6537.96,4,"[[463,19841978200,4],[412,19842036975,0],[424,19841977775,9],[402,19841978225,0]]"
10586,19.4739999771118,1787,49.5068617998544,7.84594561602618,6400.8,6537.96,2,"[[463,20420802150,27],[412,20420860775,16]]"
10817,19.8830001354218,1787,49.5065824864274,7.8466137035473,6400.8,6537.96,6,"[[402,20865841350,3],[320,20866743562,51],[463,20865841250,4],[440,20866051820,29],[412,20865899775,1],[424,20865840550,18]]"
11037,20.353000164032,1787,49.5060882568359,7.84792448344984,6400.8,6537.96,2,"[[463,21324531975,46],[412,21324590350,27]]"
11312,20.8340001106262,1787,49.5057220458984,7.84879182514391,6400.8,6537.96,4,"[[463,21802334725,0],[424,21802333875,17],[412,21802392950,0],[402,21802334625,0]]"
11630,21.4140000343323,1787,49.5052185058594,7.85009283768503,6400.8,6537.96,4,"[[402,22385254175,23],[440,22385464019,44],[463,22385254148,15],[412,22385312225,12]]"
11945,21.9730000495911,1787,49.5048065185547,7.85117701480263,6400.8,6537.96,5,"[[320,22954057531,43],[402,22953156800,17],[412,22953214750,24],[424,22953155577,20],[463,22953156848,26]]"
12173,22.4010000228882,1787,49.5043487548828,7.85226119192023,6400.8,6537.96,3,"[[440,23357450969,52],[412,23357299325,11],[463,23357241550,14]]"
12446,22.8919999599457,1787,49.5040221133475,7.85314611486487,6400.8,6537.96,3,"[[463,23854156400,59],[424,23854154850,45],[412,23854214050,19]]"
12678,23.3330001831055,1787,49.5036496954449,7.85403689822635,6400.8,6537.96,4,"[[440,24302134994,29],[412,24301983450,22],[463,24301925925,50],[402,25301925900,12]]"
12939,23.7840001583099,1787,49.5031585693359,7.85536916632401,6400.8,6537.96,5,"[[424,24771536002,34],[320,24772436953,40],[412,24771595150,0],[463,24771537775,19],[402,24771537725,11]]"
13225,24.3120000362396,1787,49.5028117551642,7.85618962468328,6400.8,6537.96,3,"[[463,25260261850,27],[402,25260261750,19],[412,25260319025,15]]"
13537,24.8870000839233,1787,49.5022996805482,7.85752579972551,6400.8,6537.96,3,"[[402,25848641750,0],[412,25848698850,20],[463,25848641775,0]]"
13752,25.305999994278,1787,49.5019272626457,7.85841658308699,6400.8,6537.96,3,"[[412,26270530375,18],[463,26270473450,29],[402,26270473500,3]]"
13967,25.7200000286102,1787,49.5015082925053,7.85945583034206,6400.8,6537.96,4,"[[424,26695032977,19],[402,26695035325,1],[463,26695035325,27],[412,26695092125,2]]"
14301,26.3229999542236,1787,49.5010893223649,7.86056930954392,6400.8,6537.96,2,"[[412,27275281125,13],[115,27275846296,52]]"
14514,26.7410001754761,1787,49.5005493164063,7.8618742290296,6400.8,6537.96,2,"[[412,27716224650,0],[402,27716168202,5]]"
14827,27.2910001277924,1787,49.5002048298464,7.86272203600085,6400.8,6537.96,3,"[[440,28262435994,43],[412,28262284925,0],[402,28262228852,0]]"
15122,27.8190000057221,1787,49.4996795654297,7.8640425832648,6400.8,6537.96,5,"[[463,28796002525,11],[320,28796898484,41],[115,28796624421,34],[412,28796058700,0],[402,28796002552,17]]"
15381,28.268000125885,1787,49.4993668895657,7.86494899440456,6400.8,6537.96,2,"[[412,29208334200,9],[402,29208278152,14]]"
15618,28.6760001182556,1787,49.4989013671875,7.86606247360642,6400.8,6537.96,3,"[[424,29658774827,28],[412,29658833800,19],[463,29658778027,10]]"
15898,29.1590001583099,1787,49.4985809326172,7.86693372224507,6400.8,6537.96,3,"[[440,30132691844,41],[412,30132541075,23],[402,31132485302,8]]"
16133,29.5870001316071,1787,49.4981231689453,7.86801789936266,6400.8,6537.96,2,"[[412,30555737650,35],[402,30555682077,21]]"
16409,30.1100001335144,1787,49.4977841134799,7.86888328758446,6400.8,6537.96,6,"[[101,31092513031,22],[463,31092186452,35],[440,31092392494,48],[402,31092186402,23],[412,31092241848,8],[115,31092808343,36]]"
16687,30.6100001335144,1787,49.4972991943359,7.87018625359786,6400.8,6537.96,4,"[[320,31592725187,33],[463,31591831802,20],[412,31591886898,0],[402,31591831602,6]]"
16953,31.1170001029968,1787,49.4969461731992,7.87103601404139,6400.8,6537.96,2,"[[440,32091682518,39],[412,32091531998,28]]"
17252,31.683000087738,1787,49.4963409941075,7.87259488492399,6400.8,6537.96,4,"[[320,32667098078,44],[412,32666260323,8],[424,32666201552,37],[463,32666205402,19]]"
17552,32.2400000095367,1787,49.4958754717294,7.87363413217905,6400.8,6537.96,3,"[[101,33231703468,27],[440,33231583018,51],[412,33231432698,25]]"
17822,32.7030000686646,1787,49.495456501589,7.87474761138091,6400.8,6537.96,3,"[[440,33690273493,37],[412,33690123198,9],[463,33690068602,69]]"
18117,33.2139999866486,1787,49.4951019287109,7.87560713918585,6400.8,6537.96,3,"[[101,34203690578,31],[440,34203570068,22],[412,34203419848,0]]"
18387,33.7030000686646,1787,49.4946185613083,7.87697456978463,6400.8,6537.96,3,"[[463,34674342377,39],[424,34674338002,0],[412,34674396723,0]]"
18909,34.683000087738,1787,49.4937340687897,7.87912729624155,6400.8,6537.96,4,"[[463,35654520775,11],[412,35654574823,0],[424,35654516153,6],[402,36654520902,3]]"
19201,35.2109999656677,1787,49.493408203125,7.88001612613076,6400.8,6537.96,3,"[[463,36192390300,47],[412,36192444173,34],[402,36192390602,32]]"
19478,35.7190001010895,1787,49.4928495762712,7.88128002269848,6400.8,6537.96,3,"[[463,36700226450,7],[402,36700226677,8],[412,36700280148,0]]"
19713,36.183000087738,1787,49.4925384521484,7.88218448036595,6400.8,6537.96,2,"[[463,37141170223,28],[412,37141223823,10]]"
19938,36.6319999694824,1787,49.4920806884766,7.88326865748355,6400.8,6537.96,4,"[[463,37583479098,5],[424,37583473978,28],[402,37583479102,19],[412,37583532573,0]]"
20244,37.1879999637604,1787,49.4916687011719,7.88435283460115,6400.8,6537.96,4,"[[101,38173547750,34],[440,38173427318,33],[463,38173224348,24],[412,38173277598,1]]"
20460,37.6089999675751,1787,49.4912109375,7.88543701171875,6400.8,6537.96,4,"[[440,38576146843,21],[424,38575938653,14],[463,38575943873,0],[412,38575996998,15]]"
20756,38.114000082016,1787,49.4908943822829,7.88632779508024,6400.8,6537.96,3,"[[463,39082414923,44],[101,39082737906,28],[412,39082467848,22]]"
20997,38.5080001354218,1787,49.4904288599047,7.8874412742821,6400.8,6537.96,3,"[[101,39497743578,21],[463,39497420823,0],[412,39497473598,30]]"
21226,38.920000076294,1787,49.4901960987156,7.88810936180321,6400.8,6537.96,4,"[[101,39903193218,24],[440,39903072718,45],[463,39902870673,15],[412,40902923348,19]]"
21542,39.4880001544952,1787,49.4895909196239,7.88959400073902,6400.8,6537.96,4,"[[424,40458481852,22],[440,40458688893,41],[463,40458487098,27],[412,40458539623,18]]"
21816,40.0020000934601,1787,49.4892425537109,7.89049650493421,6400.8,6537.96,2,"[[440,40982906718,29],[412,40982757473,0]]"
22135,40.5830001831055,1787,49.4886016845703,7.89201435289885,6400.8,6537.96,2,"[[463,41550607925,10],[412,41550660073,0]]"
22381,41.0650000572205,1787,49.488287456965,7.8929344383446,6400.8,6537.96,3,"[[440,42050454244,36],[101,42050574812,27],[412,42050305223,1]]"
22706,41.6440000534058,1787,49.4876822778734,7.89441907728041,6400.8,6537.96,3,"[[424,42630436052,0],[463,42630442375,37],[412,42630494173,1]]"
23206,42.5640001296997,1787,49.4868621826172,7.89642333984375,6400.8,6537.96,3,"[[463,43528711750,20],[424,43528705427,10],[412,43528763275,42]]"
23428,42.9479999542236,1787,49.4866333007813,7.89707384611431,6400.8,6537.96,4,"[[101,43930386843,28],[412,43930117600,4],[440,43930266294,39],[402,44930066127,40]]"
23666,43.3719999790192,1787,49.4861755371094,7.89815802323191,6400.8,6537.96,6,"[[101,44360409140,24],[440,44360288619,25],[412,44360140000,15],[424,44360082275,12],[463,44360088727,23],[402,44360088752,36]]"
23945,43.8830001354218,1787,49.4858201883607,7.89902145798142,6400.8,6537.96,3,"[[463,44843352202,9],[412,44843403325,6],[402,44843352177,41]]"
24156,44.289999961853,1787,49.485494322696,7.89991224134291,6400.8,6537.96,4,"[[412,45244757575,0],[463,45244706577,21],[424,45244699925,35],[402,45244706552,10]]"
24400,44.7230000495911,1787,49.4850753525556,7.90102572054476,6400.8,6537.96,3,"[[463,45681554952,32],[402,45681554902,0],[412,45681605825,6]]"
24691,45.3029999732971,1787,49.4846098301774,7.90213919974662,6400.8,6537.96,4,"[[440,46275594594,31],[412,46275446275,13],[463,46275395602,13],[402,47275395577,17]]"
24961,45.8320000171661,1787,49.4840977555614,7.90347537478885,6400.8,6537.96,4,"[[412,46803759625,0],[424,46803702200,28],[463,46803709102,14],[402,46803709052,26]]"
25197,46.2669999599457,1787,49.4837718898967,7.90436615815034,6400.8,6537.96,5,"[[463,47252843803,2],[440,47253042570,34],[394,47253624578,18],[412,47252894125,13],[402,47252843777,26]]"
25467,46.7829999923706,1787,49.4832458496094,7.90567498458059,6400.8,6537.96,5,"[[101,47776015500,29],[402,47775696677,38],[440,47775894920,52],[463,47775696703,19],[412,47775746875,9]]"
25781,47.3410000801087,1787,49.4828873973782,7.90651888460726,6400.8,6537.96,3,"[[463,48301279828,22],[412,48301329825,23],[402,48301279777,9]]"
26010,47.7400000095367,1787,49.4823760986328,7.90784333881579,6400.8,6537.96,4,"[[463,48723111503,20],[101,48723429859,31],[440,48723309295,43],[412,48723161400,38]]"
26305,48.2799999713898,1787,49.4820029048596,7.90874584301098,6400.8,6537.96,3,"[[412,49246014075,0],[463,49245964328,0],[424,49245956800,39]]"
26837,49.2910001277924,1787,49.4811649645789,7.91089856946791,6400.8,6537.96,4,"[[412,50263051275,19],[424,50262994175,0],[463,50263001877,1],[402,51263001927,15]]"
27076,49.7330000400543,1787,49.4806365966797,7.91225232576069,6400.8,6537.96,4,"[[463,50706676052,37],[424,50706668250,13],[412,50706725300,1],[402,51706676027,12]]"
27322,50.2109999656677,1787,49.4802804720604,7.91312552787162,6400.8,6537.96,6,"[[101,51203908062,26],[440,51203787695,31],[463,51203591052,8],[424,51203583025,7],[412,51203640075,0],[402,51203591002,0]]"
27567,50.6640000343323,1787,49.4798149496822,7.91423900707348,6400.8,6537.96,3,"[[412,51628201975,0],[440,51628349570,60],[402,51628152977,28]]"
27815,51.1080000400543,1787,49.4795821884931,7.9149070945946,6400.8,6537.96,5,"[[424,52080009950,21],[412,52080066825,37],[440,52080214120,47],[463,52080017977,25],[402,52080017977,24]]"
28146,51.6870000362396,1787,49.4789770094015,7.9164659654772,6400.8,6537.96,5,"[[101,52675540250,21],[440,52675419720,51],[412,52675272550,10],[463,52675224127,25],[402,52675223877,2]]"
28483,52.2369999885559,1787,49.4786224365234,7.91731181897615,6400.8,6537.96,4,"[[412,53196760073,0],[463,53196711575,4],[424,53196703225,11],[402,54196711552,4]]"
28775,52.7920000553131,1787,49.4779815673828,7.91882966694079,6400.8,6537.96,4,"[[463,53753693275,39],[424,53753684975,37],[412,53753741548,26],[402,53753693252,28]]"
29040,53.2720000743866,1787,49.4776269945048,7.91973217113598,6400.8,6537.96,5,"[[402,54250608227,12],[424,54250599825,11],[463,54250608250,4],[412,54250656373,4],[440,54250803445,44]]"
29307,53.7630000114441,1787,49.4771118164063,7.92107029965049,6400.8,6537.96,6,"[[101,54742378062,23],[424,54742054175,23],[440,54742257470,51],[412,54742110623,39],[463,54742062700,31],[402,54742062627,49]]"
29544,54.1950001716614,1787,49.4768371582031,7.92172080592105,6400.8,6537.96,5,"[[101,55181956406,24],[440,55181835945,53],[402,55181641252,41],[463,55181641325,0],[412,55181689148,8]]"
29842,54.7369999885559,1787,49.4762420654297,7.9233109323602,6400.8,6537.96,4,"[[101,55730746953,37],[424,55730423625,9],[440,55730626395,24],[463,55730432100,13]]"
30090,55.1979999542236,1787,49.4759674072266,7.92396143863076,6400.8,6537.96,4,"[[463,56165915275,0],[412,56165962823,0],[424,56165906900,56],[402,57165915277,15]]"
30401,55.7840001583099,1787,49.4753723144531,7.92547928659539,6400.8,6537.96,3,"[[463,56735183350,64],[115,56735804875,51],[402,57735183327,21]]"
30621,56.1710000038147,1787,49.47509765625,7.92612979286595,6400.8,6537.96,4,"[[320,57142869265,42],[463,57141998325,23],[412,57142045523,0],[402,57141998402,24]]"
30927,56.7350001335144,1787,49.4745545468088,7.9274522936022,6400.8,6537.96,2,"[[402,57681233127,26],[412,57681280073,18]]"
31231,57.3029999732971,1787,49.4741355766684,7.92856577280405,6400.8,6537.96,4,"[[412,58253278223,0],[463,58253231323,0],[402,58253231402,20],[115,58253852875,46]]"
31535,57.8310000896454,1787,49.4735769498146,7.92990194784628,6400.8,6537.96,4,"[[402,58804752552,22],[463,58804752448,13],[412,58804799148,0],[424,58804743200,29]]"
31773,58.2420001029968,1787,49.4732510841499,7.93079273120777,6400.8,6537.96,3,"[[463,59212932572,13],[424,59212923125,20],[412,59212979175,0]]"
32010,58.6560001373291,1787,49.4727855617717,7.93190621040963,6400.8,6537.96,3,"[[101,59648728750,32],[412,59648462300,0],[463,59648415822,42]]"
32312,59.2200000286102,1787,49.4724426269531,7.93277941252056,6400.8,6537.96,4,"[[101,60192058578,29],[412,60191792250,23],[463,60191745947,0],[402,61191745952,0]]"
32610,59.75,1787,49.4718475341797,7.9343695389597,6400.8,6537.96,4,"[[424,60717319650,31],[463,60717329197,23],[412,60717375375,0],[402,60717329302,25]]"
32859,60.1840000152588,1787,49.4715728759766,7.93502004523026,6400.8,6537.96,4,"[[402,61154177927,0],[424,61154167850,21],[412,61154223525,0],[463,61154177547,29]]"
33089,60.5970001220703,1787,49.4711151123047,7.93617650082237,6400.8,6537.96,4,"[[101,61584512031,24],[463,61584200172,31],[440,61584391497,30],[412,61584246025,0]]"
33318,61.039999961853,1787,49.4708862304688,7.93682700709293,6400.8,6537.96,3,"[[412,61991060925,4],[463,61991015222,19],[115,61991636484,48]]"
33839,62.0030000209808,1787,49.469970703125,7.93906763980263,6400.8,6537.96,3,"[[424,62969818725,9],[463,62969828597,32],[412,62969874000,10]]"
34118,62.5260000228882,1787,49.4693756103516,7.94058548776727,6400.8,6537.96,2,"[[101,63518930281,46],[412,63518664777,0]]"
34422,63.0350000858307,1787,49.4690148305085,7.94148213154561,6400.8,6537.96,3,"[[463,64003248022,19],[424,64003238125,33],[412,64003293102,5]]"
34686,63.5090000629425,1787,49.4685493081303,7.94259561074747,6400.8,6537.96,5,"[[101,64499108296,40],[424,64498787825,16],[440,64498987798,13],[463,64498797997,41],[412,64498842877,10]]"
34970,64.0220000743866,1787,49.4682312011719,7.94347662674753,6400.8,6537.96,3,"[[463,64983426547,26],[424,64983416425,18],[412,64983471352,9]]"
35557,65.103000164032,1787,49.4672458454714,7.94593604835304,6400.8,6537.96,4,"[[412,66066035902,14],[440,66066180498,39],[424,66065981075,2],[402,66065991452,23]]"
36115,66.143000125885,1787,49.4662628173828,7.94839156301398,6400.8,6537.96,3,"[[402,67128079175,22],[101,67128388156,28],[412,67128123202,21]]"
36388,66.5989999771118,1787,49.4658050537109,7.94947574013158,6400.8,6537.96,2,"[[402,67575848800,18],[412,67575892677,18]]"
36667,67.1330001354218,1787,49.4653930664063,7.95063219572368,6400.8,6537.96,4,"[[101,68119487453,32],[402,68119178975,10],[424,68119168325,37],[412,68119222677,0]]"
36979,67.6670000553131,1787,49.4648716813427,7.95194883604308,6400.8,6537.96,3,"[[101,68653261265,34],[402,68652953075,30],[412,68652996677,0]]"
37296,68.2180001735687,1787,49.4644061589645,7.95306231524493,6400.8,6537.96,4,"[[101,69208877453,28],[412,69208613027,7],[402,69208569550,13],[424,69208558750,6]]"
37610,68.7890000343323,1787,49.4638824462891,7.95439067639803,6400.8,6537.96,5,"[[115,69745710718,29],[402,69745090050,26],[440,69745277100,64],[412,69745133327,9],[101,69745397671,29]]"
37880,69.2469999790192,1787,49.463521666446,7.95528927364865,6400.8,6537.96,6,"[[101,70234105546,28],[463,70233798072,22],[402,70233798100,23],[440,70233984975,26],[412,70233841277,0],[424,70233787200,66]]"
38414,70.2730000019074,1787,49.4626371739274,7.95751623205237,6400.8,6537.96,5,"[[101,71264794125,27],[463,71264487247,5],[115,71265107859,37],[412,71264530152,0],[402,72264487275,27]]"
38694,70.7750000953674,1787,49.4620971679688,7.95887194181743,6400.8,6537.96,2,"[[101,71760343812,27],[412,71760079952,0]]"
38980,71.2699999809265,1787,49.4617526814089,7.95974319045608,6400.8,6537.96,4,"[[402,72251491650,6],[424,72251480525,5],[463,72251491572,12],[412,72251534177,0]]"
39252,71.8159999847412,1787,49.4612274169922,7.96111257452714,6400.8,6537.96,2,"[[424,72789350100,18],[412,72789403602,0]]"
39531,72.3200001716614,1787,49.4608681888904,7.96204438080659,6400.8,6537.96,4,"[[402,73297197375,37],[424,73297186125,9],[412,73297239677,1],[463,73297197397,0]]"
39788,72.7910001277924,1787,49.4603118896484,7.96335320723684,6400.8,6537.96,3,"[[101,73784862015,42],[440,73784741477,39],[412,73784598602,3]]"
40096,73.3770000934601,1787,49.4598083496094,7.96472649825247,6400.8,6537.96,4,"[[402,74342903250,35],[463,74342903272,21],[412,74342945202,12],[424,74342891825,16]]"
40413,73.9190001487732,1787,49.459425069518,7.96560751425253,6400.8,6537.96,2,"[[320,74896643468,26],[412,74895831327,9]]"
40689,74.3780000209808,1787,49.4588928222656,7.96696713096217,6400.8,6537.96,5,"[[101,75362976078,19],[440,75362855477,37],[402,75362671200,16],[412,75362712902,6],[463,75362671247,14]]"
40991,74.8919999599457,1787,49.4585405769995,7.96783447265625,6400.8,6537.96,3,"[[101,75881733265,46],[440,75881612727,30],[412,75881470252,4]]"
41289,75.4179999828339,1787,49.4579353979079,7.96939334353885,6400.8,6537.96,5,"[[101,76403220750,26],[463,76402916497,19],[412,76402957852,28],[424,76402904725,18],[440,76403100177,40]]"
41845,76.420000076294,1787,49.4570509053893,7.97162030194257,6400.8,6537.96,4,"[[320,77407154203,36],[424,77406290875,2],[463,77406302672,52],[412,77406343727,26]]"
42083,76.8619999885559,1787,49.4567715919624,7.97228838946368,6400.8,6530.34,3,"[[424,77826757450,39],[320,77827620406,32],[412,77826810202,0]]"
42325,77.3070001602173,1787,49.4563991740599,7.97317917282517,6393.18,6522.72,5,"[[101,78289858765,25],[463,78289555497,20],[412,78289596327,22],[440,78289738527,16],[424,78289543475,2]]"
42560,77.7540001869202,1787,49.4558715820313,7.97455637078536,6393.18,6530.34,4,"[[101,78734897843,24],[440,78734777327,43],[424,78734583025,34],[412,78734635527,4]]"
42848,78.2620000839233,1787,49.4555146815413,7.97548036317568,6393.18,6530.34,4,"[[101,79246829312,34],[463,79246526523,53],[424,79246514675,5],[412,79246567075,0]]"
43138,78.7660000324249,1787,49.4550018310547,7.97679700349507,6393.18,6530.34,3,"[[101,79751935109,25],[412,79751672925,0],[440,79751814527,34]]"
43484,79.3830001354218,1787,49.4544525146484,7.97817029451069,6385.56,6515.1,3,"[[463,80334552073,46],[412,80334592300,5],[424,80334539977,33]]"
43719,79.7910001277924,1787,49.4540863037109,7.97903763620477,6385.56,6515.1,2,"[[320,80772248796,30],[412,80771440625,11]]"
43968,80.2540001869202,1787,49.4537456965042,7.97993427998311,6377.94,6507.48,2,"[[463,81216439800,18],[412,81216479775,7]]"
44192,80.6319999694824,1787,49.4533267263639,7.98104775918497,6377.94,6507.48,3,"[[101,81623556468,26],[440,81623436277,11],[412,81623294750,7]]"
44519,81.2060000896454,1787,49.4529418945313,7.98192877518503,6370.32,6499.86,2,"[[412,82155703600,3],[463,82155663875,21]]"
45026,82.1410000324249,1787,49.4520721435547,7.98416940789474,6362.7,6492.24,4,"[[412,83118134950,0],[463,83118095525,33],[424,83118083077,11],[402,83118095548,13]]"
45354,82.7220001220703,1787,49.4514312744141,7.98575953433388,6355.08,6484.62,3,"[[101,83706776234,22],[440,83706655702,38],[412,83706515025,4]]"
45690,83.3159999847412,1787,49.4510922189486,7.98661515519426,6347.46,6477,4,"[[412,84274417750,18],[463,84274378650,14],[424,84274366227,17],[402,84274378698,9]]"
46322,84.3849999904633,1787,49.4500579833984,7.9893011795847,6339.84,6477,3,"[[402,85352848198,0],[463,85352848150,4],[412,85352886950,0]]"
46898,85.393000125885,1787,49.4491424560547,7.9914695338199,6324.6,6461.76,2,"[[463,86339852502,0],[412,86339891075,7]]"
47188,85.9390001296997,1787,49.4488111592956,7.99240524704392,6316.98,6446.52,2,"[[424,86873614027,25],[412,86873665100,0]]"
47402,86.3000001907349,1787,49.448438741393,7.99329603040541,6309.36,6446.52,5,"[[101,87284835843,23],[440,87284715325,42],[463,87284537202,0],[412,87284575500,0],[424,87284524352,34]]"
47403,86.3000001907349,1787,49.448438741393,7.99329603040541,6309.36,6438.9,5,"[[101,87284835843,23],[440,87284715325,42],[463,87284537202,0],[412,87284575500,0],[424,87284524352,34]]"
48238,87.7929999828339,1787,49.4470367431641,7.99681814093339,6294.12,6423.66,3,"[[101,88774215171,24],[440,88774094650,28],[412,88773955175,0]]"
48543,88.3300001621246,1787,49.446533203125,7.99811915347451,6286.5,6416.04,5,"[[440,89314710925,22],[402,89314533900,11],[424,89314521002,7],[463,89314533827,9],[412,89314571575,3]]"
48838,88.824000120163,1787,49.4461576817399,7.99901189030828,6278.88,6408.42,4,"[[101,89814460015,35],[440,89814339425,32],[320,89815002015,29],[412,89814200175,6]]"
49386,89.8400001525879,1787,49.4453197414592,8.00123884871199,6271.26,6400.8,2,"[[440,90804073600,41],[412,90803934575,8]]"
49676,90.3849999904633,1787,49.4447937011719,8.00252814041941,6263.64,6393.18,6,"[[320,91369907765,22],[412,91369107050,11],[440,91369245898,36],[424,91369056728,20],[463,91369069803,50],[402,91369069877,22]]"
50306,91.5260000228882,1787,49.4437408447266,8.00520244397615,6240.78,6370.32,5,"[[440,92513242323,33],[463,92513066603,21],[412,92513103525,1],[424,92513053328,0],[402,92513066752,11]]"
50629,92.1260001659393,1787,49.4432830810547,8.00628662109375,6240.78,6370.32,4,"[[440,93102987223,20],[412,93102848775,6],[402,93102812227,30],[463,93102812102,39]]"
50630,92.1260001659393,1787,49.4432830810547,8.00628662109375,6240.78,6362.7,4,"[[440,93102987223,20],[412,93102848775,6],[402,93102812227,30],[463,93102812102,39]]"
50899,92.5840001106262,1787,49.44287109375,8.00737079821135,6233.16,6355.08,4,"[[463,93551946752,16],[440,93552121723,20],[412,93551983400,1],[402,93551946852,13]]"
50900,92.5840001106262,1787,49.44287109375,8.00737079821135,6233.16,6362.7,4,"[[463,93551946752,16],[440,93552121723,20],[412,93551983400,1],[402,93551946852,13]]"
51188,93.114000082016,1787,49.4425266071902,8.0082908836571,6225.54,6355.08,4,"[[440,94089991123,37],[402,94089816477,62],[463,94089816400,33],[412,94089852900,34]]"
51412,93.5310001373291,1787,49.4420013427734,8.00961143092105,6217.92,6339.84,5,"[[320,94504292093,29],[424,94503443655,12],[463,94503457200,10],[412,94503493625,0],[402,94503457277,29]]"
51413,93.5310001373291,1787,49.4420013427734,8.00961143092105,6217.92,6347.46,5,"[[320,94504292093,29],[424,94503443655,12],[463,94503457200,10],[412,94503493625,0],[402,94503457277,29]]"
51730,94.0789999961853,1787,49.4416421146716,8.01044361011402,6210.3,6339.84,5,"[[440,95049692098,7],[402,95049517827,47],[424,95049504230,26],[463,95049517798,35],[412,95049554025,6]]"
52022,94.5810000896454,1787,49.4411315917969,8.01177978515625,6202.68,6324.6,5,"[[402,95568275302,10],[424,95568261530,12],[440,95568449373,18],[412,95568311375,77],[463,95568275248,61]]"
52348,95.1790001392365,1787,49.440673828125,8.01286396227385,6202.68,6324.6,4,"[[440,96158194373,7],[463,96158020647,35],[402,96158020727,36],[412,96158056625,0]]"
52633,95.7039999961853,1787,49.4401524430614,8.01415520745355,6195.06,6324.6,2,"[[463,96672682822,13],[412,96672718475,0]]"
52950,96.2669999599457,1787,49.4397334729211,8.01526868665541,6187.44,6309.36,4,"[[101,97258626265,21],[440,97258505748,43],[412,97258368300,2],[463,97258332772,44]]"
53287,96.853000164032,1787,49.4392213983051,8.01660486169764,6179.82,6309.36,3,"[[463,97818044597,24],[412,97818080175,0],[402,98818044677,32]]"
53562,97.3990001678467,1787,49.4387054443359,8.01792345548931,6172.2,6301.74,2,"[[412,98343663323,0],[402,99343627975,40]]"
53846,97.9210000038147,1787,49.4383834580244,8.01868335620777,6164.58,6286.5,3,"[[412,98867881248,13],[463,98867845920,8],[402,98867846050,13]]"
53847,97.9210000038147,1787,49.4383834580244,8.01868335620777,6164.58,6294.12,3,"[[412,98867881248,13],[463,98867845920,8],[402,98867846050,13]]"
54361,98.8259999752045,1787,49.4375152587891,8.02095915141859,6156.96,6286.5,3,"[[463,99775671570,19],[402,99775671675,0],[412,99775706675,8]]"
54936,99.8510000705719,1787,49.4366610252251,8.02306304106841,6141.72,6271.26,4,"[[424,100807712007,26],[412,100807760800,14],[463,100807725944,39],[402,101807726025,27]]"
55217,100.325000047684,1787,49.4363351595604,8.0239538244299,6134.1,6263.64,3,"[[463,101270512545,28],[412,101270547025,34],[402,101270512398,7]]"
55455,100.755000114441,1787,49.4357757568359,8.02522358141447,6126.48,6256.02,4,"[[463,101723742495,45],[412,101723777125,1],[402,101723742573,47],[424,101723728382,53]]"
55456,100.755000114441,1787,49.4357757568359,8.02522358141447,6126.48,6248.4,4,"[[463,101723742495,45],[412,101723777125,1],[402,101723742573,47],[424,101723728382,53]]"
55681,101.163000106812,1787,49.435546875,8.02587408768503,6126.48,6248.4,5,"[[424,102134639057,22],[463,102134653095,21],[440,102134823825,32],[412,102134687600,11],[402,102134653172,31]]"
55949,101.651000022888,1787,49.4350316969015,8.02722003008868,6118.86,6248.4,3,"[[412,102617951050,0],[463,102617916620,37],[402,102617916697,2]]"
56283,102.207000017166,1787,49.4346771240234,8.02804244192023,6111.24,6240.78,3,"[[402,103184454547,54],[463,103184454470,36],[412,103184488725,0]]"
56529,102.641000032425,1787,49.434147204383,8.02937275654561,6103.62,6233.16,4,"[[412,103610415800,28],[424,103610367307,25],[463,103610381620,43],[402,103610381722,38]]"
56806,103.15499997139,1787,49.4338073730469,8.03021079615543,6096,6225.54,4,"[[440,104122483400,69],[402,104122313570,33],[412,104122347475,11],[463,104122313444,41]]"
57103,103.669000148773,1787,49.4333092641022,8.03152548300253,6088.38,6210.3,5,"[[440,104646701175,22],[412,104646565400,10],[463,104646531494,8],[424,104646517257,42],[115,104647149203,27]]"
57678,104.65900015831,1787,49.4324713238215,8.03367820945946,6080.76,6202.68,4,"[[440,105643261075,37],[463,105643091968,25],[424,105643077932,4],[412,105643125652,0]]"
58012,105.253000020981,1787,49.4320058014433,8.03479168866132,6073.14,6195.06,3,"[[463,106224646493,34],[440,106224815250,64],[412,106224680027,0]]"
58013,105.253000020981,1787,49.4320058014433,8.03479168866132,6073.14,6202.68,3,"[[463,106224646493,34],[440,106224815250,64],[412,106224680027,0]]"
58272,105.735000133514,1787,49.431586831303,8.03583093591639,6065.52,6187.44,3,"[[463,106691528193,33],[412,106691561627,13],[402,107691528294,36]]"
58576,106.3140001297,1787,49.4311678611626,8.03694441511824,6057.9,6179.82,3,"[[463,107282638793,46],[412,107282672077,0],[402,107282638869,39]]"
58870,106.884000062943,1787,49.4306557865466,8.03820635821368,6050.28,6172.2,3,"[[463,107842350793,31],[402,107842350869,22],[412,107842383977,3]]"
59171,107.421000003815,1787,49.430050607455,8.03976522909628,6042.66,6172.2,2,"[[402,108408888744,49],[412,108408921677,6]]"
59450,107.903000116348,1787,49.4298178462659,8.04035908467061,6042.66,6164.58,4,"[[463,108852562793,22],[402,108852562869,17],[412,108852595727,0],[424,108852548632,18]]"
59731,108.363000154495,1787,49.4292755126953,8.04170307360197,6035.04,6156.96,3,"[[320,109350298593,28],[463,109349477917,28],[412,109349510727,14]]"
59988,108.805999994278,1787,49.428955078125,8.04257041529605,6027.42,6149.34,4,"[[440,109789223725,23],[463,109789056617,58],[402,109789056669,23],[412,109789089327,18]]"
60232,109.256999969482,1787,49.4286074880826,8.04340259448902,6019.8,6141.72,4,"[[101,110241209156,28],[440,110241088700,37],[412,110240954352,35],[402,110240921869,39]]"
60233,109.256999969482,1787,49.4286074880826,8.04340259448902,6019.8,6149.34,4,"[[101,110241209156,28],[440,110241088700,37],[412,110240954352,35],[402,110240921869,39]]"
60559,109.854000091553,1787,49.4280954134666,8.04466453758446,6012.18,6134.1,5,"[[402,110836127769,27],[463,110836127717,23],[320,110836946890,35],[424,110836113182,19],[412,110836160177,0]]"
60859,110.381999969482,1787,49.4275817871094,8.04600642277644,6012.18,6134.1,3,"[[463,111357615542,21],[412,111357647877,22],[402,111357615669,8]]"
61130,110.888000011444,1787,49.4272574731859,8.04683484529194,6004.56,6126.48,2,"[[412,111843641677,4],[463,111843609417,55]]"
61383,111.328999996185,1787,49.4267120361328,8.0481191781851,5996.94,6118.86,3,"[[463,112306395743,60],[412,112306427877,0],[440,112306561575,33]]"
61650,111.799000024796,1787,49.4263916015625,8.04896428034856,5989.32,6111.24,4,"[[424,112766436980,21],[463,112766451743,25],[412,112766483752,22],[402,113766451819,35]]"
61897,112.25400018692,1787,49.4260471150027,8.04987054122122,5981.7,6103.62,3,"[[463,113206030493,29],[412,113206062427,7],[402,114206030544,30]]"
62128,112.68799996376,1787,49.4256281448623,8.05088243986431,5974.08,6096,4,"[[440,113652600125,40],[463,113652434943,24],[412,113652466802,6],[402,113652435019,35]]"
62359,113.105000019074,1787,49.4253488314354,8.05153294613487,5974.08,6103.62,2,"[[402,114087918319,28],[463,114087918294,24]]"
62671,113.674000024796,1787,49.4247436523438,8.05305079409951,5966.46,6088.38,4,"[[463,114647630294,15],[402,114647630369,10],[412,114647661952,0],[424,114647615305,5]]"
62898,114.09700012207,1787,49.4245108911547,8.05370130037007,5958.84,6088.38,2,"[[394,115055225343,31],[412,115054476977,11]]"
63194,114.644999980927,1787,49.423905712063,8.0552191483347,5951.22,6073.14,2,"[[463,115595045345,17],[412,115595076802,0]]"
63462,115.212000131607,1787,49.4235534667969,8.05607722355769,5943.6,6057.9,2,"[[463,116173869572,33],[412,116173900850,0]]"
63910,116.021000146866,1787,49.4227884583554,8.05796573036595,5935.98,6057.9,3,"[[440,117005410547,41],[463,117005246723,18],[412,117005277850,0]]"
64142,116.475000143051,1787,49.422369488215,8.05904990748355,5935.98,6057.9,4,"[[424,117440714827,46],[412,117440761050,17],[463,117440729998,22],[402,118440730069,20]]"
64143,116.475000143051,1787,49.422369488215,8.05904990748355,5935.98,6050.28,4,"[[424,117440714827,46],[412,117440761050,17],[463,117440729998,22],[402,118440730069,20]]"
64434,117.03400015831,1787,49.4220428466797,8.05988018329327,5928.36,6050.28,3,"[[412,117984091175,26],[463,117984060273,54],[402,117984060369,57]]"
64714,117.539999961853,1787,49.4214477539063,8.06135911207933,5913.12,6035.04,5,"[[440,118509806398,31],[402,118509643570,29],[412,118509674300,35],[463,118509643525,39],[424,118509628450,9]]"
64953,117.963000059128,1787,49.4212188720703,8.06199293870192,5913.12,6035.04,4,"[[402,118946492095,3],[440,118946654723,38],[463,118946492000,50],[412,118946522700,10]]"
65231,118.435000181198,1787,49.4206936076536,8.06331433747944,5905.5,6019.8,4,"[[412,119406578575,6],[463,119406547975,55],[402,119406548045,33],[424,119406532775,12]]"
65479,118.84500002861,1787,49.4204142942267,8.06396484375,5897.88,6019.8,4,"[[320,119814173781,28],[394,119814142843,28],[463,119813363150,31],[412,119813393650,16]]"
65732,119.279000043869,1787,49.420088428562,8.06475990696957,5890.26,6004.56,3,"[[440,120253103923,34],[463,120252941850,50],[412,120252972250,31]]"
66013,119.820000171661,1787,49.419576353946,8.06606091951069,5890.26,6004.56,4,"[[440,120795068998,25],[463,120794907025,46],[412,120794937275,19],[402,121794907072,16]]"
66219,120.223999977112,1787,49.4192504882813,8.06692826120477,5882.64,5996.94,4,"[[463,121197626625,1],[320,121198435890,34],[412,121197656800,0],[402,121197626672,4]]"
66463,120.697999954224,1787,49.4188315181409,8.06801243832237,5875.02,5989.32,3,"[[463,121680890225,38],[412,121680920325,14],[402,121680890297,20]]"
66464,120.697999954224,1787,49.4188315181409,8.06801243832237,5875.02,5996.94,3,"[[463,121680890225,38],[412,121680920325,14],[402,121680890297,20]]"
66758,121.235000133514,1787,49.4184125480005,8.06902433696546,5867.4,5981.7,5,"[[320,122210012062,38],[412,122209233773,16],[402,122209203847,31],[463,122209203798,34],[424,122209188597,6]]"
67014,121.743000030518,1787,49.4178771972656,8.07030310997596,5859.78,5974.08,2,"[[463,122711579548,35],[412,122711609398,7]]"
67307,122.249000072479,1787,49.4175746077198,8.07119269120066,5852.16,5966.46,4,"[[320,123235239812,39],[412,123234462273,36],[424,123234417370,30],[463,123234432473,53]]"
67523,122.673000097275,1787,49.4171556375795,8.07220458984375,5852.16,5966.46,4,"[[463,123652168848,29],[440,123652329325,30],[412,123652198523,0],[402,124652168922,24]]"
67810,123.242000102997,1787,49.4167366674391,8.07328876696135,5844.54,5958.84,4,"[[440,124222962300,32],[463,124222802098,14],[412,124222831673,10],[402,124222802172,15]]"
68072,123.716000080109,1787,49.4163176972987,8.07437294407895,5836.92,5951.22,4,"[[440,124692574175,39],[463,124692414173,52],[402,124692414272,40],[412,124692443648,0]]"
68390,124.324000120163,1787,49.4158521749206,8.07538484272204,5829.3,5943.6,5,"[[424,125288970144,17],[402,125288985423,20],[412,125289014673,7],[463,125288985323,0],[394,125289764828,33]]"
68626,124.831000089645,1787,49.4153866525424,8.07668585526316,5821.68,5935.98,3,"[[402,125800917248,13],[463,125800917148,59],[412,125800946373,4]]"
68867,125.333000183106,1787,49.4148559570313,8.07790902944712,5814.06,5935.98,3,"[[463,126293736750,24],[412,126293765898,0],[402,126293736823,14]]"
69360,126.381000041962,1787,49.4140319824219,8.08002178485577,5806.44,5928.36,3,"[[440,127364174475,35],[412,127364044372,51],[402,128364015523,14]]"
69575,126.825000047684,1787,49.4137107719809,8.08087800678454,5798.82,5920.74,3,"[[440,127803752825,33],[412,127803623072,20],[402,127803594323,25]]"
69875,127.401000022888,1787,49.4131622314453,8.08213454026442,5791.2,5913.12,3,"[[402,128360576048,23],[463,128360575950,22],[412,128360604697,14]]"
70389,128.427000045776,1787,49.4122676526086,8.08449193050987,5775.96,5897.88,5,"[[424,129400805743,14],[412,129400849872,10],[440,129400979250,54],[463,129400821350,28],[394,129401600609,53]]"
70958,129.509000062943,1787,49.4113311767578,8.08678260216346,5760.72,5882.64,5,"[[463,130492942475,32],[440,130493099975,21],[424,130492926792,5],[412,130492970797,18],[394,130493721703,38]]"
71242,130.06200003624,1787,49.4110107421875,8.08767218338816,5753.1,5875.02,3,"[[463,131030812175,26],[412,131030840372,56],[402,131030812273,30]]"
71493,130.524000167847,1787,49.4105917720471,8.08868408203125,5753.1,5875.02,3,"[[412,131486800822,14],[463,131486772700,34],[402,131486772798,80]]"
71775,131.061000108719,1787,49.4101728019068,8.08976825914885,5737.86,5859.78,3,"[[402,132045119773,14],[463,132045119750,36],[394,132045898750,36]]"
72071,131.640000104904,1787,49.4095676228152,8.09121382863898,5737.86,5852.16,4,"[[440,132609083500,27],[463,132608927150,0],[424,132608911417,6],[412,132608955047,4]]"
72360,132.185000181198,1787,49.4092254638672,8.0920644906851,5730.24,5852.16,2,"[[463,133153622600,31],[402,134153622722,40]]"
72621,132.695000171661,1787,49.4087296825344,8.09330990439967,5722.62,5844.54,5,"[[463,133672380100,53],[320,133673177484,35],[412,133672407797,4],[424,133672364392,53],[402,133672380197,8]]"
72921,133.230000019073,1787,49.4083107123941,8.09439408151727,5715,5836.92,2,"[[412,134195260697,29],[402,134195233247,24]]"
73216,133.794000148773,1787,49.4078063964844,8.09565617487981,5707.38,5829.3,5,"[[402,134772692222,0],[440,134772847550,47],[394,134773471125,42],[463,134772692125,16],[412,134772719622,25]]"
73486,134.264000177383,1787,49.4074727721134,8.09649015727796,5699.76,5814.06,4,"[[101,135257596656,26],[402,135257321122,4],[440,135257476075,34],[412,135257348322,11]]"
73774,134.820000171661,1787,49.4069606974974,8.09771889134457,5699.76,5821.68,3,"[[463,135807476950,13],[402,135807477022,29],[412,135807504197,0]]"
74247,135.733999967575,1787,49.4061584472656,8.09981126051683,5684.52,5798.82,2,"[[463,136703016275,20],[402,136703016372,13]]"
74767,136.774000167847,1787,49.4052886962891,8.10192401592548,5669.28,5791.2,3,"[[424,137732324745,10],[463,137732340450,52],[412,137732367350,28]]"
75106,137.391999959946,1787,49.4048309326172,8.10319166917067,5661.66,5775.96,2,"[[463,138315260175,15],[402,139315260297,10]]"
75440,137.943000078201,1787,49.4043731689453,8.104248046875,5661.66,5775.96,3,"[[463,138898179775,10],[402,138898179872,0],[412,138898206450,16]]"
75627,138.322000026703,1787,49.4039611816406,8.10523399939904,5654.04,5775.96,4,"[[440,139302418148,40],[394,139303043312,40],[463,139302264625,37],[412,139302291225,13]]"
75948,138.902000188828,1787,49.4036554886123,8.10610319438734,5646.42,5760.72,4,"[[463,139872897875,1],[402,139872897972,9],[424,139872881998,1],[412,139872924400,21]]"
76428,139.782999992371,1787,49.4028167724609,8.10819185697115,5631.18,5745.48,4,"[[463,140735673575,0],[424,140735657673,40],[440,140735826273,39],[412,140735700125,41]]"
76922,140.772000074387,1787,49.4019927978516,8.11030461237981,5623.56,5737.86,4,"[[463,141743155350,35],[412,141743181525,16],[402,141743155422,26],[424,141743139350,43]]"
77214,141.337000131607,1787,49.4014892578125,8.11150184044471,5615.94,5730.24,2,"[[440,142318036250,5],[412,142317910400,19]]"
77800,142.427999973297,1787,49.4005830409163,8.11383699115954,5600.7,5715,2,"[[440,143396505325,38],[463,143396354050,47]]"
78344,143.417999982834,1787,49.3998413085938,8.11565692608173,5585.46,5699.76,3,"[[440,144383509350,37],[412,144383383925,24],[463,144383358325,6]]"
79093,144.838999986649,1787,49.3986743991658,8.11860737047697,5570.22,5684.52,3,"[[463,145820862700,30],[402,145820862747,0],[412,145820888150,0]]"
79653,145.946000099182,1787,49.3977355957031,8.12086838942308,5554.98,5661.66,2,"[[440,146909091600,31],[463,146908941602,59]]"
80192,146.904000043869,1787,49.3969985186044,8.12272724352385,5547.36,5661.66,3,"[[463,147874050475,6],[412,147874075598,2],[402,148874050598,0]]"
80739,147.851000070572,1787,49.3961605783236,8.12482331928454,5532.12,5646.42,4,"[[412,148809204173,34],[424,148809163103,0],[463,148809179225,35],[402,148809179548,21]]"
81208,148.703999996185,1787,49.3954157425185,8.1266302811472,5516.88,5623.56,4,"[[463,149677415523,11],[412,149677440448,9],[402,149677415673,20],[424,149677399280,3]]"
81486,149.202000141144,1787,49.3949967723782,8.1277144582648,5509.26,5615.94,4,"[[101,150190981625,31],[440,150190861102,40],[402,150190712900,19],[463,150190712522,31]]"
81828,149.805000066757,1787,49.39453125,8.12896728515625,5509.26,5615.94,3,"[[424,150776346255,19],[440,150776510802,25],[463,150776362472,43]]"
82152,150.380000114441,1787,49.3940277099609,8.13016451322115,5501.64,5608.32,5,"[[101,151366376562,29],[463,151366108047,21],[440,151366256027,35],[412,151366132747,11],[402,151366108148,46]]"
82452,150.946000099182,1787,49.3936157226563,8.13122089092548,5494.02,5600.7,4,"[[463,151903977597,18],[402,151903977673,0],[440,151904125427,12],[424,151903961280,35]]"
82947,151.896000146866,1787,49.3928553694386,8.13306306537829,5478.78,5585.46,4,"[[412,152852782122,22],[424,152852741480,31],[463,152852757847,48],[402,152852757898,9]]"
83238,152.40700006485,1787,49.3923797607422,8.13431959885817,5471.16,5577.84,3,"[[440,153371662677,61],[463,153371515420,21],[412,153371539772,39]]"
83515,152.886000156403,1787,49.3920174291579,8.13515914113898,5471.16,5577.84,5,"[[440,153860386627,44],[463,153860239620,41],[424,153860223555,2],[412,153860263747,29],[402,153860239673,6]]"
84046,153.84500002861,1787,49.3912260411149,8.13718293842516,5455.92,5562.6,2,"[[463,154796733545,67],[402,155796733573,14]]"
84527,154.697000026703,1787,49.3904812053099,8.13906217876234,5440.68,5547.36,4,"[[424,155679970230,64],[463,155679986520,35],[402,155679986573,1],[412,155680010422,0]]"
85069,155.695000171661,1787,49.3896432650291,8.14108597604852,5433.06,5547.36,4,"[[463,156641053169,23],[412,156641076797,17],[424,156641036828,15],[402,156641053197,61]]"
85371,156.233999967575,1787,49.3892242948888,8.14209787469161,5425.44,5539.74,4,"[[463,157195304694,24],[424,157195288478,2],[412,157195328448,8],[402,157195304747,55]]"
85593,156.663000106812,1787,49.3888053247484,8.14318205180921,5417.82,5532.12,2,"[[402,157623962272,18],[424,157623945853,40]]"
85854,157.186000108719,1787,49.3884887695313,8.14396784855769,5410.2,5524.5,3,"[[440,158140134725,37],[402,158139989622,15],[463,158139989544,27]]"
86092,157.607000112534,1787,49.3880767822266,8.14502422626202,5402.58,5509.26,3,"[[412,158565940173,13],[463,158565916744,32],[402,158565916772,13]]"
86601,158.519999980927,1787,49.3873622053761,8.14686825400905,5394.96,5501.64,3,"[[424,159472360752,13],[463,159472377319,28],[402,159472377397,13]]"
86858,158.986999988556,1787,49.3870239257813,8.14770038311298,5394.96,5501.64,3,"[[440,159959881025,53],[463,159959736444,24],[402,159959736522,21]]"
87112,159.414999961853,1787,49.3865242650954,8.14889205129523,5387.34,5494.02,5,"[[440,160389903425,54],[320,160390531437,41],[463,160389759120,40],[424,160389742452,18],[402,160389759172,6]]"
87689,160.460999965668,1787,49.3856863248146,8.15098812705592,5372.1,5478.78,2,"[[463,161434099997,19],[412,161434122850,21]]"
88020,161.06500005722,1787,49.3852673546743,8.15200002569901,5356.86,5463.54,3,"[[463,162027940922,51],[412,162027963925,32],[402,163027941022,22]]"
88290,161.548000097275,1787,49.3847808837891,8.15319354717548,5356.86,5463.54,4,"[[440,162529094825,26],[412,162528974150,0],[463,162528951472,5],[402,162528951572,4]]"
88569,162.055000066757,1787,49.3844759666314,8.1540238229852,5349.24,5455.92,3,"[[402,163023136447,29],[412,163023159250,24],[463,163023136373,40]]"
89585,163.976000070572,1787,49.3829040527344,8.15791203425481,5326.38,5433.06,2,"[[440,164961793875,25],[463,164961651475,51]]"
89872,164.483999967575,1787,49.3824276681674,8.15915559467516,5318.76,5425.44,2,"[[463,165435359025,27],[412,165435381275,32]]"
90146,165.032999992371,1787,49.382008698027,8.16016749331826,5311.14,5417.82,3,"[[440,165995213100,37],[412,165995093300,27],[463,165995071150,16]]"
90464,165.595999956131,1787,49.3815307617188,8.16143329326923,5303.52,5410.2,3,"[[440,166582227950,25],[463,166582086275,28],[412,166582108350,33]]"
90715,166.06200003624,1787,49.3811707577463,8.16226356907895,5295.9,5402.58,3,"[[440,167036823252,33],[463,167036681750,64],[412,167036703700,32]]"
90716,166.06200003624,1787,49.3811707577463,8.16226356907895,5295.9,5410.2,3,"[[440,167036823252,33],[463,167036681750,64],[412,167036703700,32]]"
90993,166.53200006485,1787,49.3807067871094,8.1634756234976,5288.28,5402.58,3,"[[463,167491277150,39],[424,167491260480,12],[394,167492054359,17]]"
91250,166.963999986649,1787,49.3804321289063,8.1640390249399,5288.28,5394.96,2,"[[463,167930855975,47],[402,167930856023,28]]"
91525,167.493999958038,1787,49.379960399563,8.16529926500822,5280.66,5387.34,3,"[[402,168463265050,0],[463,168463265025,43],[424,168463248130,2]]"
91772,167.933000087738,1787,49.3796081542969,8.16615178034856,5280.66,5387.34,2,"[[463,168905588800,38],[402,168905588875,61]]"
92081,168.447000026703,1787,49.3791224592823,8.16732306229441,5273.04,5387.34,3,"[[463,169427061975,26],[402,169427062025,4],[424,169427045155,36]]"
92875,169.922000169754,1787,49.3779602050781,8.17023644080529,5250.18,5364.48,3,"[[101,170912607343,30],[463,170912346850,30],[402,170912346975,64]]"
93125,170.383000135422,1787,49.3775482177734,8.17122239332933,5242.56,5356.86,3,"[[463,171351925600,36],[402,171351925675,8],[412,171351946950,0]]"
93126,170.383000135422,1787,49.3775482177734,8.17122239332933,5242.56,5349.24,3,"[[463,171351925600,36],[402,171351925675,8],[412,171351946950,0]]"
93659,171.348999977112,1787,49.3767242431641,8.17326472355769,5234.94,5341.62,2,"[[402,172314357550,10],[463,172314357423,25]]"
94197,172.318000078201,1787,49.3760965638242,8.1749123021176,5219.7,5326.38,2,"[[424,173280867930,29],[463,173280884673,18]]"
94496,172.854000091553,1787,49.3755844892082,8.17614103618421,5212.08,5326.38,2,"[[463,173821484748,21],[440,173821623455,30]]"
94497,172.854000091553,1787,49.3755844892082,8.17614103618421,5212.08,5318.76,2,"[[463,173821484748,21],[440,173821623455,30]]"
94811,173.423000097275,1787,49.3750258623544,8.17758660567434,5204.46,5311.14,3,"[[424,174393466355,0],[463,174393483172,44],[402,175393483225,3]]"
95329,174.389000177383,1787,49.3742980957031,8.17939171424279,5196.84,5303.52,4,"[[424,175358628332,32],[412,175358666148,0],[463,175358645297,19],[402,175358645325,67]]"
95948,175.522000074387,1787,49.373291015625,8.18185659555288,5173.98,5280.66,2,"[[463,176495816497,0],[424,176495799507,40]]"
96180,175.958000183105,1787,49.3730621337891,8.18249042217548,5173.98,5288.28,3,"[[440,176932802705,44],[463,176932665022,50],[402,177932665125,21]]"
96181,175.958000183105,1787,49.3730621337891,8.18249042217548,5173.98,5280.66,3,"[[440,176932802705,44],[463,176932665022,50],[402,177932665125,21]]"
96416,176.388000011444,1787,49.3726501464844,8.18347637469952,5166.36,5280.66,4,"[[320,177363444250,27],[424,177362670782,38],[463,177362687747,7],[402,177362687775,18]]"
96417,176.388000011444,1787,49.3726501464844,8.18347637469952,5166.36,5273.04,4,"[[320,177363444250,27],[424,177362670782,38],[463,177362687747,7],[402,177362687775,18]]"
96930,177.320000171661,1787,49.371826171875,8.18551870492788,5158.74,5265.42,4,"[[463,178300546797,31],[402,178300546850,0],[424,178300529832,32],[412,178300567422,31]]"
97483,178.325000047684,1787,49.3711620266155,8.18719964278372,5143.5,5250.18,2,"[[463,179279360472,30],[424,179279343407,46]]"
98021,179.317000150681,1787,49.3703706385726,8.1892234400699,5128.26,5234.94,3,"[[463,180264999873,48],[424,180264982980,20],[402,181264999923,0]]"
98507,180.27999997139,1787,49.3695326982919,8.19124723735609,5120.64,5227.32,4,"[[320,181259583015,38],[424,181258813080,40],[463,181258830198,23],[402,181258830248,0]]"
99043,181.289000034332,1787,49.3686947580111,8.19334331311678,5105.4,5212.08,4,"[[440,182262351928,25],[402,182262216622,0],[424,182262199453,15],[463,182262216575,36]]"
99570,182.302000045776,1787,49.3677062988281,8.19580078125,5090.16,5196.84,3,"[[440,183291676003,23],[463,183291540827,20],[424,183291523727,25]]"
99817,182.773000001907,1787,49.3673858642578,8.19664588341346,5082.54,5189.22,2,"[[424,183739293527,10],[463,183739310577,36]]"
100098,183.334000110626,1787,49.3670654296875,8.19746318616365,5082.54,5189.22,2,"[[463,184282640852,21],[424,184282623925,47]]"
100621,184.367000102997,1787,49.3660583496094,8.19988544170673,5067.3,5173.98,5,"[[424,185343346548,23],[440,185343497752,23],[412,185343382950,22],[463,185343363603,17],[402,185343363722,23]]"
101079,185.27999997139,1787,49.3654361013639,8.20158305921053,5052.06,5158.74,3,"[[424,186253902572,17],[402,186253919797,5],[463,186253919655,8]]"
101585,186.333000183105,1787,49.3644104003906,8.20404052734375,5044.44,5151.12,4,"[[463,187303721230,33],[440,187303854552,66],[402,187303721273,43],[424,187303704045,0]]"
102099,187.34400010109,1787,49.3635864257813,8.20608285757212,5029.2,5128.26,5,"[[320,188325615875,33],[412,188324888577,13],[424,188324852320,32],[463,188324869580,20],[402,188324869623,13]]"
102382,187.900000095367,1787,49.3632481461864,8.20693166632401,5021.58,5128.26,2,"[[440,188862857077,23],[463,188862724330,10]]"
102640,188.410000085831,1787,49.3626895193326,8.20837723581414,5013.96,5113.02,3,"[[320,189393148281,46],[463,189392403105,30],[402,189392403150,17]]"
103146,189.335000038147,1787,49.3619384765625,8.21023794320913,5006.34,5105.4,2,"[[424,190300211594,20],[463,190300228905,37]]"
103646,190.296000003815,1787,49.3612929521981,8.21184660259046,4991.1,5090.16,2,"[[424,191253087618,29],[463,191253104680,11]]"
104585,192.213999986649,1787,49.3596170716367,8.21596647563734,4968.24,5067.3,3,"[[320,193197822171,45],[463,193197080502,31],[424,193197063343,25]]"
104905,192.838000059128,1787,49.3591461181641,8.21721003605769,4960.62,5067.3,2,"[[463,193747236627,52],[402,193747236700,65]]"
105097,193.230000019074,1787,49.3587791313559,8.21806255139803,4953,5059.68,3,"[[463,194210022977,11],[424,194210005842,19],[402,194210023027,1]]"
105538,194.095999956131,1787,49.3581274000265,8.21972495631168,4937.76,5044.44,2,"[[463,195063242700,24],[402,195063242752,10]]"
106160,195.251000165939,1787,49.3571498030323,8.2221824244449,4930.14,5036.82,3,"[[424,196218143542,16],[463,196218160923,46],[402,196218160977,15]]"
106663,196.223000049591,1787,49.3563118627516,8.22420622173109,4914.9,5021.58,2,"[[463,197192879148,0],[402,197192879202,0]]"
107169,197.173000097275,1787,49.3555755615234,8.22608360877404,4899.66,5006.34,2,"[[412,198137581977,44],[463,198137564048,18]]"
107409,197.59500002861,1787,49.3551635742188,8.22713998647837,4899.66,5006.34,2,"[[440,198566350705,48],[463,198566221673,40]]"
107670,198.037000179291,1787,49.3548221911414,8.22796470240543,4892.04,4998.72,4,"[[320,199010632093,22],[424,199009878442,11],[463,199009895898,40],[402,200009895977,9]]"
107954,198.539000034332,1787,49.3543395996094,8.22918231670673,4884.42,4991.1,3,"[[320,199499355968,24],[463,199498620198,42],[402,199498620352,16]]"
108287,199.103000164032,1787,49.3539842508607,8.22998849969161,4876.8,4983.48,2,"[[402,200066523327,30],[463,200066523248,50]]"
108886,200.223999977112,1787,49.3531036376953,8.23228102463942,4861.56,4968.24,2,"[[463,201160009648,33],[402,202160009727,7]]"
109378,201.138000011444,1787,49.3522796630859,8.23432335486779,4853.94,4960.62,3,"[[402,202127911652,17],[412,202127928627,14],[463,202127911373,23]]"
109886,202.049000024796,1787,49.3515169822564,8.23620444849918,4838.7,4945.38,3,"[[463,203035727948,38],[424,203035710370,18],[402,203035728002,35]]"
110121,202.465000152588,1787,49.351098012116,8.23721634714227,4838.7,4945.38,2,"[[402,203446638652,41],[463,203446638773,35]]"
110365,202.926000118256,1787,49.3507690429688,8.23805588942308,4831.08,4937.76,3,"[[402,203897138627,12],[463,203897138598,22],[424,203897121145,15]]"
110612,203.391000032425,1787,49.3503570556641,8.2391122671274,4823.46,4922.52,2,"[[402,204370846277,32],[463,204370846222,43]]"
110879,203.930000066757,1787,49.3499450683594,8.24009821965144,4823.46,4922.52,3,"[[402,204907350827,2],[463,204907350772,0],[424,204907333247,33]]"
111404,204.929000139236,1787,49.34912109375,8.2422109750601,4808.22,4914.9,2,"[[402,205906641802,0],[463,205906641747,42]]"
111904,205.914000034332,1787,49.3482971191406,8.24418288010817,4792.98,4899.66,4,"[[463,206886820572,20],[440,206886946457,27],[424,206886802973,3],[402,207886820627,0]]"
112234,206.495000123978,1787,49.3477928032309,8.24545609323602,4785.36,4884.42,2,"[[463,207445167620,38],[402,207445167702,29]]"
112235,206.495000123978,1787,49.3477928032309,8.24545609323602,4785.36,4892.04,2,"[[463,207445167620,38],[402,207445167702,29]]"
112539,207.038000106812,1787,49.3474203853284,8.24646799187911,4777.74,4884.42,4,"[[412,208000800750,10],[424,208000766625,30],[402,208000784352,14],[463,208000784270,25]]"
112827,207.578999996185,1787,49.3468780517578,8.2477041391226,4770.12,4869.18,2,"[[463,208568687395,36],[402,208568687452,33]]"
113062,208.011000156403,1787,49.3465824450477,8.2484917891653,4762.5,4861.56,2,"[[440,208982453332,23],[463,208982328270,11]]"
113063,208.011000156403,1787,49.3465824450477,8.2484917891653,4762.5,4869.18,2,"[[440,208982453332,23],[463,208982328270,11]]"
113621,209.042999982834,1787,49.345744504767,8.25051558645148,4747.26,4846.32,3,"[[463,210006191970,24],[424,210006174275,39],[412,210006208250,25]]"
114138,209.935000181198,1787,49.3450469970703,8.25235220102163,4747.26,4846.32,2,"[[463,210894905645,40],[402,211894905727,28]]"
114472,210.503000020981,1787,49.3445341465837,8.25362356085526,4739.64,4838.7,2,"[[463,211455982995,26],[402,211455983077,44]]"
114473,210.503000020981,1787,49.3445341465837,8.25362356085526,4739.64,4846.32,2,"[[463,211455982995,26],[402,211455983077,44]]"
114733,210.993000030518,1787,49.3442230224609,8.25439453125,4732.02,4831.08,2,"[[463,211959723895,14],[402,211959723977,19]]"
115000,211.491000175476,1787,49.343696206303,8.25564735814145,4724.4,4823.46,2,"[[402,212474386152,28],[463,212474386345,45]]"
115554,212.515000104904,1787,49.3428039550781,8.25784536508413,4709.16,4808.22,2,"[[320,213483955781,32],[402,214483233175,20]]"
115840,213.049000024796,1787,49.3424858481197,8.25868305407072,4701.54,4808.22,3,"[[463,214033389148,27],[424,214033371475,11],[402,214033389200,19]]"
116138,213.574000120163,1787,49.3420257568359,8.2598876953125,4693.92,4792.98,2,"[[463,214558972573,15],[402,214558972600,24]]"
116426,214.084000110626,1787,49.3416944600768,8.26070685135691,4686.3,4792.98,3,"[[402,215062713525,28],[463,215062713473,23],[424,215062695852,53]]"
117031,215.152000188828,1787,49.3407897949219,8.2629159780649,4671.06,4770.12,3,"[[320,216130982265,23],[402,216130262050,49],[463,216130262000,29]]"
117504,216.042000055313,1787,49.3400651317532,8.26475444592928,4663.44,4762.5,3,"[[402,217010784825,29],[424,217010767202,53],[463,217010784800,33]]"
117714,216.434000015259,1787,49.3396461616128,8.26576634457237,4663.44,4762.5,2,"[[101,217427398437,23],[440,217427277955,15]]"
118697,218.212000131607,1787,49.3382961467161,8.26916343287418,4632.96,4732.02,3,"[[101,219195269109,26],[440,219195148628,49],[463,219195027402,11]]"
118943,218.643000125885,1787,49.3378771765757,8.27017533151727,4632.96,4732.02,2,"[[320,219621671703,20],[463,219620954652,40]]"
119256,219.160000085831,1787,49.3375396728516,8.27101487379808,4625.34,4724.4,3,"[[440,220133007452,30],[463,220132886553,48],[402,221132886575,28]]"
119537,219.677999973297,1787,49.337039236295,8.27219912880345,4617.72,4716.78,2,"[[412,220633912377,33],[463,220633897153,23]]"
120046,220.649000167847,1787,49.3362478482521,8.27422292608964,4602.48,4701.54,3,"[[463,221631822978,23],[440,221631943352,24],[402,221631823025,25]]"
120380,221.232000112534,1787,49.3358288781118,8.27523482473273,4594.86,4693.92,3,"[[101,222216348640,25],[463,222216107880,37],[402,222216108000,12]]"
120609,221.664000034332,1787,49.3354099079714,8.27624672337582,4594.86,4693.92,3,"[[440,222638059852,15],[463,222637939730,9],[402,222637939775,16]]"
120902,222.200999975204,1787,49.3350374900689,8.27725862201891,4587.24,4686.3,3,"[[101,223186970984,32],[402,223186730775,27],[440,223186850852,14]]"
121229,222.798000097275,1787,49.3345184326172,8.27847994290865,4579.62,4678.68,3,"[[440,223779326127,44],[402,223779206525,20],[463,223779206478,3]]"
121583,223.40499997139,1787,49.3340606689453,8.27967717097356,4572,4671.06,2,"[[463,224352570178,28],[402,225352570300,63]]"
121850,223.874000072479,1787,49.33373402741,8.28051115337171,4564.38,4663.44,2,"[[463,224834468678,29],[402,224834468750,15]]"
122076,224.299000024796,1787,49.3332366943359,8.28171950120192,4564.38,4663.44,2,"[[463,225289064203,38],[402,225289064250,15]]"
122399,224.848000049591,1787,49.3328960871292,8.28253495065789,4556.76,4655.82,2,"[[402,225814647600,16],[463,225814647528,12]]"
122625,225.28200006485,1787,49.3325702214645,8.28333001387747,4549.14,4648.2,2,"[[402,226266512823,44],[463,226266512753,34]]"
122956,225.881999969482,1787,49.3321046990863,8.28455874794408,4541.52,4640.58,2,"[[402,226861718898,18],[463,226861718803,42]]"
123232,226.424000024796,1787,49.3316345214844,8.28573373647837,4533.9,4632.96,2,"[[463,227373650703,29],[440,227373769023,33]]"
124006,227.857000112534,1787,49.3304753707627,8.28860634251645,4518.66,4610.1,2,"[[424,228832979945,6],[463,228832997753,19]]"
124605,228.968000173569,1787,49.3295745849609,8.29080434945913,4503.42,4602.48,2,"[[424,229930561795,0],[463,229930579653,18]]"
125074,229.851999998093,1787,49.3288460424391,8.29265393708882,4488.18,4587.24,3,"[[424,230815180068,18],[463,230815197880,12],[402,230815197998,9]]"
125374,230.394000053406,1787,49.3283843994141,8.29383263221154,4488.18,4587.24,2,"[[402,231355798098,38],[463,231355797980,42]]"
125647,230.924000024796,1787,49.3279724121094,8.29481858473558,4480.56,4579.62,3,"[[463,231895032855,0],[424,231895015067,21],[402,231895032923,6]]"
126167,231.914000034332,1787,49.3272167141155,8.29662925318668,4465.32,4556.76,2,"[[463,232869751105,19],[402,232869751172,45]]"
126386,232.325999975205,1787,49.3267364501953,8.29784686748798,4457.7,4556.76,2,"[[402,233288852772,24],[463,233288852957,4]]"
126623,232.756000041962,1787,49.326416015625,8.29869196965144,4450.08,4549.14,2,"[[463,233724336057,0],[402,233724336072,7]]"
126910,233.292000055313,1787,49.3260994604079,8.29952039216694,4450.08,4549.14,2,"[[463,234267666405,38],[402,234267666473,42]]"
127166,233.753000020981,1787,49.3255920410156,8.30073429987981,4442.46,4533.9,2,"[[463,234731817930,37],[402,234731817948,29]]"
127480,234.302999973297,1787,49.3252615201271,8.30154418945313,4434.84,4526.28,2,"[[463,235271052830,51],[402,235271052998,23]]"
128821,236.884000062943,1787,49.3231666694253,8.3067482396176,4404.36,4495.8,3,"[[463,237847093955,43],[440,237847208673,28],[402,238847093950,8]]"
129097,237.402000188828,1787,49.3226623535156,8.30798809344952,4396.74,4488.18,3,"[[440,238374157048,34],[463,238374042530,40],[402,238374042550,15]]"
129373,237.902000188828,1787,49.3222503662109,8.30897404597356,4389.12,4480.56,2,"[[402,238883244075,34],[463,238883244055,46]]"
129648,238.413000106812,1787,49.3218841552734,8.31003042367788,4381.5,4480.56,2,"[[463,239367872930,40],[402,239367872975,43]]"
129920,238.927999973297,1787,49.3214721679688,8.31101637620192,4381.5,4472.94,2,"[[402,239908472975,30],[463,239908472955,17]]"
130262,239.525000095367,1787,49.3208770751953,8.31242487980769,4366.26,4457.7,2,"[[463,240479106353,35],[402,240479106400,28]]"
130489,239.960000038147,1787,49.3206481933594,8.31305870643029,4366.26,4457.7,2,"[[463,240948718503,33],[402,240948718525,34]]"
130749,240.434000015259,1787,49.3201407739672,8.31426520096628,4358.64,4457.7,3,"[[440,241406157975,29],[402,241406044577,3],[463,241406044327,33]]"
130999,240.924000024796,1787,49.31982421875,8.31510103665865,4351.02,4450.08,2,"[[463,241904324652,0],[402,242904324677,7]]"
131213,241.34400010109,1787,49.3194122314453,8.31608698918269,4343.4,4434.84,3,"[[440,242326269725,22],[463,242326156527,51],[402,242326156577,26]]"
131509,241.881999969482,1787,49.3190700724974,8.31693950452303,4343.4,4434.84,2,"[[463,242833992927,12],[402,242833992952,5]]"
131510,241.881999969482,1787,49.3190700724974,8.31693950452303,4343.4,4442.46,2,"[[463,242833992927,12],[402,242833992952,5]]"
131798,242.43700003624,1787,49.3185114456435,8.31831279553865,4335.78,4434.84,2,"[[463,243386879377,26],[402,243386879452,49]]"
132670,244.005000114441,1787,49.3173522949219,8.32115760216346,4312.92,4411.98,2,"[[463,244952708277,28],[402,245952708327,0]]"
132671,244.005000114441,1787,49.3173522949219,8.32115760216346,4312.92,4404.36,2,"[[463,244952708277,28],[402,245952708327,0]]"
132957,244.492000102997,1787,49.3168821173199,8.32243266858553,4305.3,4404.36,2,"[[463,245457814425,35],[402,245457814502,29]]"
133227,244.973000049591,1787,49.3165283203125,8.32319993239183,4305.3,4404.36,2,"[[463,245935617475,7],[402,245935617527,3]]"
133742,245.992000102997,1787,49.3157043457031,8.32524226262019,4290.06,4389.12,2,"[[463,246949925175,23],[402,246949925202,36]]"
133971,246.444000005722,1787,49.3152527889963,8.32648026315789,4282.44,4373.88,2,"[[463,247405885875,35],[402,247405885952,6]]"
133972,246.444000005722,1787,49.3152527889963,8.32648026315789,4282.44,4381.5,2,"[[463,247405885875,35],[402,247405885952,6]]"
134215,246.889000177383,1787,49.3149734755694,8.32705849095395,4274.82,4366.26,2,"[[402,247875498052,38],[463,247875497975,23]]"
134216,246.889000177383,1787,49.3149734755694,8.32705849095395,4274.82,4373.88,2,"[[402,247875498052,38],[463,247875497975,23]]"
134480,247.355000019074,1787,49.3145141601563,8.3282705453726,4267.2,4366.26,2,"[[463,248313711675,18],[402,248313711802,19]]"
134746,247.835000038147,1787,49.3141820875265,8.32908228824013,4259.58,4351.02,2,"[[463,248787419300,14],[402,248787419452,41]]"
135004,248.291000127792,1787,49.3138562218618,8.32994962993421,4259.58,4351.02,2,"[[440,249266698398,19],[463,249266587525,40]]"
135542,249.218000173569,1787,49.313018281581,8.33197342722039,4244.34,4335.78,3,"[[320,250203770562,29],[440,250203192148,9],[463,250203081600,23]]"
136331,250.705000162125,1787,49.3116760253906,8.33524263822115,4229.1,4320.54,2,"[[463,251677445377,45],[402,252677445402,0]]"
136586,251.185000181198,1787,49.3114471435547,8.33580603966346,4229.1,4320.54,2,"[[440,252140341722,27],[463,252140231802,30]]"
137096,252.115000009537,1787,49.3106231689453,8.33784836989183,4221.48,4320.54,2,"[[463,253083551903,17],[402,253083551677,24]]"
137357,252.574000120163,1787,49.3102111816406,8.33890474759615,4213.86,4312.92,2,"[[463,253542242553,6],[402,253542242927,14]]"
137956,253.6890001297,1787,49.3092941025556,8.34108051500822,4206.24,4305.3,2,"[[402,254665762377,78],[463,254665762378,39]]"
138291,254.28200006485,1787,49.3089216846531,8.34209241365132,4206.24,4305.3,2,"[[463,255233665678,53],[402,255233665527,12]]"
138834,255.296000003815,1787,49.3080837443724,8.3441162109375,4198.62,4297.68,2,"[[440,256271289322,36],[463,256271180778,45]]"
139086,255.785000085831,1787,49.3076019287109,8.34538386418269,4198.62,4297.68,2,"[[463,256740792928,19],[115,256741394312,29]]"
139720,256.956000089645,1787,49.3066864013672,8.34756704477163,4198.62,4297.68,2,"[[463,257918918828,0],[402,258918918827,45]]"
140186,257.792999982834,1787,49.3059539794922,8.34946852463942,4191,4290.06,2,"[[463,258765312853,19],[402,258765312852,31]]"
140489,258.384999990463,1787,49.3054504394531,8.35066575270433,4191,4282.44,2,"[[402,259345502377,33],[463,259345502353,20]]"
140767,258.851000070572,1787,49.3051509533898,8.35148861533717,4183.38,4282.44,2,"[[402,259835591802,14],[463,259835591778,8]]"
141086,259.416000127792,1787,49.3045457742982,8.3528619063528,4183.38,4282.44,3,"[[320,260395983625,24],[463,260395304002,48],[402,260395304052,30]]"
141389,259.983000040054,1787,49.3042144775391,8.35369403545673,4183.38,4282.44,2,"[[463,260929078277,19],[402,260929078277,36]]"
141585,260.391000032425,1787,49.3037543862553,8.35495798211349,4183.38,4282.44,3,"[[402,261375482952,19],[320,261376161500,29],[463,261375482927,16]]"
142312,261.71900010109,1787,49.3026580810547,8.3575674203726,4175.76,4274.82,3,"[[440,262705247072,25],[402,262705140602,34],[463,262705140602,28]]"
142595,262.286000013351,1787,49.3023578191208,8.3584273488898,4175.76,4267.2,2,"[[463,263245740952,8],[440,263245847097,14]]"
143947,264.851000070572,1787,49.3001698639433,8.36377595600329,4160.52,4251.96,2,"[[463,265814956175,30],[402,266814956177,47]]"
144420,265.771000146866,1787,49.2993621826172,8.36580716646635,4160.52,4259.58,3,"[[320,266743932984,48],[463,266743259350,36],[402,266743259377,36]]"
144947,266.739000082016,1787,49.2985382080078,8.36784949669471,4152.9,4244.34,2,"[[320,267724111000,39],[463,267723438250,38]]"
147111,270.715000152588,1787,49.2951965332031,8.37615966796875,4137.66,4229.1,2,"[[463,271682378225,50],[402,271682378227,33]]"
147112,270.715000152588,1787,49.2951965332031,8.37615966796875,4137.66,4236.72,2,"[[463,271682378225,50],[402,271682378227,33]]"
147621,271.693000078201,1787,49.2944439386917,8.37801481548109,4137.66,4236.72,3,"[[463,272666652600,8],[402,272666652602,0],[320,272667320703,38]]"
147922,272.213999986649,1787,49.2940979003906,8.37883582481971,4130.04,4229.1,2,"[[463,273170393775,1],[402,273170393652,48]]"
148513,273.315999984741,1787,49.2931870282707,8.38112278988487,4130.04,4229.1,2,"[[463,274254324150,46],[402,274254324077,11]]"
149074,274.333000183105,1787,49.2921752929688,8.38355431189904,4122.42,4221.48,2,"[[463,275297299973,47],[402,275297300002,24]]"
149300,274.771000146866,1787,49.2918548583984,8.3843994140625,4122.42,4213.86,3,"[[402,275750530302,31],[463,275750530323,22],[115,275751129640,23]]"
149301,274.771000146866,1787,49.2918548583984,8.3843994140625,4122.42,4221.48,3,"[[402,275750530302,31],[463,275750530323,22],[115,275751129640,23]]"
149504,275.174000024796,1787,49.2915802001953,8.3850332406851,4122.42,4213.86,3,"[[320,276152549843,27],[463,276151885148,18],[402,276151885102,2]]"
150375,276.717000007629,1787,49.2902542372881,8.38827835886102,4114.8,4206.24,2,"[[463,277633074523,25],[402,277633074502,35]]"
150944,277.782999992371,1787,49.2893371582031,8.39059682992788,4114.8,4206.24,3,"[[320,278755891671,44],[463,278755229222,24],[402,278755229277,55]]"
151527,278.868000030518,1787,49.2885318044889,8.39261506733141,4107.18,4198.62,3,"[[320,279841186359,44],[463,279840524847,26],[402,279840524802,21]]"
152074,279.856000185013,1787,49.2876938642082,8.3946388646176,4099.56,4191,3,"[[402,280832990078,30],[320,280833650687,50],[463,280832990122,20]]"
152390,280.449000120163,1787,49.2871352373544,8.39608443410773,4099.56,4191,3,"[[320,281424760890,45],[440,281424201347,0],[463,281424100822,21]]"
152691,281.013000011444,1787,49.286716267214,8.39709633275082,4099.56,4191,2,"[[320,281998124031,53],[402,281997464505,34]]"
153269,282.078999996185,1787,49.2858783269333,8.39919240851151,4091.94,4183.38,2,"[[402,283066378430,36],[463,283066378347,0]]"
155480,286.162000179291,1787,49.2825164794922,8.40749887319712,4076.7,4168.14,2,"[[440,287137359522,22],[463,287137260750,21]]"
155749,286.65499997139,1787,49.2820144911944,8.40873316714638,4069.08,4160.52,2,"[[320,287641656078,42],[463,287641001775,89]]"
157546,290.194000005722,1787,49.2791748046875,8.41588873612253,4053.84,4145.28,3,"[[440,291182302897,53],[320,291182856312,49],[463,291182205277,57]]"
158595,292.278000116348,1787,49.2774989241261,8.4199363306949,4046.22,4137.66,2,"[[402,293268157155,31],[463,293268157103,41]]"
159024,293.146000146866,1787,49.2767486572266,8.42179518479567,4038.6,4130.04,3,"[[320,294127485968,32],[463,294126837553,37],[402,294126837580,44]]"
160049,295.192000150681,1787,49.2751007080078,8.4258798452524,4030.98,4122.42,2,"[[463,296166374255,43],[402,296166374253,18]]"
160301,295.685000181198,1787,49.2746126853814,8.42709189967105,4023.36,4114.8,2,"[[440,296668846200,30],[402,296668750278,29]]"
160587,296.22200012207,1787,49.274193715241,8.42810379831414,4023.36,4114.8,2,"[[463,297191603155,28],[402,297191603177,46]]"
161201,297.375,1787,49.2732238769531,8.43052790715144,4015.74,4107.18,2,"[[463,298331504853,23],[402,298331504902,64]]"
161427,297.809000015259,1787,49.2728902525821,8.43135632966694,4015.74,4107.18,2,"[[320,298794935437,60],[463,298794291328,35]]"
161737,298.387000083923,1787,49.2723999023438,8.43257023737981,4008.12,4099.56,2,"[[402,299355368702,42],[463,299355368652,39]]"
162270,299.384999990463,1787,49.2715759277344,8.43461256760817,4008.12,4099.56,2,"[[320,300360762968,54],[402,300360120350,20]]"
163610,301.887000083923,1787,49.2696315959349,8.43945151881168,3992.88,4084.32,3,"[[440,302843425502,25],[463,302843331348,27],[402,303843331375,48]]"
163843,302.3140001297,1787,49.2691040039063,8.44066913311298,3992.88,4084.32,3,"[[320,303295836578,48],[463,303295196547,45],[402,303295196575,2]]"
164134,302.835000038147,1787,49.2687936556541,8.44147531609786,3985.26,4076.7,2,"[[402,303790746675,31],[463,303790746922,24]]"
164383,303.3140001297,1787,49.2683258056641,8.44271146334135,3985.26,4076.7,2,"[[463,304282201247,19],[402,304282201275,9]]"
164647,303.77999997139,1787,49.2679595947266,8.44348614032452,3985.26,4076.7,3,"[[320,304757912796,42],[402,304757274125,24],[463,304757274072,44]]"
164931,304.308000087738,1787,49.2675018310547,8.44475379356971,3977.64,4069.08,2,"[[463,305271936272,24],[402,305271936275,30]]"
165218,304.844000101089,1787,49.2671643273305,8.44552291067023,3977.64,4069.08,2,"[[320,305810443781,56],[463,305809806047,28]]"
165808,305.953999996185,1787,49.2662658691406,8.44771165114183,3970.02,4061.46,2,"[[463,306926500147,54],[402,306926500225,25]]"
166068,306.434000015259,1787,49.265767760196,8.44891999897204,3970.02,4061.46,2,"[[463,307393382022,41],[402,307393382025,20]]"
166281,306.834000110626,1787,49.2655349990069,8.4495705052426,3970.02,4061.46,2,"[[320,307794007500,44],[402,307793371575,16]]"
166528,307.340000152588,1787,49.2650756835938,8.45073993389423,3962.4,4053.84,2,"[[463,308314859747,56],[320,308315495000,39]]"
166841,307.906000137329,1787,49.2646636962891,8.45172588641827,3962.4,4053.84,2,"[[320,308892953656,38],[463,308892318622,68]]"
167379,308.934000015259,1787,49.2638397216797,8.45376821664663,3954.78,4046.22,2,"[[440,309906718525,22],[463,309906626347,27]]"
168348,310.794000148773,1787,49.2622833251953,8.45757117638221,3947.16,4038.6,2,"[[440,311766054700,24],[463,311765963022,37]]"
169166,312.315999984741,1787,49.2610015869141,8.46074030949519,3939.54,4030.98,2,"[[320,313301024578,49],[463,313300393547,7]]"
169694,313.265000104904,1787,49.2603677006091,8.46236379523026,3931.92,4023.36,2,"[[320,314237517796,59],[463,314236887947,11]]"
170180,314.174000024796,1787,49.2596282958984,8.46412071814904,3931.92,4023.36,3,"[[320,315160359593,48],[402,315159730377,26],[463,315159730197,0]]"
170457,314.667000055313,1787,49.2591573424259,8.46532721268503,3924.3,4015.74,2,"[[320,315649083515,82],[463,315648454547,34]]"
170695,315.148000001907,1787,49.2588500976563,8.4661630483774,3924.3,4015.74,3,"[[320,316121425500,58],[463,316120797022,28],[402,317120797178,35]]"
171533,316.620000123978,1787,49.2575280141022,8.4693748072574,3916.68,4008.12,2,"[[463,317607447272,38],[440,317607537325,47]]"
172374,318.134000062943,1787,49.2564239501953,8.47207876352163,3909.06,4000.5,2,"[[463,319099558095,14],[320,319100183984,24]]"
172854,318.986000061035,1787,49.2557830810547,8.47369854266827,3909.06,4000.5,2,"[[402,319960969053,15],[463,319960968845,31]]"
173373,319.940999984741,1787,49.2549591064453,8.47574087289663,3901.44,3992.88,3,"[[402,320928861628,28],[320,320929485640,36],[463,320928861420,11]]"
174215,321.43799996376,1787,49.2536641783634,8.47891556589227,3893.82,3985.26,2,"[[320,322409308828,41],[463,322408685922,45]]"
178509,329.173000097275,1787,49.2474517822266,8.4942626953125,3855.72,3947.16,2,"[[463,330128619052,60],[402,330128619103,9]]"
179040,330.1890001297,1787,49.2466278076172,8.49623460036058,3848.1,3939.54,2,"[[320,331158558453,43],[463,331157943753,34]]"
179562,331.121000051498,1787,49.2458038330078,8.49827693058894,3848.1,3939.54,3,"[[320,332103242656,40],[463,332102628505,35],[440,332102714702,39]]"
179797,331.539999961853,1787,49.2453918457031,8.49926288311298,3840.48,3931.92,2,"[[320,332520978812,60],[402,333520365053,17]]"
180827,333.435000181198,1787,49.2438416561838,8.50312885485197,3832.86,3924.3,3,"[[320,334410347140,46],[402,334409735078,28],[463,334409734980,24]]"
181067,333.927999973297,1787,49.2435150146484,8.50391094501202,3832.86,3924.3,2,"[[402,334882077478,33],[463,334882077455,58]]"
181591,334.900000095367,1787,49.2427368164063,8.5058828500601,3825.24,3916.68,2,"[[440,335874628177,16],[463,335874542755,26]]"
181961,335.490000009537,1787,49.2422123278602,8.50710417094984,3825.24,3916.68,2,"[[320,336464898656,47],[440,336464373427,34]]"
182218,335.983000040054,1787,49.2419128417969,8.50792518028846,3825.24,3916.68,2,"[[320,336959098890,50],[463,336958489032,60]]"
182510,336.493999958038,1787,49.2414209398173,8.50912796823602,3817.62,3909.06,2,"[[463,337451293080,49],[402,338451293380,20]]"
182790,337.012000083923,1787,49.2410019696769,8.51013986687911,3817.62,3909.06,2,"[[463,337974146155,61],[402,337974146205,30]]"
183079,337.568000078201,1787,49.2405395507813,8.51130558894231,3810,3901.44,2,"[[402,338558431230,10],[463,338558431130,31]]"
183389,338.126000165939,1787,49.2401275634766,8.51229154146635,3810,3901.44,2,"[[463,339105856980,32],[402,339105857055,39]]"
183894,339.072000026703,1787,49.2394191935911,8.51411518297697,3802.38,3893.82,2,"[[402,340030064805,45],[463,340030064680,34]]"
184229,339.640000104904,1787,49.2388605667373,8.5154884739926,3802.38,3893.82,2,"[[320,340597209406,52],[463,340596602755,49]]"
184481,340.09700012207,1787,49.238525390625,8.51630577674279,3802.38,3893.82,2,"[[402,341078501430,13],[463,341078501230,22]]"
187163,345.019999980927,1787,49.2346243130959,8.52596885279605,3771.9,3863.34,2,"[[320,345989553984,50],[463,345988952078,45]]"
190529,351.173000097275,1787,49.2297821044922,8.53792630709135,3741.42,3832.86,2,"[[320,352142287562,33],[463,352141691000,40]]"
192381,354.542999982834,1787,49.2269897460938,8.54475754957933,3726.18,3817.62,2,"[[440,355505505300,16],[463,355505424923,16]]"
193213,356.134000062943,1787,49.2258453369141,8.54764498197115,3718.56,3810,2,"[[463,357086270623,32],[402,357086270753,23]]"
193808,357.200999975204,1787,49.2249414476298,8.54982074938322,3710.94,3794.76,2,"[[320,358181713671,23],[463,358181122348,38]]"
193809,357.200999975204,1787,49.2249414476298,8.54982074938322,3710.94,3802.38,2,"[[320,358181713671,23],[463,358181122348,38]]"
195461,360.28400015831,1787,49.2225672835011,8.55567530581826,3695.7,3787.14,2,"[[463,361245888000,53],[402,361245888277,23]]"
196040,361.328999996185,1787,49.2216339111328,8.55799748347356,3695.7,3787.14,2,"[[463,362305245750,33],[320,362305833593,32]]"
197683,364.358999967575,1787,49.2192535400391,8.5638427734375,3680.46,3764.28,2,"[[463,365341343250,45],[402,365341343627,52]]"
198232,365.388000011444,1787,49.2184753417969,8.56581467848558,3672.84,3756.66,2,"[[463,366331078275,17],[402,367331078552,3]]"
199788,368.251000165939,1787,49.2162361791579,8.57128745631168,3657.6,3749.04,2,"[[440,369233468100,13],[463,369233391125,62]]"
200895,370.264000177383,1787,49.214653403072,8.57519049393503,3649.98,3733.8,2,"[[463,371214226100,40],[402,371214226225,18]]"
203164,374.396000146866,1787,49.2112884521484,8.58342097355769,3627.12,3710.94,2,"[[463,375350635978,13],[402,375350636050,24]]"
203995,375.894000053406,1787,49.2100982666016,8.58637883112981,3619.5,3703.32,2,"[[320,376873355500,28],[463,376872780228,24]]"
205249,378.276000022888,1787,49.2081298828125,8.59123816856971,3604.26,3688.08,3,"[[440,379260505573,28],[320,379261003812,32],[463,379260430627,12]]"
205850,379.34400010109,1787,49.2073059082031,8.59321007361779,3604.26,3688.08,2,"[[463,380312962625,33],[402,380312962750,15]]"
206098,379.822999954224,1787,49.2070188360699,8.59398289730674,3596.64,3680.46,2,"[[463,380793496100,36],[440,380793570873,22]]"
206313,380.242000102997,1787,49.2066929704052,8.59477796052632,3596.64,3680.46,2,"[[440,381204481198,22],[463,381204406750,50]]"
206853,381.25400018692,1787,49.2059015823623,8.59672947933799,3589.02,3672.84,2,"[[402,382218714700,26],[463,382218714500,62]]"
213240,393.005000114441,1787,49.1964514780853,8.6198585911801,3528.06,3611.88,2,"[[320,393974597093,47],[463,393974036628,45]]"
272309,499.193000078201,1787,49.1120522709216,8.8264304713199,3048,3124.2,2,"[[254,500181416312,32],[320,500181954156,34]]"
276974,507.59500002861,1787,49.1054418531515,8.84262084960938,3048,3124.2,2,"[[320,508572170453,42],[254,508571630250,45]]"
278599,510.445000171661,1787,49.1032073457362,8.84804173519737,3048,3124.2,2,"[[254,511431620234,52],[320,511432161234,30]]"
279817,512.637000083923,1787,49.1014383606992,8.85230616519326,3048,3124.2,2,"[[254,513618591109,56],[320,513619132687,39]]"
280443,513.800000190735,1787,49.1005073159428,8.85461907637747,3048,3124.2,2,"[[320,514779510843,36],[254,514778968875,72]]"
280937,514.699000120163,1787,49.0997772216797,8.85638897235577,3048,3124.2,2,"[[254,515685428734,70],[320,515685970921,22]]"
283854,519.888000011444,1787,49.0956115722656,8.86653019831731,3048,3131.82,2,"[[254,520857983453,67],[320,520858527125,38]]"
284072,520.282999992371,1787,49.0952911376953,8.86730487530048,3048,3131.82,2,"[[320,521265342125,40],[254,521264798328,57]]"
284399,520.863000154495,1787,49.0949675996425,8.86806287263569,3048,3131.82,2,"[[320,521840070531,56],[254,521839526546,65]]"
285287,522.488000154495,1787,49.0936431884766,8.87131911057692,3048,3131.82,2,"[[320,523465965125,33],[254,523465420687,63]]"
285637,523.080000162125,1787,49.0930938720703,8.8726571890024,3048,3131.82,2,"[[320,524059805640,40],[254,524059261015,73]]"
292772,535.973000049591,1787,49.0830036745233,8.89719109786184,3048,3131.82,2,"[[254,536953106296,52],[440,536953258600,17]]"
295251,540.410000085831,1787,49.0796519134004,8.90535856548109,3048,3131.82,2,"[[254,541391210359,29],[320,541391759890,47]]"
295961,541.679000139236,1787,49.0786285400391,8.90779935396635,3048,3131.82,2,"[[254,542662165093,33],[320,542662715125,32]]"
304034,556.388000011444,1787,49.0672690181409,8.93542641087582,3048,3131.82,2,"[[254,557367565218,50],[320,557368119453,11]]"
307139,562.028000116348,1787,49.0628465555482,8.94612362510279,3048,3131.82,2,"[[254,563016557703,44],[320,563017113546,30]]"
307442,562.59700012207,1787,49.0624741376457,8.94706324527138,3048,3131.82,2,"[[254,563584460156,63],[320,563585016218,25]]"
309531,566.542999982834,1787,49.0594482421875,8.95442082331731,3048,3131.82,2,"[[254,567522919109,73],[320,567523476296,49]]"
311448,570.085000038147,1787,49.0565185546875,8.96139291616587,3048,3131.82,2,"[[320,571072868484,28],[254,571072310250,45]]"
316687,579.572000026703,1787,49.049113645392,8.97944400185033,3048,3131.82,2,"[[320,580559301359,41],[254,580558740609,32]]"
319894,585.43799996376,1787,49.0444584216102,8.99064716539885,3048,3131.82,2,"[[254,586412505375,45],[320,586413068046,30]]"
320454,586.47200012207,1787,49.0435638427734,8.99273212139423,3048,3124.2,2,"[[254,587456845515,72],[320,587457408500,43]]"
322648,590.463999986649,1787,49.0403594970703,9.00054931640625,3048,3131.82,2,"[[320,591446379171,27],[254,591445815015,69]]"
322945,591.003000020981,1787,49.039896302304,9.00170577199835,3048,3131.82,2,"[[254,591982319218,37],[320,591982883500,29]]"
326584,597.572999954224,1787,49.0348221083819,9.01399311266447,3048,3131.82,2,"[[254,598558248859,39],[320,598558815125,38]]"
327900,599.903000116348,1787,49.0330352783203,9.01836688701923,3048,3131.82,2,"[[254,600885830671,28],[320,600886397390,34]]"
328818,601.515000104904,1787,49.0319366455078,9.02104304387019,3048,3131.82,2,"[[254,602498073187,42],[320,602498640515,34]]"
330914,605.292999982834,1787,49.0291442871094,9.02787428635817,3048,3139.44,2,"[[254,606275444734,61],[320,606276012953,60]]"
332819,608.700000047684,1787,49.02685546875,9.03350830078125,3048,3139.44,2,"[[320,609676603875,52],[254,609676034750,25]]"
336760,615.933000087738,1787,49.0219116210938,9.04548058143029,3048,3139.44,2,"[[254,616922253968,37],[320,616922824859,36]]"
337584,617.447999954224,1787,49.0209045410156,9.04794546274038,3048,3139.44,2,"[[320,618429951531,39],[254,618429380156,56]]"
338293,618.761000156403,1787,49.0200184967558,9.05006007144326,3048,3139.44,2,"[[254,619745385375,48],[320,619745956968,48]]"
339403,620.731000185013,1787,49.0187530517578,9.05315692608173,3048,3139.44,2,"[[254,621720758078,59],[320,621721330265,27]]"
341137,623.926000118256,1787,49.0165100097656,9.05857966496394,3048,3139.44,2,"[[320,624908957625,37],[254,624908384578,45]]"
342695,626.820000171661,1787,49.014618437169,9.06314247532895,3048,3139.44,2,"[[254,627802503843,49],[320,627803077562,52]]"
343343,627.942000150681,1787,49.0137339446504,9.06523855108964,3048,3139.44,2,"[[254,628931500187,68],[320,628932074031,44]]"
344274,629.657999992371,1787,49.0126647949219,9.06787578876202,3048,3139.44,2,"[[254,630640652062,30],[320,630641226312,36]]"
344549,630.113000154495,1787,49.0122985839844,9.06865046574519,3048,3139.44,2,"[[320,631095821562,53],[254,631095247093,69]]"
345098,631.095999956131,1787,49.0116119384766,9.07027024489183,3048,3139.44,2,"[[320,632075999921,52],[254,632075425234,85]]"
346471,633.631000041962,1787,49.010009765625,9.07420108192845,3048,3139.44,2,"[[254,634618700953,63],[320,634619276171,55]]"
355412,649.940000057221,1787,48.9988372285487,9.10101639597039,3048,3139.44,2,"[[320,650924638875,39],[254,650924060187,49]]"
355697,650.436000108719,1787,48.9986044673596,9.10152234529194,3048,3139.44,2,"[[254,651419609640,72],[320,651420188640,41]]"
358443,655.40900015831,1787,48.9952527062368,9.10961753443668,3048,3139.44,2,"[[254,656395583984,59],[320,656396163890,35]]"
359948,658.133000135422,1787,48.9933929443359,9.11414513221154,3048,3139.44,2,"[[320,659110083953,37],[254,659109503468,63]]"
361271,660.529000043869,1787,48.9918365478516,9.11787766676683,3048,3139.44,2,"[[320,661510019375,36],[254,661509438406,65]]"
362285,662.373000144959,1787,48.9905509302172,9.12096525493421,3048,3139.44,2,"[[254,663357852453,45],[320,663358433750,47]]"
362731,663.218000173569,1787,48.9899457511255,9.12248310289885,3048,3139.44,2,"[[254,664197419968,50],[320,664198001593,41]]"
363236,664.157999992371,1787,48.9892474675583,9.12407322933799,3048,3139.44,2,"[[254,665140739296,56],[320,665141320906,51]]"
365770,668.662000179291,1787,48.9862976074219,9.13118802584134,3048,3139.44,2,"[[254,669644371406,75],[320,669644953875,35]]"
367382,671.685000181198,1787,48.9842834472656,9.13604736328125,3048,3139.44,2,"[[320,672668763328,28],[254,672668180125,81]]"
372385,680.774000167847,1787,48.9781214827198,9.15096082185444,3009.9,3093.72,2,"[[320,681762034062,43],[254,681761449343,60]]"
372952,681.838000059128,1787,48.9772796630859,9.15287898137019,3002.28,3086.1,2,"[[320,682824121500,53],[254,682823536625,77]]"
373212,682.341000080109,1787,48.9770042290122,9.15356284693668,3002.28,3086.1,2,"[[254,683323181750,77],[320,683323766718,52]]"
374003,683.835999965668,1787,48.9759063720703,9.15618896484375,2987.04,3070.86,2,"[[254,684823482453,67],[320,684824067687,43]]"
374487,684.718000173569,1787,48.9754486083984,9.15731576772836,2979.42,3063.24,2,"[[254,685701274375,56],[320,685701859796,40]]"
375601,686.782999992371,1787,48.9740248857919,9.16071841591283,2964.18,3048,2,"[[254,687757191562,62],[320,687757777156,35]]"
376736,688.809000015259,1787,48.972721423133,9.16389866879112,2948.94,3032.76,2,"[[320,689797312750,34],[254,689796726906,78]]"
377311,689.865000009537,1787,48.971923828125,9.16583721454327,2941.32,3025.14,2,"[[254,690843797703,86],[320,690844383562,39]]"
378390,691.851000070572,1787,48.9705963134766,9.16900634765625,2926.08,3009.9,2,"[[254,692830092000,68],[320,692830678296,44]]"
379646,694.114000082016,1787,48.9691314697266,9.17252760667067,2910.84,2994.66,2,"[[254,695093512140,104],[320,695094098625,24]]"
384446,702.785000085831,1787,48.9634575278072,9.18630499588816,2842.26,2918.46,2,"[[320,703766903000,28],[254,703766315859,68]]"
388046,709.131999969482,1787,48.9591281696902,9.1966408177426,2796.54,2880.36,2,"[[254,710118363312,119],[320,710118950687,49]]"
388322,709.649000167847,1787,48.9588775634766,9.19724684495192,2788.92,2872.74,2,"[[254,710628929703,114],[320,710629517187,34]]"
394670,721.09700012207,1787,48.9512329101563,9.21562781700721,2705.1,2781.3,2,"[[254,722075721500,67],[320,722076308609,37]]"
396806,724.893000125885,1787,48.9487609863281,9.22161395733173,2674.62,2750.82,2,"[[254,725879032640,88],[320,725879619421,38]]"
398387,727.700000047684,1787,48.9469299316406,9.22590989332933,2651.76,2727.96,2,"[[254,728674862343,76],[320,728675448750,57]]"
398715,728.264000177383,1787,48.9464721679688,9.22703669621394,2651.76,2727.96,2,"[[320,729240621281,48],[254,729240034781,110]]"
404097,737.858000040054,1787,48.9401092529297,9.24231896033654,2583.18,2659.38,2,"[[320,738843093828,39],[254,738842509031,85]]"
404835,739.156000137329,1787,48.939250364142,9.24434461091694,2567.94,2644.14,2,"[[254,740143498296,103],[320,740144082750,55]]"
405372,740.131999969483,1787,48.9385986328125,9.24593473735609,2560.32,2636.52,2,"[[254,741120946609,82],[320,741121530890,60]]"
405923,741.164000034332,1787,48.9379469014831,9.24752486379523,2552.7,2628.9,2,"[[254,742151636093,67],[320,742152219921,81]]"
406214,741.664999961853,1787,48.9376831054688,9.24816425030048,2545.08,2621.28,2,"[[254,742652646484,82],[320,742653230421,85]]"
406480,742.164000034332,1787,48.9372951701536,9.24911499023438,2545.08,2621.28,2,"[[320,743146049921,81],[254,743145466062,128]]"
406756,742.634999990463,1787,48.9369964599609,9.24978402944711,2537.46,2613.66,2,"[[254,743616443375,82],[320,743617027078,85]]"
407889,744.723000049591,1787,48.9356689453125,9.25295316256009,2522.22,2590.8,2,"[[320,745686596140,53],[254,745686012906,75]]"
408165,745.276000022888,1787,48.9352111816406,9.25407996544471,2522.22,2598.42,2,"[[320,746253133765,52],[254,746252550671,120]]"
408672,746.207000017166,1787,48.9345951403602,9.25554777446546,2514.6,2590.8,2,"[[254,747193139953,102],[320,747193722828,78]]"
409467,747.644000053406,1787,48.9337005615234,9.25774207481971,2506.98,2583.18,2,"[[254,748633374750,66],[320,748633957281,79]]"
409767,748.172000169754,1787,48.9332916777013,9.25872802734375,2499.36,2567.94,2,"[[254,749154862609,123],[320,749155444953,70]]"
410603,749.705000162125,1787,48.932373046875,9.26091120793269,2491.74,2567.94,2,"[[254,750685197453,75],[320,750685779328,68]]"
411146,750.647000074387,1787,48.9316864013672,9.26253098707933,2484.12,2560.32,2,"[[320,751629098765,74],[254,751628517093,66]]"
411460,751.203999996185,1787,48.9312899314751,9.26349840666118,2476.5,2552.7,2,"[[320,752181984890,53],[254,752181403406,105]]"
411747,751.762000083923,1787,48.9309640658104,9.26429346988076,2476.5,2552.7,2,"[[254,752741115546,85],[320,752741696890,60]]"
413701,755.523000001907,1787,48.9284820556641,9.27020733173077,2446.02,2522.22,2,"[[320,756506783531,48],[254,756506203437,104]]"
414503,757.042000055313,1787,48.9273376464844,9.27295391376202,2430.78,2499.36,2,"[[254,758017426218,137],[320,758018005812,35]]"
415024,758.022000074387,1787,48.926727812169,9.27434017783717,2430.78,2499.36,2,"[[320,758996819171,70],[254,758996239906,85]]"
415782,759.482000112534,1787,48.9258270263672,9.27661602313702,2415.54,2484.12,2,"[[254,760463777812,156],[320,760464356531,46]]"
416056,760.06200003624,1787,48.9253234863281,9.27774282602163,2407.92,2476.5,2,"[[254,761039871812,109],[320,761040450359,74]]"
416584,761.060000181198,1787,48.9246826171875,9.27936260516827,2400.3,2476.5,2,"[[320,762042471265,70],[254,762041893093,150]]"
416839,761.526000022888,1787,48.9244537353516,9.27978515625,2400.3,2468.88,2,"[[254,762504679437,148],[320,762505257390,73]]"
417675,763.016999959946,1787,48.9234226032839,9.2823630885074,2392.68,2461.26,2,"[[254,763991329562,149],[320,763991906968,75]]"
418481,764.426000118256,1787,48.9225381107654,9.28445916426809,2377.44,2453.64,2,"[[254,765402896312,145],[320,765403473187,57]]"
418995,765.335999965668,1787,48.9218863794359,9.28604929070724,2369.82,2438.4,2,"[[320,766318124453,53],[254,766317547859,148]]"
419308,765.920000076294,1787,48.9214782714844,9.28696852463942,2369.82,2438.4,2,"[[254,766896372171,121],[320,766896948531,56]]"
420751,768.486000061035,1787,48.9197845458984,9.29098275991586,2346.96,2415.54,2,"[[320,769466162828,56],[254,769465587609,129]]"
421059,769.037000179291,1787,48.9193267822266,9.29210956280048,2339.34,2407.92,2,"[[254,770023934593,135],[320,770024509750,1]]"
421591,770.028000116348,1787,48.9186859130859,9.29372934194711,2331.72,2400.3,2,"[[254,771015034718,142],[320,771015609437,33]]"
421859,770.50400018692,1787,48.91845703125,9.29422231820913,2331.72,2400.3,2,"[[254,771481916562,116],[320,771482491078,37]]"
426483,778.692000150681,1787,48.9129638671875,9.30732140174279,2270.76,2339.34,2,"[[254,779676922203,143],[320,779677493218,36]]"
427019,779.606000185013,1787,48.9123431706833,9.30881701017681,2263.14,2331.72,2,"[[254,780591573843,166],[320,780592144484,34]]"
427357,780.1890001297,1787,48.9118776483051,9.30990118729441,2255.52,2324.1,2,"[[254,781171764171,176],[320,781172334531,39]]"
429186,783.420000076294,1787,48.9098293498411,9.31488840203536,2232.66,2293.62,2,"[[320,784398185750,27],[254,784397616906,109]]"
429511,783.947999954224,1787,48.9093638274629,9.31604485762747,2232.66,2293.62,2,"[[254,784934121515,162],[320,784934690140,25]]"
